../Core/Src/main.c:76:5:main	8	static
../Core/Src/main.c:129:6:SystemClock_Config	104	static
../Core/Src/main.c:175:13:MX_I2C1_Init	8	static
../Core/Src/main.c:223:13:MX_TIM14_Init	8	static
../Core/Src/main.c:254:13:MX_GPIO_Init	48	static
../Core/Src/main.c:283:6:init_LTR	16	static
../Core/Src/main.c:326:6:read_LTR_ALS	48	static
../Core/Src/main.c:364:6:LTR_write_register	32	static
../Core/Src/main.c:380:6:Error_Handler	8	static,ignoring_inline_asm
