%TF.GenerationSoftware,KiCad,Pcbnew,(6.0.2)*%
%TF.CreationDate,2022-04-12T19:11:11+02:00*%
%TF.ProjectId,Main_3,4d61696e-5f33-42e6-9b69-6361645f7063,rev?*%
%TF.SameCoordinates,Original*%
%TF.FileFunction,Soldermask,Top*%
%TF.FilePolarity,Negative*%
%FSLAX46Y46*%
G04 Gerber Fmt 4.6, Leading zero omitted, Abs format (unit mm)*
G04 Created by KiCad (PCBNEW (6.0.2)) date 2022-04-12 19:11:11*
%MOMM*%
%LPD*%
G01*
G04 APERTURE LIST*
%ADD10R,1.700000X1.700000*%
%ADD11O,1.700000X1.700000*%
%ADD12C,1.300000*%
%ADD13O,2.200000X1.300000*%
%ADD14C,2.390000*%
%ADD15C,3.450000*%
G04 APERTURE END LIST*
D10*
%TO.C,J2*%
X180000000Y-85900000D03*
D11*
X177460000Y-85900000D03*
X174920000Y-85900000D03*
X172380000Y-85900000D03*
X169840000Y-85900000D03*
X167300000Y-85900000D03*
X164760000Y-85900000D03*
X162220000Y-85900000D03*
X159680000Y-85900000D03*
X157140000Y-85900000D03*
X154600000Y-85900000D03*
X152060000Y-85900000D03*
X149520000Y-85900000D03*
X146980000Y-85900000D03*
X144440000Y-85900000D03*
X141900000Y-85900000D03*
X139360000Y-85900000D03*
X136820000Y-85900000D03*
X134280000Y-85900000D03*
X131740000Y-85900000D03*
X129200000Y-85900000D03*
X126660000Y-85900000D03*
X124120000Y-85900000D03*
X121580000Y-85900000D03*
X119040000Y-85900000D03*
X116500000Y-85900000D03*
X113960000Y-85900000D03*
X111420000Y-85900000D03*
X108880000Y-85900000D03*
X106340000Y-85900000D03*
X103800000Y-85900000D03*
X101260000Y-85900000D03*
X98720000Y-85900000D03*
%TD*%
D10*
%TO.C,J1*%
X180086000Y-73914000D03*
D11*
X177546000Y-73914000D03*
X175006000Y-73914000D03*
X172466000Y-73914000D03*
X169926000Y-73914000D03*
X167386000Y-73914000D03*
X164846000Y-73914000D03*
X162306000Y-73914000D03*
X159766000Y-73914000D03*
X157226000Y-73914000D03*
X154686000Y-73914000D03*
X152146000Y-73914000D03*
X149606000Y-73914000D03*
X147066000Y-73914000D03*
X144526000Y-73914000D03*
X141986000Y-73914000D03*
X139446000Y-73914000D03*
X136906000Y-73914000D03*
X134366000Y-73914000D03*
X131826000Y-73914000D03*
X129286000Y-73914000D03*
X126746000Y-73914000D03*
X124206000Y-73914000D03*
X121666000Y-73914000D03*
X119126000Y-73914000D03*
X116586000Y-73914000D03*
X114046000Y-73914000D03*
X111506000Y-73914000D03*
X108966000Y-73914000D03*
X106426000Y-73914000D03*
X103886000Y-73914000D03*
X101346000Y-73914000D03*
X98806000Y-73914000D03*
%TD*%
D10*
%TO.C,J4*%
X180086000Y-134874000D03*
D11*
X177546000Y-134874000D03*
X175006000Y-134874000D03*
X172466000Y-134874000D03*
X169926000Y-134874000D03*
X167386000Y-134874000D03*
X164846000Y-134874000D03*
X162306000Y-134874000D03*
X159766000Y-134874000D03*
X157226000Y-134874000D03*
X154686000Y-134874000D03*
X152146000Y-134874000D03*
X149606000Y-134874000D03*
X147066000Y-134874000D03*
X144526000Y-134874000D03*
X141986000Y-134874000D03*
X139446000Y-134874000D03*
X136906000Y-134874000D03*
X134366000Y-134874000D03*
X131826000Y-134874000D03*
X129286000Y-134874000D03*
X126746000Y-134874000D03*
X124206000Y-134874000D03*
X121666000Y-134874000D03*
X119126000Y-134874000D03*
X116586000Y-134874000D03*
X114046000Y-134874000D03*
X111506000Y-134874000D03*
X108966000Y-134874000D03*
X106426000Y-134874000D03*
X103886000Y-134874000D03*
X101346000Y-134874000D03*
X98806000Y-134874000D03*
%TD*%
D10*
%TO.C,J3*%
X180000000Y-124000000D03*
D11*
X177460000Y-124000000D03*
X174920000Y-124000000D03*
X172380000Y-124000000D03*
X169840000Y-124000000D03*
X167300000Y-124000000D03*
X164760000Y-124000000D03*
X162220000Y-124000000D03*
X159680000Y-124000000D03*
X157140000Y-124000000D03*
X154600000Y-124000000D03*
X152060000Y-124000000D03*
X149520000Y-124000000D03*
X146980000Y-124000000D03*
X144440000Y-124000000D03*
X141900000Y-124000000D03*
X139360000Y-124000000D03*
X136820000Y-124000000D03*
X134280000Y-124000000D03*
X131740000Y-124000000D03*
X129200000Y-124000000D03*
X126660000Y-124000000D03*
X124120000Y-124000000D03*
X121580000Y-124000000D03*
X119040000Y-124000000D03*
X116500000Y-124000000D03*
X113960000Y-124000000D03*
X111420000Y-124000000D03*
X108880000Y-124000000D03*
X106340000Y-124000000D03*
X103800000Y-124000000D03*
X101260000Y-124000000D03*
X98720000Y-124000000D03*
%TD*%
D10*
%TO.C,J12*%
X158999000Y-94000000D03*
D11*
X161539000Y-94000000D03*
%TD*%
D10*
%TO.C,J10*%
X151384000Y-117861000D03*
D11*
X151384000Y-115321000D03*
%TD*%
D12*
%TO.C,U5*%
X185968500Y-105325000D03*
D13*
X188638500Y-106500000D03*
X188638500Y-99300000D03*
D12*
X185968500Y-100475000D03*
%TD*%
D10*
%TO.C,J7*%
X186461000Y-63485000D03*
D11*
X186461000Y-60945000D03*
X186461000Y-58405000D03*
%TD*%
D14*
%TO.C,BT1*%
X175122000Y-52198000D03*
D15*
X111592000Y-52198000D03*
X166792000Y-68198000D03*
%TD*%
D10*
%TO.C,J8*%
X179070000Y-97033000D03*
D11*
X179070000Y-94493000D03*
%TD*%
D10*
%TO.C,J5*%
X106172000Y-97287000D03*
D11*
X106172000Y-94747000D03*
%TD*%
D10*
%TO.C,J6*%
X182925000Y-50600000D03*
D11*
X185465000Y-50600000D03*
%TD*%
D10*
%TO.C,J11*%
X165608000Y-106426000D03*
%TD*%
%TO.C,J9*%
X179070000Y-102103000D03*
D11*
X179070000Y-104643000D03*
%TD*%
M02*
