%TF.GenerationSoftware,KiCad,Pcbnew,(6.0.2)*%
%TF.CreationDate,2022-04-06T00:03:41+02:00*%
%TF.ProjectId,Main_2,4d61696e-5f32-42e6-9b69-6361645f7063,rev?*%
%TF.SameCoordinates,Original*%
%TF.FileFunction,Legend,Top*%
%TF.FilePolarity,Positive*%
%FSLAX46Y46*%
G04 Gerber Fmt 4.6, Leading zero omitted, Abs format (unit mm)*
G04 Created by KiCad (PCBNEW (6.0.2)) date 2022-04-06 00:03:41*
%MOMM*%
%LPD*%
G01*
G04 APERTURE LIST*
%ADD10C,0.150000*%
%ADD11C,0.120000*%
G04 APERTURE END LIST*
D10*
%TO.C,J2*%
X182308380Y-84407333D02*
X183022666Y-84407333D01*
X183165523Y-84454952D01*
X183260761Y-84550190D01*
X183308380Y-84693047D01*
X183308380Y-84788285D01*
X182403619Y-83978761D02*
X182356000Y-83931142D01*
X182308380Y-83835904D01*
X182308380Y-83597809D01*
X182356000Y-83502571D01*
X182403619Y-83454952D01*
X182498857Y-83407333D01*
X182594095Y-83407333D01*
X182736952Y-83454952D01*
X183308380Y-84026380D01*
X183308380Y-83407333D01*
%TO.C,J1*%
X182332380Y-74247333D02*
X183046666Y-74247333D01*
X183189523Y-74294952D01*
X183284761Y-74390190D01*
X183332380Y-74533047D01*
X183332380Y-74628285D01*
X183332380Y-73247333D02*
X183332380Y-73818761D01*
X183332380Y-73533047D02*
X182332380Y-73533047D01*
X182475238Y-73628285D01*
X182570476Y-73723523D01*
X182618095Y-73818761D01*
%TO.C,J4*%
X181868380Y-135207333D02*
X182582666Y-135207333D01*
X182725523Y-135254952D01*
X182820761Y-135350190D01*
X182868380Y-135493047D01*
X182868380Y-135588285D01*
X182201714Y-134302571D02*
X182868380Y-134302571D01*
X181820761Y-134540666D02*
X182535047Y-134778761D01*
X182535047Y-134159714D01*
%TO.C,J3*%
X182308380Y-125047333D02*
X183022666Y-125047333D01*
X183165523Y-125094952D01*
X183260761Y-125190190D01*
X183308380Y-125333047D01*
X183308380Y-125428285D01*
X182308380Y-124666380D02*
X182308380Y-124047333D01*
X182689333Y-124380666D01*
X182689333Y-124237809D01*
X182736952Y-124142571D01*
X182784571Y-124094952D01*
X182879809Y-124047333D01*
X183117904Y-124047333D01*
X183213142Y-124094952D01*
X183260761Y-124142571D01*
X183308380Y-124237809D01*
X183308380Y-124523523D01*
X183260761Y-124618761D01*
X183213142Y-124666380D01*
D11*
%TO.C,J2*%
X181416000Y-85404000D02*
X180086000Y-85404000D01*
X178816000Y-82744000D02*
X97476000Y-82744000D01*
X178816000Y-82744000D02*
X178816000Y-85404000D01*
X97476000Y-82744000D02*
X97476000Y-85404000D01*
X181416000Y-84074000D02*
X181416000Y-85404000D01*
X178816000Y-85404000D02*
X97476000Y-85404000D01*
%TO.C,J1*%
X180086000Y-72584000D02*
X181416000Y-72584000D01*
X178816000Y-75244000D02*
X97476000Y-75244000D01*
X178816000Y-72584000D02*
X178816000Y-75244000D01*
X181416000Y-72584000D02*
X181416000Y-73914000D01*
X97476000Y-72584000D02*
X97476000Y-75244000D01*
X178816000Y-72584000D02*
X97476000Y-72584000D01*
%TO.C,J4*%
X180086000Y-133544000D02*
X181416000Y-133544000D01*
X178816000Y-133544000D02*
X178816000Y-136204000D01*
X97476000Y-133544000D02*
X97476000Y-136204000D01*
X181416000Y-133544000D02*
X181416000Y-134874000D01*
X178816000Y-136204000D02*
X97476000Y-136204000D01*
X178816000Y-133544000D02*
X97476000Y-133544000D01*
%TO.C,J3*%
X178816000Y-123384000D02*
X178816000Y-126044000D01*
X181416000Y-126044000D02*
X180086000Y-126044000D01*
X97476000Y-123384000D02*
X97476000Y-126044000D01*
X178816000Y-123384000D02*
X97476000Y-123384000D01*
X181416000Y-124714000D02*
X181416000Y-126044000D01*
X178816000Y-126044000D02*
X97476000Y-126044000D01*
%TD*%
M02*
