(export (version "E")
  (design
    (source "C:\\Users\\Admin\\OneDrive\\Documents\\EEE3088F\\Project\\eee3088f-group-project\\PCB\\EEE3088F_Project_PCB\\main.kicad_sch")
    (date "2022/04/05 10:17:52 pm")
    (tool "Eeschema (6.0.2)")
    (sheet (number "1") (name "/") (tstamps "/")
      (title_block
        (title "EEE3088F Template")
        (company "University of Cape Town")
        (rev "V0.0")
        (date "2022-02-21")
        (source "main.kicad_sch")
        (comment (number "1") (value ""))
        (comment (number "2") (value ""))
        (comment (number "3") (value "@Checked By: "))
        (comment (number "4") (value "@Authors: Justin Pead"))
        (comment (number "5") (value ""))
        (comment (number "6") (value ""))
        (comment (number "7") (value ""))
        (comment (number "8") (value ""))
        (comment (number "9") (value ""))))
    (sheet (number "2") (name "/Power/") (tstamps "/d15c8919-7ccc-44b2-8fc4-b04c1b47b6fa/")
      (title_block
        (title "Power Module Circuit Schematics")
        (company)
        (rev "v0.2")
        (date "2022-03-10")
        (source "power.kicad_sch")
        (comment (number "1") (value "Author: Stefan Friedrich"))
        (comment (number "2") (value ""))
        (comment (number "3") (value ""))
        (comment (number "4") (value ""))
        (comment (number "5") (value ""))
        (comment (number "6") (value ""))
        (comment (number "7") (value ""))
        (comment (number "8") (value ""))
        (comment (number "9") (value ""))))
    (sheet (number "3") (name "/Sensing/") (tstamps "/cf6c12a4-3d95-473d-bafe-8be3892a84e9/")
      (title_block
        (title "Sensing Module")
        (company)
        (rev "V.2")
        (date)
        (source "sensing.kicad_sch")
        (comment (number "1") (value "RSSMIK001"))
        (comment (number "2") (value "By Mikhail Russell"))
        (comment (number "3") (value ""))
        (comment (number "4") (value ""))
        (comment (number "5") (value ""))
        (comment (number "6") (value ""))
        (comment (number "7") (value ""))
        (comment (number "8") (value ""))
        (comment (number "9") (value ""))))
    (sheet (number "4") (name "/microcontroller_interfacing/") (tstamps "/59b42903-2dc7-4011-ab5b-d7b81bd233c3/")
      (title_block
        (title "Microcontroller Interfacing Circuit")
        (company "Author: Sarah Tallack")
        (rev "V2")
        (date "2022-03-10")
        (source "microcontroller_interfacing.kicad_sch")
        (comment (number "1") (value ""))
        (comment (number "2") (value ""))
        (comment (number "3") (value ""))
        (comment (number "4") (value ""))
        (comment (number "5") (value ""))
        (comment (number "6") (value ""))
        (comment (number "7") (value ""))
        (comment (number "8") (value ""))
        (comment (number "9") (value ""))))
    (sheet (number "5") (name "/Outputs/") (tstamps "/6faa355f-9d08-4dfa-b3e6-58b461b2063e/")
      (title_block
        (title)
        (company)
        (rev)
        (date)
        (source "outputs.kicad_sch")
        (comment (number "1") (value ""))
        (comment (number "2") (value ""))
        (comment (number "3") (value ""))
        (comment (number "4") (value ""))
        (comment (number "5") (value ""))
        (comment (number "6") (value ""))
        (comment (number "7") (value ""))
        (comment (number "8") (value ""))
        (comment (number "9") (value "")))))
  (components
    (comp (ref "J1")
      (value "Conn_01x33_Female")
      (footprint "Connector_PinHeader_2.54mm:PinHeader_1x33_P2.54mm_Vertical")
      (libsource (lib "Connector") (part "Conn_01x33_Female") (description "Generic connector, single row, 01x33, script generated (kicad-library-utils/schlib/autogen/connector/)"))
      (property (name "LCSC") (value ""))
      (property (name "Populate") (value ""))
      (property (name "Price") (value ""))
      (property (name "Sheetname") (value ""))
      (property (name "Sheetfile") (value "main.kicad_sch"))
      (sheetpath (names "/") (tstamps "/"))
      (tstamps "ae3c331f-8808-430e-931c-7d9b2cc37f5b"))
    (comp (ref "J2")
      (value "Conn_01x33_Female")
      (footprint "Connector_PinSocket_2.54mm:PinSocket_1x33_P2.54mm_Vertical")
      (libsource (lib "Connector") (part "Conn_01x33_Female") (description "Generic connector, single row, 01x33, script generated (kicad-library-utils/schlib/autogen/connector/)"))
      (property (name "LCSC") (value ""))
      (property (name "Populate") (value ""))
      (property (name "Alt_LCSC") (value ""))
      (property (name "Price") (value ""))
      (property (name "Sheetname") (value ""))
      (property (name "Sheetfile") (value "main.kicad_sch"))
      (sheetpath (names "/") (tstamps "/"))
      (tstamps "94d07718-2fcc-40a0-ad0e-c4bb67bc804a"))
    (comp (ref "J3")
      (value "Conn_01x33_Female")
      (footprint "Connector_PinSocket_2.54mm:PinSocket_1x33_P2.54mm_Vertical")
      (libsource (lib "Connector") (part "Conn_01x33_Female") (description "Generic connector, single row, 01x33, script generated (kicad-library-utils/schlib/autogen/connector/)"))
      (property (name "LCSC") (value ""))
      (property (name "Populate") (value ""))
      (property (name "Alt_LCSC") (value ""))
      (property (name "Price") (value ""))
      (property (name "Sheetname") (value ""))
      (property (name "Sheetfile") (value "main.kicad_sch"))
      (sheetpath (names "/") (tstamps "/"))
      (tstamps "c7050574-27e1-4a80-9dab-24805663409e"))
    (comp (ref "J4")
      (value "Conn_01x33_Female")
      (footprint "Connector_PinHeader_2.54mm:PinHeader_1x33_P2.54mm_Vertical")
      (libsource (lib "Connector") (part "Conn_01x33_Female") (description "Generic connector, single row, 01x33, script generated (kicad-library-utils/schlib/autogen/connector/)"))
      (property (name "LCSC") (value ""))
      (property (name "Populate") (value ""))
      (property (name "Price") (value ""))
      (property (name "Sheetname") (value ""))
      (property (name "Sheetfile") (value "main.kicad_sch"))
      (sheetpath (names "/") (tstamps "/"))
      (tstamps "39549a53-fe72-4509-a12d-de170bbf0433"))
    (comp (ref "BT1")
      (value "Battery_Cell")
      (footprint "Project_Library:BatteryHolder_Keystone_1042_1x18650")
      (libsource (lib "Device") (part "Battery_Cell") (description "Single-cell battery"))
      (property (name "Sheetname") (value "Power"))
      (property (name "Sheetfile") (value "power.kicad_sch"))
      (sheetpath (names "/Power/") (tstamps "/d15c8919-7ccc-44b2-8fc4-b04c1b47b6fa/"))
      (tstamps "0a1387b4-d725-41e4-b705-3ec9bdec83d1"))
    (comp (ref "C1")
      (value "4.7u")
      (footprint "Project_Library:4.7uF Cap")
      (fields
        (field (name "LCSC") "C29823")
        (field (name "Price") "0.0657"))
      (libsource (lib "Device") (part "C") (description "Unpolarized capacitor"))
      (property (name "LCSC") (value "C29823"))
      (property (name "Price") (value "0.0657"))
      (property (name "Sheetname") (value "Power"))
      (property (name "Sheetfile") (value "power.kicad_sch"))
      (sheetpath (names "/Power/") (tstamps "/d15c8919-7ccc-44b2-8fc4-b04c1b47b6fa/"))
      (tstamps "707213a2-77ff-4f72-b098-e22e901455a9"))
    (comp (ref "C2")
      (value "22u")
      (footprint "Project_Library:22uF Cap")
      (fields
        (field (name "LCSC") "C5672")
        (field (name "Price") "0.0382"))
      (libsource (lib "Device") (part "C") (description "Unpolarized capacitor"))
      (property (name "LCSC") (value "C5672"))
      (property (name "Price") (value "0.0382"))
      (property (name "Sheetname") (value "Power"))
      (property (name "Sheetfile") (value "power.kicad_sch"))
      (sheetpath (names "/Power/") (tstamps "/d15c8919-7ccc-44b2-8fc4-b04c1b47b6fa/"))
      (tstamps "9f96333f-9f89-404a-ae44-ccbd132aa513"))
    (comp (ref "C3")
      (value "100n")
      (footprint "Project_Library:100nF Cap")
      (fields
        (field (name "LCSC") "C24497")
        (field (name "Price") "0.0092"))
      (libsource (lib "Device") (part "C") (description "Unpolarized capacitor"))
      (property (name "LCSC") (value "C24497"))
      (property (name "Price") (value "0.0092"))
      (property (name "Sheetname") (value "Power"))
      (property (name "Sheetfile") (value "power.kicad_sch"))
      (sheetpath (names "/Power/") (tstamps "/d15c8919-7ccc-44b2-8fc4-b04c1b47b6fa/"))
      (tstamps "c943d5c2-4823-44a8-8176-e0a2c60c4989"))
    (comp (ref "C4")
      (value "4.7u")
      (footprint "Project_Library:4.7uF Cap")
      (fields
        (field (name "LCSC") "C29823")
        (field (name "Price") "0.0657"))
      (libsource (lib "Device") (part "C") (description "Unpolarized capacitor"))
      (property (name "LCSC") (value "C29823"))
      (property (name "Price") (value "0.0657"))
      (property (name "Sheetname") (value "Power"))
      (property (name "Sheetfile") (value "power.kicad_sch"))
      (sheetpath (names "/Power/") (tstamps "/d15c8919-7ccc-44b2-8fc4-b04c1b47b6fa/"))
      (tstamps "7fd9ea2e-11c8-4943-ac40-193f65162854"))
    (comp (ref "C5")
      (value "100n")
      (footprint "Project_Library:100nF Cap")
      (fields
        (field (name "LCSC") "C24497")
        (field (name "Price") "0.0092"))
      (libsource (lib "Device") (part "C") (description "Unpolarized capacitor"))
      (property (name "LCSC") (value "C24497"))
      (property (name "Price") (value "0.0092"))
      (property (name "Sheetname") (value "Power"))
      (property (name "Sheetfile") (value "power.kicad_sch"))
      (sheetpath (names "/Power/") (tstamps "/d15c8919-7ccc-44b2-8fc4-b04c1b47b6fa/"))
      (tstamps "20315d11-aead-4812-aa72-b836d2f0b3d5"))
    (comp (ref "C6")
      (value "22u")
      (footprint "Project_Library:22uF Cap")
      (fields
        (field (name "LCSC") "C5672")
        (field (name "Price") "0.0382"))
      (libsource (lib "Device") (part "C") (description "Unpolarized capacitor"))
      (property (name "LCSC") (value "C5672"))
      (property (name "Price") (value "0.0382"))
      (property (name "Sheetname") (value "Power"))
      (property (name "Sheetfile") (value "power.kicad_sch"))
      (sheetpath (names "/Power/") (tstamps "/d15c8919-7ccc-44b2-8fc4-b04c1b47b6fa/"))
      (tstamps "7205e256-3aad-4638-9cd0-89af6dfdee46"))
    (comp (ref "D1")
      (value "1N5819")
      (footprint "Project_Library:Schottky Diode")
      (fields
        (field (name "Alt_LCSC") "C963381")
        (field (name "LCSC") "C727115")
        (field (name "Price") "0.0288"))
      (libsource (lib "Diode") (part "1N5819") (description "40V 1A Schottky Barrier Rectifier Diode, DO-41"))
      (property (name "Alt_LCSC") (value "C963381"))
      (property (name "LCSC") (value "C727115"))
      (property (name "Price") (value "0.0288"))
      (property (name "Sheetname") (value "Power"))
      (property (name "Sheetfile") (value "power.kicad_sch"))
      (sheetpath (names "/Power/") (tstamps "/d15c8919-7ccc-44b2-8fc4-b04c1b47b6fa/"))
      (tstamps "c23abb10-a189-4cd8-81ef-2e9f95f9e18c"))
    (comp (ref "D2")
      (value "LED")
      (footprint "Project_Library:Red LED")
      (fields
        (field (name "LCSC") "C84256")
        (field (name "Price") "0.0136"))
      (libsource (lib "Device") (part "LED") (description "Light emitting diode"))
      (property (name "LCSC") (value "C84256"))
      (property (name "Price") (value "0.0136"))
      (property (name "Sheetname") (value "Power"))
      (property (name "Sheetfile") (value "power.kicad_sch"))
      (sheetpath (names "/Power/") (tstamps "/d15c8919-7ccc-44b2-8fc4-b04c1b47b6fa/"))
      (tstamps "1d9d9ba7-1a0e-4279-bb6d-e2244c77dfd7"))
    (comp (ref "L1")
      (value "15u")
      (footprint "Project_Library:15+-20percent inductor")
      (fields
        (field (name "LCSC") "C155161")
        (field (name "Price") "0.0447"))
      (libsource (lib "Device") (part "L") (description "Inductor"))
      (property (name "LCSC") (value "C155161"))
      (property (name "Price") (value "0.0447"))
      (property (name "Sheetname") (value "Power"))
      (property (name "Sheetfile") (value "power.kicad_sch"))
      (sheetpath (names "/Power/") (tstamps "/d15c8919-7ccc-44b2-8fc4-b04c1b47b6fa/"))
      (tstamps "82afac92-be2a-489b-ade2-7ca5796363bd"))
    (comp (ref "R1")
      (value "470")
      (footprint "Project_Library:470 Resistor")
      (fields
        (field (name "LCSC") "C17710")
        (field (name "Price") "0.0023"))
      (libsource (lib "Device") (part "R") (description "Resistor"))
      (property (name "LCSC") (value "C17710"))
      (property (name "Price") (value "0.0023"))
      (property (name "Sheetname") (value "Power"))
      (property (name "Sheetfile") (value "power.kicad_sch"))
      (sheetpath (names "/Power/") (tstamps "/d15c8919-7ccc-44b2-8fc4-b04c1b47b6fa/"))
      (tstamps "98696693-a6d0-4ca9-af20-73c9f12ec4ea"))
    (comp (ref "R2")
      (value "2K")
      (footprint "Project_Library:2k Resistor")
      (fields
        (field (name "LCSC") "C17520")
        (field (name "Price") "0.0023"))
      (libsource (lib "Device") (part "R") (description "Resistor"))
      (property (name "LCSC") (value "C17520"))
      (property (name "Price") (value "0.0023"))
      (property (name "Sheetname") (value "Power"))
      (property (name "Sheetfile") (value "power.kicad_sch"))
      (sheetpath (names "/Power/") (tstamps "/d15c8919-7ccc-44b2-8fc4-b04c1b47b6fa/"))
      (tstamps "eb847ef1-43b4-4352-b576-5910fb31967e"))
    (comp (ref "R3")
      (value "100K")
      (footprint "Project_Library:100k Resistor")
      (fields
        (field (name "LCSC") "C149504")
        (field (name "Price") "0.0028"))
      (libsource (lib "Device") (part "R") (description "Resistor"))
      (property (name "LCSC") (value "C149504"))
      (property (name "Price") (value "0.0028"))
      (property (name "Sheetname") (value "Power"))
      (property (name "Sheetfile") (value "power.kicad_sch"))
      (sheetpath (names "/Power/") (tstamps "/d15c8919-7ccc-44b2-8fc4-b04c1b47b6fa/"))
      (tstamps "0f561163-1ad2-4253-b888-90cec00917c9"))
    (comp (ref "R4")
      (value "36K")
      (footprint "Project_Library:36k Resistor")
      (fields
        (field (name "LCSC") "C4360")
        (field (name "Price") "0.0024"))
      (libsource (lib "Device") (part "R") (description "Resistor"))
      (property (name "LCSC") (value "C4360"))
      (property (name "Price") (value "0.0024"))
      (property (name "Sheetname") (value "Power"))
      (property (name "Sheetfile") (value "power.kicad_sch"))
      (sheetpath (names "/Power/") (tstamps "/d15c8919-7ccc-44b2-8fc4-b04c1b47b6fa/"))
      (tstamps "5e38ba4a-cb42-4284-86cc-50091a3dd7ed"))
    (comp (ref "R5")
      (value "75K")
      (footprint "Resistor_SMD:R_0805_2012Metric")
      (fields
        (field (name "LCSC") "C17819")
        (field (name "Price") "0.0029"))
      (libsource (lib "Device") (part "R") (description "Resistor"))
      (property (name "LCSC") (value "C17819"))
      (property (name "Price") (value "0.0029"))
      (property (name "Sheetname") (value "Power"))
      (property (name "Sheetfile") (value "power.kicad_sch"))
      (sheetpath (names "/Power/") (tstamps "/d15c8919-7ccc-44b2-8fc4-b04c1b47b6fa/"))
      (tstamps "3d0be7da-9007-4f4d-80df-9ecda4704060"))
    (comp (ref "R6")
      (value "24K")
      (footprint "Resistor_SMD:R_0805_2012Metric")
      (fields
        (field (name "LCSC") "C17575")
        (field (name "Price") "0.0024"))
      (libsource (lib "Device") (part "R") (description "Resistor"))
      (property (name "LCSC") (value "C17575"))
      (property (name "Price") (value "0.0024"))
      (property (name "Sheetname") (value "Power"))
      (property (name "Sheetfile") (value "power.kicad_sch"))
      (sheetpath (names "/Power/") (tstamps "/d15c8919-7ccc-44b2-8fc4-b04c1b47b6fa/"))
      (tstamps "997b2537-028e-4603-8b96-db6f1e3b109a"))
    (comp (ref "U1")
      (value "MCP73831")
      (footprint "Project_Library:MCP73831")
      (fields
        (field (name "LCSC") "C424093")
        (field (name "Price") "1.2567"))
      (libsource (lib "PCB_Library_From_Template(Stefan)") (part "MCP73831") (description ""))
      (property (name "LCSC") (value "C424093"))
      (property (name "Price") (value "1.2567"))
      (property (name "Sheetname") (value "Power"))
      (property (name "Sheetfile") (value "power.kicad_sch"))
      (sheetpath (names "/Power/") (tstamps "/d15c8919-7ccc-44b2-8fc4-b04c1b47b6fa/"))
      (tstamps "65d0bfae-ebfb-4051-beea-e2d80314945c"))
    (comp (ref "U2")
      (value "TP6841S6")
      (footprint "Project_Library:TP6841S6")
      (fields
        (field (name "LCSC") "C2844736")
        (field (name "Price") "0.194"))
      (libsource (lib "PCB_Library_From_Template(Stefan)") (part "TP6841S6") (description ""))
      (property (name "LCSC") (value "C2844736"))
      (property (name "Price") (value "0.194"))
      (property (name "Sheetname") (value "Power"))
      (property (name "Sheetfile") (value "power.kicad_sch"))
      (sheetpath (names "/Power/") (tstamps "/d15c8919-7ccc-44b2-8fc4-b04c1b47b6fa/"))
      (tstamps "2734f66b-2987-429f-ab76-4f44fe98ee9d"))
    (comp (ref "C7")
      (value "47uF")
      (footprint "Capacitor_SMD:C_0805_2012Metric")
      (fields
        (field (name "LCSC") "C16780")
        (field (name "Price") "0.0026")
        (field (name "Sensor_Module") "1"))
      (libsource (lib "Device") (part "C_Small") (description "Unpolarized capacitor, small symbol"))
      (property (name "LCSC") (value "C16780"))
      (property (name "Price") (value "0.0026"))
      (property (name "Sensor_Module") (value "1"))
      (property (name "Sheetname") (value "Sensing"))
      (property (name "Sheetfile") (value "sensing.kicad_sch"))
      (sheetpath (names "/Sensing/") (tstamps "/cf6c12a4-3d95-473d-bafe-8be3892a84e9/"))
      (tstamps "eb235b56-cf6f-49a5-ab3b-4e0bffb896aa"))
    (comp (ref "C8")
      (value "47uF")
      (footprint "Capacitor_SMD:C_0805_2012Metric")
      (fields
        (field (name "LCSC") "C16780")
        (field (name "Price") "0.0026")
        (field (name "Sensor_Module") "1"))
      (libsource (lib "Device") (part "C_Small") (description "Unpolarized capacitor, small symbol"))
      (property (name "LCSC") (value "C16780"))
      (property (name "Price") (value "0.0026"))
      (property (name "Sensor_Module") (value "1"))
      (property (name "Sheetname") (value "Sensing"))
      (property (name "Sheetfile") (value "sensing.kicad_sch"))
      (sheetpath (names "/Sensing/") (tstamps "/cf6c12a4-3d95-473d-bafe-8be3892a84e9/"))
      (tstamps "baae0a6d-4348-48f8-8641-83ee2ae7acd7"))
    (comp (ref "C9")
      (value "100nF")
      (footprint "Project_Library:C14663 [Cap 100nF]")
      (fields
        (field (name "LCSC") "C14663")
        (field (name "Price") "0.0026")
        (field (name "Sensor_Module") "1"))
      (libsource (lib "Device") (part "C_Small") (description "Unpolarized capacitor, small symbol"))
      (property (name "LCSC") (value "C14663"))
      (property (name "Price") (value "0.0026"))
      (property (name "Sensor_Module") (value "1"))
      (property (name "Sheetname") (value "Sensing"))
      (property (name "Sheetfile") (value "sensing.kicad_sch"))
      (sheetpath (names "/Sensing/") (tstamps "/cf6c12a4-3d95-473d-bafe-8be3892a84e9/"))
      (tstamps "ad33eaa2-110d-44d0-9334-e2d94fcaa9db"))
    (comp (ref "C10")
      (value "4.7nF")
      (footprint "Project_Library:C15849 [Cap 4.7nF 0603]")
      (fields
        (field (name "LCSC") "C53987")
        (field (name "Price") "0.0058")
        (field (name "Sensor_Module") "1"))
      (libsource (lib "Device") (part "C_Small") (description "Unpolarized capacitor, small symbol"))
      (property (name "LCSC") (value "C53987"))
      (property (name "Price") (value "0.0058"))
      (property (name "Sensor_Module") (value "1"))
      (property (name "Sheetname") (value "Sensing"))
      (property (name "Sheetfile") (value "sensing.kicad_sch"))
      (sheetpath (names "/Sensing/") (tstamps "/cf6c12a4-3d95-473d-bafe-8be3892a84e9/"))
      (tstamps "d604692c-2608-4f21-ba4e-bed7b6c6704f"))
    (comp (ref "D3")
      (value "1A SOD-123 Schottky Barrier Diode")
      (footprint "Diode_SMD:D_SOD-123")
      (fields
        (field (name "LCSC") "C8598")
        (field (name "Price") "0.044"))
      (libsource (lib "Device") (part "D_Shockley") (description "Shockley (PNPN) diode"))
      (property (name "LCSC") (value "C8598"))
      (property (name "Price") (value "0.044"))
      (property (name "Sheetname") (value "Sensing"))
      (property (name "Sheetfile") (value "sensing.kicad_sch"))
      (sheetpath (names "/Sensing/") (tstamps "/cf6c12a4-3d95-473d-bafe-8be3892a84e9/"))
      (tstamps "f1a3f831-bb64-4402-9c7a-041f5db42879"))
    (comp (ref "J5")
      (value "Conn_01x02_Male")
      (footprint "Connector_PinHeader_2.54mm:PinHeader_1x02_P2.54mm_Vertical")
      (fields
        (field (name "LCSC") "C492401")
        (field (name "Price") "0.0111")
        (field (name "Sensor_Module") "1"))
      (libsource (lib "Connector") (part "Conn_01x02_Male") (description "Generic connector, single row, 01x02, script generated (kicad-library-utils/schlib/autogen/connector/)"))
      (property (name "LCSC") (value "C492401"))
      (property (name "Price") (value "0.0111"))
      (property (name "Sensor_Module") (value "1"))
      (property (name "Sheetname") (value "Sensing"))
      (property (name "Sheetfile") (value "sensing.kicad_sch"))
      (sheetpath (names "/Sensing/") (tstamps "/cf6c12a4-3d95-473d-bafe-8be3892a84e9/"))
      (tstamps "9cd4c1ed-effd-4cc5-8ff9-8e40f089da46"))
    (comp (ref "J6")
      (value "Conn_01x02_Male")
      (footprint "Connector_PinHeader_2.54mm:PinHeader_1x02_P2.54mm_Vertical")
      (fields
        (field (name "LCSC") "C492401")
        (field (name "Price") "0.0111")
        (field (name "Sensor_Module") "1"))
      (libsource (lib "Connector") (part "Conn_01x02_Male") (description "Generic connector, single row, 01x02, script generated (kicad-library-utils/schlib/autogen/connector/)"))
      (property (name "LCSC") (value "C492401"))
      (property (name "Price") (value "0.0111"))
      (property (name "Sensor_Module") (value "1"))
      (property (name "Sheetname") (value "Sensing"))
      (property (name "Sheetfile") (value "sensing.kicad_sch"))
      (sheetpath (names "/Sensing/") (tstamps "/cf6c12a4-3d95-473d-bafe-8be3892a84e9/"))
      (tstamps "9cc28e0c-395a-4bd3-833e-6b062dcebde6"))
    (comp (ref "J7")
      (value "Conn_01x03_Male")
      (footprint "Connector_PinHeader_2.54mm:PinHeader_1x03_P2.54mm_Vertical")
      (fields
        (field (name "LCSC") "C49257")
        (field (name "Price") "0.0142")
        (field (name "Sensor_Module") "1"))
      (libsource (lib "Connector") (part "Conn_01x03_Male") (description "Generic connector, single row, 01x03, script generated (kicad-library-utils/schlib/autogen/connector/)"))
      (property (name "LCSC") (value "C49257"))
      (property (name "Price") (value "0.0142"))
      (property (name "Sensor_Module") (value "1"))
      (property (name "Sheetname") (value "Sensing"))
      (property (name "Sheetfile") (value "sensing.kicad_sch"))
      (sheetpath (names "/Sensing/") (tstamps "/cf6c12a4-3d95-473d-bafe-8be3892a84e9/"))
      (tstamps "43a85754-fddd-45d2-8fc6-a1a743a8554f"))
    (comp (ref "L3")
      (value "47uH")
      (footprint "Inductor_SMD:L_0805_2012Metric")
      (fields
        (field (name "LCSC") "C14304")
        (field (name "Price") "0.0495"))
      (libsource (lib "pspice") (part "INDUCTOR") (description "Inductor symbol for simulation only"))
      (property (name "LCSC") (value "C14304"))
      (property (name "Price") (value "0.0495"))
      (property (name "Alt_LCSC") (value ""))
      (property (name "Sheetname") (value "Sensing"))
      (property (name "Sheetfile") (value "sensing.kicad_sch"))
      (sheetpath (names "/Sensing/") (tstamps "/cf6c12a4-3d95-473d-bafe-8be3892a84e9/"))
      (tstamps "fc79e659-4134-4b7b-ac0e-9333ab17e128"))
    (comp (ref "Q1")
      (value "BSS138")
      (footprint "Package_TO_SOT_SMD:SOT-23")
      (datasheet "https://www.onsemi.com/pub/Collateral/BSS138-D.PDF")
      (fields
        (field (name "LCSC") "C78284")
        (field (name "Price") "0.0296"))
      (libsource (lib "Transistor_FET") (part "BSS138") (description "50V Vds, 0.22A Id, N-Channel MOSFET, SOT-23"))
      (property (name "LCSC") (value "C78284"))
      (property (name "Price") (value "0.0296"))
      (property (name "Sheetname") (value "Sensing"))
      (property (name "Sheetfile") (value "sensing.kicad_sch"))
      (sheetpath (names "/Sensing/") (tstamps "/cf6c12a4-3d95-473d-bafe-8be3892a84e9/"))
      (tstamps "25a2e5b5-b52e-4752-8c53-42764f27bb27"))
    (comp (ref "Q2")
      (value "BSS138")
      (footprint "Package_TO_SOT_SMD:SOT-23")
      (datasheet "https://www.onsemi.com/pub/Collateral/BSS138-D.PDF")
      (fields
        (field (name "LCSC") "C78284")
        (field (name "Price") "0.0296"))
      (libsource (lib "Transistor_FET") (part "BSS138") (description "50V Vds, 0.22A Id, N-Channel MOSFET, SOT-23"))
      (property (name "LCSC") (value "C78284"))
      (property (name "Price") (value "0.0296"))
      (property (name "Sheetname") (value "Sensing"))
      (property (name "Sheetfile") (value "sensing.kicad_sch"))
      (sheetpath (names "/Sensing/") (tstamps "/cf6c12a4-3d95-473d-bafe-8be3892a84e9/"))
      (tstamps "d8c674a4-0e15-4f14-8afc-3fe5709d5bde"))
    (comp (ref "R7")
      (value "0.15")
      (footprint "Resistor_SMD:R_1206_3216Metric")
      (fields
        (field (name "LCSC") "C37936")
        (field (name "Price") "0.011"))
      (libsource (lib "Device") (part "R_US") (description "Resistor, US symbol"))
      (property (name "LCSC") (value "C37936"))
      (property (name "Price") (value "0.011"))
      (property (name "Sheetname") (value "Sensing"))
      (property (name "Sheetfile") (value "sensing.kicad_sch"))
      (sheetpath (names "/Sensing/") (tstamps "/cf6c12a4-3d95-473d-bafe-8be3892a84e9/"))
      (tstamps "08195d33-ac8c-4fe7-b5c0-0778b2266fd3"))
    (comp (ref "R8")
      (value "10KΩ")
      (footprint "Project_Library:47k [0402]")
      (fields
        (field (name "LCSC") "C25792")
        (field (name "Price") "0.0008")
        (field (name "Sensor_Module") "1"))
      (libsource (lib "Device") (part "R_US") (description "Resistor, US symbol"))
      (property (name "LCSC") (value "C25792"))
      (property (name "Price") (value "0.0008"))
      (property (name "Sensor_Module") (value "1"))
      (property (name "Sheetname") (value "Sensing"))
      (property (name "Sheetfile") (value "sensing.kicad_sch"))
      (sheetpath (names "/Sensing/") (tstamps "/cf6c12a4-3d95-473d-bafe-8be3892a84e9/"))
      (tstamps "67901881-1010-45c1-a49e-26f016dd5c68"))
    (comp (ref "R9")
      (value "10 KΩ")
      (footprint "Project_Library:47k [0402]")
      (fields
        (field (name "LCSC") "C25792")
        (field (name "Price") "0.0008")
        (field (name "Sensor_Module") "1"))
      (libsource (lib "Device") (part "R_US") (description "Resistor, US symbol"))
      (property (name "LCSC") (value "C25792"))
      (property (name "Price") (value "0.0008"))
      (property (name "Sensor_Module") (value "1"))
      (property (name "Sheetname") (value "Sensing"))
      (property (name "Sheetfile") (value "sensing.kicad_sch"))
      (sheetpath (names "/Sensing/") (tstamps "/cf6c12a4-3d95-473d-bafe-8be3892a84e9/"))
      (tstamps "dbd4dd47-02a3-4900-aa15-7a4810d33799"))
    (comp (ref "R10")
      (value "47 KΩ")
      (footprint "Project_Library:47k [0402]")
      (fields
        (field (name "LCSC") "C25792")
        (field (name "Price") "0.0008")
        (field (name "Sensor_Module") "1"))
      (libsource (lib "Device") (part "R_US") (description "Resistor, US symbol"))
      (property (name "LCSC") (value "C25792"))
      (property (name "Price") (value "0.0008"))
      (property (name "Sensor_Module") (value "1"))
      (property (name "Sheetname") (value "Sensing"))
      (property (name "Sheetfile") (value "sensing.kicad_sch"))
      (sheetpath (names "/Sensing/") (tstamps "/cf6c12a4-3d95-473d-bafe-8be3892a84e9/"))
      (tstamps "8a9a48b5-0167-4c5e-87f8-7f8bcf169e1c"))
    (comp (ref "R11")
      (value "47 KΩ")
      (footprint "Project_Library:47k [0402]")
      (fields
        (field (name "LCSC") "C25792")
        (field (name "Price") "0.0008")
        (field (name "Sensor_Module") "1"))
      (libsource (lib "Device") (part "R_US") (description "Resistor, US symbol"))
      (property (name "LCSC") (value "C25792"))
      (property (name "Price") (value "0.0008"))
      (property (name "Sensor_Module") (value "1"))
      (property (name "Sheetname") (value "Sensing"))
      (property (name "Sheetfile") (value "sensing.kicad_sch"))
      (sheetpath (names "/Sensing/") (tstamps "/cf6c12a4-3d95-473d-bafe-8be3892a84e9/"))
      (tstamps "fe30bf8b-c059-4590-aa72-f95858fc6e38"))
    (comp (ref "R12")
      (value "2.2k")
      (footprint "Resistor_SMD:R_0805_2012Metric")
      (fields
        (field (name "LCSC") "C17520")
        (field (name "Price") "0.0023"))
      (libsource (lib "Device") (part "R_US") (description "Resistor, US symbol"))
      (property (name "LCSC") (value "C17520"))
      (property (name "Price") (value "0.0023"))
      (property (name "Sheetname") (value "Sensing"))
      (property (name "Sheetfile") (value "sensing.kicad_sch"))
      (sheetpath (names "/Sensing/") (tstamps "/cf6c12a4-3d95-473d-bafe-8be3892a84e9/"))
      (tstamps "6c0abecf-f361-4699-8ddd-02d1b8372136"))
    (comp (ref "R13")
      (value "2.2k")
      (footprint "Resistor_SMD:R_0805_2012Metric")
      (fields
        (field (name "LCSC") "C17520")
        (field (name "Price") "0.0023"))
      (libsource (lib "Device") (part "R_US") (description "Resistor, US symbol"))
      (property (name "LCSC") (value "C17520"))
      (property (name "Price") (value "0.0023"))
      (property (name "Sheetname") (value "Sensing"))
      (property (name "Sheetfile") (value "sensing.kicad_sch"))
      (sheetpath (names "/Sensing/") (tstamps "/cf6c12a4-3d95-473d-bafe-8be3892a84e9/"))
      (tstamps "9f1f3745-6faf-4b42-b10d-325a2f713700"))
    (comp (ref "R14")
      (value "2.2k")
      (footprint "Resistor_SMD:R_0805_2012Metric")
      (fields
        (field (name "LCSC") "C17520")
        (field (name "Price") "0.0023"))
      (libsource (lib "Device") (part "R_US") (description "Resistor, US symbol"))
      (property (name "LCSC") (value "C17520"))
      (property (name "Price") (value "0.0023"))
      (property (name "Sheetname") (value "Sensing"))
      (property (name "Sheetfile") (value "sensing.kicad_sch"))
      (sheetpath (names "/Sensing/") (tstamps "/cf6c12a4-3d95-473d-bafe-8be3892a84e9/"))
      (tstamps "74a52b72-2fae-4ec0-a687-7e6f025639f3"))
    (comp (ref "R15")
      (value "2.2k")
      (footprint "Resistor_SMD:R_0805_2012Metric")
      (fields
        (field (name "LCSC") "C17520")
        (field (name "Price") "0.0023"))
      (libsource (lib "Device") (part "R_US") (description "Resistor, US symbol"))
      (property (name "LCSC") (value "C17520"))
      (property (name "Price") (value "0.0023"))
      (property (name "Sheetname") (value "Sensing"))
      (property (name "Sheetfile") (value "sensing.kicad_sch"))
      (sheetpath (names "/Sensing/") (tstamps "/cf6c12a4-3d95-473d-bafe-8be3892a84e9/"))
      (tstamps "1ca98c90-ef83-4ef8-a81e-659cbd838484"))
    (comp (ref "R16")
      (value "10K")
      (footprint "Project_Library:10k [res 1206]")
      (fields
        (field (name "LCSC") "C328409")
        (field (name "Price") "0.0086")
        (field (name "Sensor_Module") "1"))
      (libsource (lib "Device") (part "R_US") (description "Resistor, US symbol"))
      (property (name "LCSC") (value "C328409"))
      (property (name "Price") (value "0.0086"))
      (property (name "Sensor_Module") (value "1"))
      (property (name "Alt_LCSC") (value ""))
      (property (name "Sheetname") (value "Sensing"))
      (property (name "Sheetfile") (value "sensing.kicad_sch"))
      (sheetpath (names "/Sensing/") (tstamps "/cf6c12a4-3d95-473d-bafe-8be3892a84e9/"))
      (tstamps "143042c5-53a9-4bd4-9b5b-d98c90a60274"))
    (comp (ref "R17")
      (value "10K")
      (footprint "Project_Library:10k [res 1206]")
      (fields
        (field (name "LCSC") "C328409")
        (field (name "Price") "0.0086")
        (field (name "Sensor_Module") "1"))
      (libsource (lib "Device") (part "R_US") (description "Resistor, US symbol"))
      (property (name "LCSC") (value "C328409"))
      (property (name "Price") (value "0.0086"))
      (property (name "Sensor_Module") (value "1"))
      (property (name "Alt_LCSC") (value ""))
      (property (name "Sheetname") (value "Sensing"))
      (property (name "Sheetfile") (value "sensing.kicad_sch"))
      (sheetpath (names "/Sensing/") (tstamps "/cf6c12a4-3d95-473d-bafe-8be3892a84e9/"))
      (tstamps "f2f6db0f-9c7a-4819-98df-49faae9b7464"))
    (comp (ref "U3")
      (value "HT7727B")
      (footprint "Project_Library:HT7718B")
      (fields
        (field (name "LCSC") "C259887")
        (field (name "Price") "0.1154"))
      (libsource (lib "PCB_Library_From_Template") (part "HT7718B") (description ""))
      (property (name "LCSC") (value "C259887"))
      (property (name "Price") (value "0.1154"))
      (property (name "Sheetname") (value "Sensing"))
      (property (name "Sheetfile") (value "sensing.kicad_sch"))
      (sheetpath (names "/Sensing/") (tstamps "/cf6c12a4-3d95-473d-bafe-8be3892a84e9/"))
      (tstamps "e5a3e45b-0b8e-496d-ab1d-a9755e69ac61"))
    (comp (ref "U4")
      (value "VL6180V1NR/1")
      (footprint "Project_Library:VL6180V1NR&slash_1")
      (fields
        (field (name "LCSC") "C2655167")
        (field (name "Price") "1.9575")
        (field (name "Sensor_Module") "1"))
      (libsource (lib "STM_Symbols") (part "VL6180V1NR{slash}1") (description ""))
      (property (name "LCSC") (value "C2655167"))
      (property (name "Price") (value "1.9575"))
      (property (name "Sensor_Module") (value "1"))
      (property (name "Sheetname") (value "Sensing"))
      (property (name "Sheetfile") (value "sensing.kicad_sch"))
      (sheetpath (names "/Sensing/") (tstamps "/cf6c12a4-3d95-473d-bafe-8be3892a84e9/"))
      (tstamps "2e6783f6-ba51-414c-a4d4-80a0d6b5ee58"))
    (comp (ref "C11")
      (value "100n")
      (footprint "Project_Library:100nF")
      (fields
        (field (name "Alt_LCSC") "C45664")
        (field (name "LCSC") "C307331")
        (field (name "Price") "0.0136"))
      (libsource (lib "pspice") (part "C") (description "Capacitor symbol for simulation only"))
      (property (name "Alt_LCSC") (value "C45664"))
      (property (name "LCSC") (value "C307331"))
      (property (name "Price") (value "0.0136"))
      (property (name "Sheetname") (value "microcontroller_interfacing"))
      (property (name "Sheetfile") (value "microcontroller_interfacing.kicad_sch"))
      (sheetpath (names "/microcontroller_interfacing/") (tstamps "/59b42903-2dc7-4011-ab5b-d7b81bd233c3/"))
      (tstamps "0a6d8074-fce7-4b48-9740-95d0ca4fb8dc"))
    (comp (ref "C12")
      (value "100n")
      (footprint "Project_Library:100nF")
      (fields
        (field (name "Alt_LCSC") "C45664")
        (field (name "LCSC") "C307331")
        (field (name "Price") "0.0136"))
      (libsource (lib "pspice") (part "C") (description "Capacitor symbol for simulation only"))
      (property (name "Alt_LCSC") (value "C45664"))
      (property (name "LCSC") (value "C307331"))
      (property (name "Price") (value "0.0136"))
      (property (name "Sheetname") (value "microcontroller_interfacing"))
      (property (name "Sheetfile") (value "microcontroller_interfacing.kicad_sch"))
      (sheetpath (names "/microcontroller_interfacing/") (tstamps "/59b42903-2dc7-4011-ab5b-d7b81bd233c3/"))
      (tstamps "dd9f742b-c025-4bde-b4db-5779f5f198e4"))
    (comp (ref "J8")
      (value "Conn_01x02_Male")
      (footprint "Connector_PinHeader_2.54mm:PinHeader_1x02_P2.54mm_Vertical")
      (fields
        (field (name "LCSC") "C492401")
        (field (name "Price") "0.0111")
        (field (name "Sensor_Module") "1"))
      (libsource (lib "Connector") (part "Conn_01x02_Male") (description "Generic connector, single row, 01x02, script generated (kicad-library-utils/schlib/autogen/connector/)"))
      (property (name "LCSC") (value "C492401"))
      (property (name "Price") (value "0.0111"))
      (property (name "Sensor_Module") (value "1"))
      (property (name "Sheetname") (value "microcontroller_interfacing"))
      (property (name "Sheetfile") (value "microcontroller_interfacing.kicad_sch"))
      (sheetpath (names "/microcontroller_interfacing/") (tstamps "/59b42903-2dc7-4011-ab5b-d7b81bd233c3/"))
      (tstamps "ba326cfd-592b-4d11-9b34-09f56e925312"))
    (comp (ref "J9")
      (value "Conn_01x02_Male")
      (footprint "Connector_PinHeader_2.54mm:PinHeader_1x02_P2.54mm_Vertical")
      (fields
        (field (name "LCSC") "C492401")
        (field (name "Price") "0.0111")
        (field (name "Sensor_Module") "1"))
      (libsource (lib "Connector") (part "Conn_01x02_Male") (description "Generic connector, single row, 01x02, script generated (kicad-library-utils/schlib/autogen/connector/)"))
      (property (name "LCSC") (value "C492401"))
      (property (name "Price") (value "0.0111"))
      (property (name "Sensor_Module") (value "1"))
      (property (name "Sheetname") (value "microcontroller_interfacing"))
      (property (name "Sheetfile") (value "microcontroller_interfacing.kicad_sch"))
      (sheetpath (names "/microcontroller_interfacing/") (tstamps "/59b42903-2dc7-4011-ab5b-d7b81bd233c3/"))
      (tstamps "f59cb6bb-da3f-4268-878c-4a1e9c174a5b"))
    (comp (ref "J10")
      (value "Conn_01x02_Male")
      (footprint "Connector_PinHeader_2.54mm:PinHeader_1x02_P2.54mm_Vertical")
      (fields
        (field (name "LCSC") "C492401")
        (field (name "Price") "0.0111")
        (field (name "Sensor_Module") "1"))
      (libsource (lib "Connector") (part "Conn_01x02_Male") (description "Generic connector, single row, 01x02, script generated (kicad-library-utils/schlib/autogen/connector/)"))
      (property (name "LCSC") (value "C492401"))
      (property (name "Price") (value "0.0111"))
      (property (name "Sensor_Module") (value "1"))
      (property (name "Sheetname") (value "microcontroller_interfacing"))
      (property (name "Sheetfile") (value "microcontroller_interfacing.kicad_sch"))
      (sheetpath (names "/microcontroller_interfacing/") (tstamps "/59b42903-2dc7-4011-ab5b-d7b81bd233c3/"))
      (tstamps "01478f52-711e-460d-9130-927d9df325cb"))
    (comp (ref "J11")
      (value "Conn_01x01_Male")
      (footprint "Project_Library:conn_01_01")
      (fields
        (field (name "LCSC") "C81276")
        (field (name "Price") "0.004"))
      (libsource (lib "Connector") (part "Conn_01x01_Male") (description "Generic connector, single row, 01x01, script generated (kicad-library-utils/schlib/autogen/connector/)"))
      (property (name "LCSC") (value "C81276"))
      (property (name "Price") (value "0.004"))
      (property (name "Sheetname") (value "microcontroller_interfacing"))
      (property (name "Sheetfile") (value "microcontroller_interfacing.kicad_sch"))
      (sheetpath (names "/microcontroller_interfacing/") (tstamps "/59b42903-2dc7-4011-ab5b-d7b81bd233c3/"))
      (tstamps "7a049f60-81da-4f43-97b9-4697f544c134"))
    (comp (ref "R18")
      (value "12K")
      (footprint "Project_Library:12k resistor")
      (fields
        (field (name "Alt_LCSC") "C4190")
        (field (name "LCSC") "C17444")
        (field (name "Price") "0.0028"))
      (libsource (lib "Device") (part "R") (description "Resistor"))
      (property (name "Alt_LCSC") (value "C4190"))
      (property (name "LCSC") (value "C17444"))
      (property (name "Price") (value "0.0028"))
      (property (name "Sheetname") (value "microcontroller_interfacing"))
      (property (name "Sheetfile") (value "microcontroller_interfacing.kicad_sch"))
      (sheetpath (names "/microcontroller_interfacing/") (tstamps "/59b42903-2dc7-4011-ab5b-d7b81bd233c3/"))
      (tstamps "3c4eab1f-aad2-44bc-a801-8b16843f526a"))
    (comp (ref "R19")
      (value "22K")
      (footprint "Project_Library:22k resistor")
      (fields
        (field (name "Alt_LCSC") "C25936")
        (field (name "LCSC") "C17560")
        (field (name "Price") "0.0028"))
      (libsource (lib "Device") (part "R") (description "Resistor"))
      (property (name "Alt_LCSC") (value "C25936"))
      (property (name "LCSC") (value "C17560"))
      (property (name "Price") (value "0.0028"))
      (property (name "Sheetname") (value "microcontroller_interfacing"))
      (property (name "Sheetfile") (value "microcontroller_interfacing.kicad_sch"))
      (sheetpath (names "/microcontroller_interfacing/") (tstamps "/59b42903-2dc7-4011-ab5b-d7b81bd233c3/"))
      (tstamps "4c5f60b1-7b47-44de-8157-feeb3b1504e0"))
    (comp (ref "R20")
      (value "2K")
      (footprint "Project_Library:2k Resistor")
      (fields
        (field (name "LCSC") "C17520")
        (field (name "Price") "0.0023"))
      (libsource (lib "Device") (part "R") (description "Resistor"))
      (property (name "LCSC") (value "C17520"))
      (property (name "Price") (value "0.0023"))
      (property (name "Sheetname") (value "microcontroller_interfacing"))
      (property (name "Sheetfile") (value "microcontroller_interfacing.kicad_sch"))
      (sheetpath (names "/microcontroller_interfacing/") (tstamps "/59b42903-2dc7-4011-ab5b-d7b81bd233c3/"))
      (tstamps "2ec5de22-eed5-4261-8547-7788058618dd"))
    (comp (ref "R21")
      (value "2K")
      (footprint "Project_Library:2k Resistor")
      (fields
        (field (name "LCSC") "C17520")
        (field (name "Price") "0.0023"))
      (libsource (lib "Device") (part "R") (description "Resistor"))
      (property (name "LCSC") (value "C17520"))
      (property (name "Price") (value "0.0023"))
      (property (name "Sheetname") (value "microcontroller_interfacing"))
      (property (name "Sheetfile") (value "microcontroller_interfacing.kicad_sch"))
      (sheetpath (names "/microcontroller_interfacing/") (tstamps "/59b42903-2dc7-4011-ab5b-d7b81bd233c3/"))
      (tstamps "d3856a83-3796-47b0-b3bf-1ec48e0d98c5"))
    (comp (ref "U5")
      (value "MICROXNJ")
      (footprint "Project_Library:MICRO-USB-SMD_MICROXNJ")
      (datasheet "https://datasheet.lcsc.com/lcsc/1912111437_SHOU-HAN-MicroXNJ_C404969.pdf")
      (fields
        (field (name "LCSC") "C404969")
        (field (name "Price") "0.0496"))
      (libsource (lib "PCB_Library_From_Template") (part "MICROXNJ") (description ""))
      (property (name "LCSC") (value "C404969"))
      (property (name "Price") (value "0.0496"))
      (property (name "Sheetname") (value "microcontroller_interfacing"))
      (property (name "Sheetfile") (value "microcontroller_interfacing.kicad_sch"))
      (sheetpath (names "/microcontroller_interfacing/") (tstamps "/59b42903-2dc7-4011-ab5b-d7b81bd233c3/"))
      (tstamps "83696e78-c65c-4102-aeb5-f5dfcbcf10fa"))
    (comp (ref "U6")
      (value "CH340C")
      (footprint "Package_SO:SOIC-16_3.9x9.9mm_P1.27mm")
      (datasheet "https://datasheet.lcsc.com/szlcsc/Jiangsu-Qin-Heng-CH340C_C84681.pdf")
      (fields
        (field (name "Alt_LCSC") "C81010")
        (field (name "LCSC") "C84681")
        (field (name "Price") "0.5977"))
      (libsource (lib "Interface_USB") (part "CH340C") (description "USB serial converter, UART, SOIC-16"))
      (property (name "LCSC") (value "C84681"))
      (property (name "Price") (value "0.5977"))
      (property (name "Alt_LCSC") (value "C81010"))
      (property (name "Sheetname") (value "microcontroller_interfacing"))
      (property (name "Sheetfile") (value "microcontroller_interfacing.kicad_sch"))
      (sheetpath (names "/microcontroller_interfacing/") (tstamps "/59b42903-2dc7-4011-ab5b-d7b81bd233c3/"))
      (tstamps "a0736795-71de-445d-8115-0bd81395c419"))
    (comp (ref "U7")
      (value "CAT24C256")
      (footprint "Project_Library:CAT24C256")
      (datasheet "https://www.onsemi.cn/PowerSolutions/document/CAT24C256-D.PDF")
      (fields
        (field (name "Alt_LCSC") "C6203")
        (field (name "LCSC") "C6482")
        (field (name "Price") "1.56"))
      (libsource (lib "Memory_EEPROM") (part "CAT24C256") (description "256 kb CMOS Serial EEPROM, DIP-8/SOIC-8/TSSOP-8/DFN-8"))
      (property (name "LCSC") (value "C6482"))
      (property (name "Price") (value "1.56"))
      (property (name "Alt_LCSC") (value "C6203"))
      (property (name "Sheetname") (value "microcontroller_interfacing"))
      (property (name "Sheetfile") (value "microcontroller_interfacing.kicad_sch"))
      (sheetpath (names "/microcontroller_interfacing/") (tstamps "/59b42903-2dc7-4011-ab5b-d7b81bd233c3/"))
      (tstamps "c816de12-445c-4fed-ae1c-cdcaa29b5ddb")))
  (libparts
    (libpart (lib "Connector") (part "Conn_01x01_Male")
      (description "Generic connector, single row, 01x01, script generated (kicad-library-utils/schlib/autogen/connector/)")
      (docs "~")
      (footprints
        (fp "Connector*:*"))
      (fields
        (field (name "Reference") "J")
        (field (name "Value") "Conn_01x01_Male")
        (field (name "Datasheet") "~"))
      (pins
        (pin (num "1") (name "Pin_1") (type "passive"))))
    (libpart (lib "Connector") (part "Conn_01x02_Male")
      (description "Generic connector, single row, 01x02, script generated (kicad-library-utils/schlib/autogen/connector/)")
      (docs "~")
      (footprints
        (fp "Connector*:*_1x??_*"))
      (fields
        (field (name "Reference") "J")
        (field (name "Value") "Conn_01x02_Male")
        (field (name "Datasheet") "~"))
      (pins
        (pin (num "1") (name "Pin_1") (type "passive"))
        (pin (num "2") (name "Pin_2") (type "passive"))))
    (libpart (lib "Connector") (part "Conn_01x03_Male")
      (description "Generic connector, single row, 01x03, script generated (kicad-library-utils/schlib/autogen/connector/)")
      (docs "~")
      (footprints
        (fp "Connector*:*_1x??_*"))
      (fields
        (field (name "Reference") "J")
        (field (name "Value") "Conn_01x03_Male")
        (field (name "Datasheet") "~"))
      (pins
        (pin (num "1") (name "Pin_1") (type "passive"))
        (pin (num "2") (name "Pin_2") (type "passive"))
        (pin (num "3") (name "Pin_3") (type "passive"))))
    (libpart (lib "Connector") (part "Conn_01x33_Female")
      (description "Generic connector, single row, 01x33, script generated (kicad-library-utils/schlib/autogen/connector/)")
      (docs "~")
      (footprints
        (fp "Connector*:*_1x??_*"))
      (fields
        (field (name "Reference") "J")
        (field (name "Value") "Conn_01x33_Female")
        (field (name "Datasheet") "~"))
      (pins
        (pin (num "1") (name "Pin_1") (type "passive"))
        (pin (num "2") (name "Pin_2") (type "passive"))
        (pin (num "3") (name "Pin_3") (type "passive"))
        (pin (num "4") (name "Pin_4") (type "passive"))
        (pin (num "5") (name "Pin_5") (type "passive"))
        (pin (num "6") (name "Pin_6") (type "passive"))
        (pin (num "7") (name "Pin_7") (type "passive"))
        (pin (num "8") (name "Pin_8") (type "passive"))
        (pin (num "9") (name "Pin_9") (type "passive"))
        (pin (num "10") (name "Pin_10") (type "passive"))
        (pin (num "11") (name "Pin_11") (type "passive"))
        (pin (num "12") (name "Pin_12") (type "passive"))
        (pin (num "13") (name "Pin_13") (type "passive"))
        (pin (num "14") (name "Pin_14") (type "passive"))
        (pin (num "15") (name "Pin_15") (type "passive"))
        (pin (num "16") (name "Pin_16") (type "passive"))
        (pin (num "17") (name "Pin_17") (type "passive"))
        (pin (num "18") (name "Pin_18") (type "passive"))
        (pin (num "19") (name "Pin_19") (type "passive"))
        (pin (num "20") (name "Pin_20") (type "passive"))
        (pin (num "21") (name "Pin_21") (type "passive"))
        (pin (num "22") (name "Pin_22") (type "passive"))
        (pin (num "23") (name "Pin_23") (type "passive"))
        (pin (num "24") (name "Pin_24") (type "passive"))
        (pin (num "25") (name "Pin_25") (type "passive"))
        (pin (num "26") (name "Pin_26") (type "passive"))
        (pin (num "27") (name "Pin_27") (type "passive"))
        (pin (num "28") (name "Pin_28") (type "passive"))
        (pin (num "29") (name "Pin_29") (type "passive"))
        (pin (num "30") (name "Pin_30") (type "passive"))
        (pin (num "31") (name "Pin_31") (type "passive"))
        (pin (num "32") (name "Pin_32") (type "passive"))
        (pin (num "33") (name "Pin_33") (type "passive"))))
    (libpart (lib "Device") (part "Battery_Cell")
      (description "Single-cell battery")
      (docs "~")
      (fields
        (field (name "Reference") "BT")
        (field (name "Value") "Battery_Cell")
        (field (name "Datasheet") "~"))
      (pins
        (pin (num "1") (name "+") (type "passive"))
        (pin (num "2") (name "-") (type "passive"))))
    (libpart (lib "Device") (part "C")
      (description "Unpolarized capacitor")
      (docs "~")
      (footprints
        (fp "C_*"))
      (fields
        (field (name "Reference") "C")
        (field (name "Value") "C")
        (field (name "Datasheet") "~"))
      (pins
        (pin (num "1") (name "") (type "passive"))
        (pin (num "2") (name "") (type "passive"))))
    (libpart (lib "Device") (part "C_Small")
      (description "Unpolarized capacitor, small symbol")
      (docs "~")
      (footprints
        (fp "C_*"))
      (fields
        (field (name "Reference") "C")
        (field (name "Value") "C_Small")
        (field (name "Datasheet") "~"))
      (pins
        (pin (num "1") (name "") (type "passive"))
        (pin (num "2") (name "") (type "passive"))))
    (libpart (lib "Device") (part "D_Shockley")
      (description "Shockley (PNPN) diode")
      (docs "~")
      (footprints
        (fp "TO-???*")
        (fp "*_Diode_*")
        (fp "*SingleDiode*")
        (fp "D_*"))
      (fields
        (field (name "Reference") "D")
        (field (name "Value") "D_Shockley")
        (field (name "Datasheet") "~"))
      (pins
        (pin (num "1") (name "K") (type "passive"))
        (pin (num "2") (name "A") (type "passive"))))
    (libpart (lib "Device") (part "L")
      (description "Inductor")
      (docs "~")
      (footprints
        (fp "Choke_*")
        (fp "*Coil*")
        (fp "Inductor_*")
        (fp "L_*"))
      (fields
        (field (name "Reference") "L")
        (field (name "Value") "L")
        (field (name "Datasheet") "~"))
      (pins
        (pin (num "1") (name "1") (type "passive"))
        (pin (num "2") (name "2") (type "passive"))))
    (libpart (lib "Device") (part "LED")
      (description "Light emitting diode")
      (docs "~")
      (footprints
        (fp "LED*")
        (fp "LED_SMD:*")
        (fp "LED_THT:*"))
      (fields
        (field (name "Reference") "D")
        (field (name "Value") "LED")
        (field (name "Datasheet") "~"))
      (pins
        (pin (num "1") (name "K") (type "passive"))
        (pin (num "2") (name "A") (type "passive"))))
    (libpart (lib "Device") (part "R")
      (description "Resistor")
      (docs "~")
      (footprints
        (fp "R_*"))
      (fields
        (field (name "Reference") "R")
        (field (name "Value") "R")
        (field (name "Datasheet") "~"))
      (pins
        (pin (num "1") (name "") (type "passive"))
        (pin (num "2") (name "") (type "passive"))))
    (libpart (lib "Device") (part "R_US")
      (description "Resistor, US symbol")
      (docs "~")
      (footprints
        (fp "R_*"))
      (fields
        (field (name "Reference") "R")
        (field (name "Value") "R_US")
        (field (name "Datasheet") "~"))
      (pins
        (pin (num "1") (name "") (type "passive"))
        (pin (num "2") (name "") (type "passive"))))
    (libpart (lib "Diode") (part "1N5819")
      (description "40V 1A Schottky Barrier Rectifier Diode, DO-41")
      (docs "http://www.vishay.com/docs/88525/1n5817.pdf")
      (footprints
        (fp "D*DO?41*"))
      (fields
        (field (name "Reference") "D")
        (field (name "Value") "1N5819")
        (field (name "Footprint") "Diode_THT:D_DO-41_SOD81_P10.16mm_Horizontal")
        (field (name "Datasheet") "http://www.vishay.com/docs/88525/1n5817.pdf"))
      (pins
        (pin (num "1") (name "K") (type "passive"))
        (pin (num "2") (name "A") (type "passive"))))
    (libpart (lib "Interface_USB") (part "CH340C")
      (description "USB serial converter, UART, SOIC-16")
      (docs "https://datasheet.lcsc.com/szlcsc/Jiangsu-Qin-Heng-CH340C_C84681.pdf")
      (footprints
        (fp "SOIC*3.9x9.9mm*P1.27mm*"))
      (fields
        (field (name "Reference") "U")
        (field (name "Value") "CH340C")
        (field (name "Footprint") "Package_SO:SOIC-16_3.9x9.9mm_P1.27mm")
        (field (name "Datasheet") "https://datasheet.lcsc.com/szlcsc/Jiangsu-Qin-Heng-CH340C_C84681.pdf"))
      (pins
        (pin (num "1") (name "GND") (type "power_in"))
        (pin (num "2") (name "TXD") (type "output"))
        (pin (num "3") (name "RXD") (type "input"))
        (pin (num "4") (name "V3") (type "passive"))
        (pin (num "5") (name "UD+") (type "bidirectional"))
        (pin (num "6") (name "UD-") (type "bidirectional"))
        (pin (num "7") (name "NC") (type "no_connect"))
        (pin (num "8") (name "NC") (type "no_connect"))
        (pin (num "9") (name "~{CTS}") (type "input"))
        (pin (num "10") (name "~{DSR}") (type "input"))
        (pin (num "11") (name "~{RI}") (type "input"))
        (pin (num "12") (name "~{DCD}") (type "input"))
        (pin (num "13") (name "~{DTR}") (type "output"))
        (pin (num "14") (name "~{RTS}") (type "output"))
        (pin (num "15") (name "R232") (type "input"))
        (pin (num "16") (name "VCC") (type "power_in"))))
    (libpart (lib "Memory_EEPROM") (part "CAT24C256")
      (description "256 kb CMOS Serial EEPROM, DIP-8/SOIC-8/TSSOP-8/DFN-8")
      (docs "https://www.onsemi.cn/PowerSolutions/document/CAT24C256-D.PDF")
      (footprints
        (fp "DIP*W7.62mm*")
        (fp "SOIC*3.9x4.9mm*")
        (fp "TSSOP*4.4x3mm*P0.65mm*")
        (fp "DFN*3x2mm*P0.5mm*"))
      (fields
        (field (name "Reference") "U")
        (field (name "Value") "CAT24C256")
        (field (name "Datasheet") "https://www.onsemi.cn/PowerSolutions/document/CAT24C256-D.PDF"))
      (pins
        (pin (num "1") (name "A0") (type "input"))
        (pin (num "2") (name "A1") (type "input"))
        (pin (num "3") (name "A2") (type "input"))
        (pin (num "4") (name "GND") (type "power_in"))
        (pin (num "5") (name "SDA") (type "bidirectional"))
        (pin (num "6") (name "SCL") (type "input"))
        (pin (num "7") (name "WP") (type "input"))
        (pin (num "8") (name "VCC") (type "power_in"))))
    (libpart (lib "PCB_Library_From_Template") (part "HT7718B")
      (fields
        (field (name "Reference") "U")
        (field (name "Value") "HT7718B"))
      (pins
        (pin (num "1") (name "CE") (type "unspecified"))
        (pin (num "2") (name "OUT") (type "unspecified"))
        (pin (num "3") (name "NC") (type "unspecified"))
        (pin (num "4") (name "GND") (type "unspecified"))
        (pin (num "5") (name "LX") (type "unspecified"))))
    (libpart (lib "PCB_Library_From_Template") (part "MICROXNJ")
      (docs "https://datasheet.lcsc.com/lcsc/1912111437_SHOU-HAN-MicroXNJ_C404969.pdf")
      (fields
        (field (name "Reference") "U6")
        (field (name "Value") "MICROXNJ")
        (field (name "Datasheet") "https://datasheet.lcsc.com/lcsc/1912111437_SHOU-HAN-MicroXNJ_C404969.pdf")
        (field (name "LCSC") "C404969")
        (field (name "Price") "0.0496"))
      (pins
        (pin (num "1") (name "VBUS") (type "power_out"))
        (pin (num "2") (name "D-") (type "bidirectional"))
        (pin (num "3") (name "D+") (type "bidirectional"))
        (pin (num "4") (name "ID") (type "output"))
        (pin (num "5") (name "GND") (type "power_in"))
        (pin (num "6") (name "SH1") (type "passive"))
        (pin (num "7") (name "SH2") (type "passive"))
        (pin (num "8") (name "SH3") (type "passive"))
        (pin (num "9") (name "SH4") (type "passive"))))
    (libpart (lib "PCB_Library_From_Template(Stefan)") (part "MCP73831")
      (fields
        (field (name "Reference") "U")
        (field (name "Value") "MCP73831"))
      (pins
        (pin (num "1") (name "STAT") (type "unspecified"))
        (pin (num "2") (name "VSS") (type "unspecified"))
        (pin (num "3") (name "VBAT") (type "unspecified"))
        (pin (num "4") (name "VDD") (type "unspecified"))
        (pin (num "5") (name "PROG") (type "unspecified"))))
    (libpart (lib "PCB_Library_From_Template(Stefan)") (part "TP6841S6")
      (fields
        (field (name "Reference") "U")
        (field (name "Value") "TP6841S6"))
      (pins
        (pin (num "1") (name "BST") (type "unspecified"))
        (pin (num "2") (name "GND") (type "unspecified"))
        (pin (num "3") (name "FB") (type "unspecified"))
        (pin (num "4") (name "EN") (type "unspecified"))
        (pin (num "5") (name "Vin") (type "unspecified"))
        (pin (num "6") (name "SW") (type "unspecified"))))
    (libpart (lib "STM_Symbols") (part "VL6180V1NR{slash}1")
      (fields
        (field (name "Reference") "U")
        (field (name "Value") "VL6180V1NR{slash}1"))
      (pins
        (pin (num "1") (name "GPIO1") (type "bidirectional"))
        (pin (num "2") (name "NC") (type "unspecified"))
        (pin (num "3") (name "NC") (type "unspecified"))
        (pin (num "4") (name "GPIO0/CE") (type "bidirectional"))
        (pin (num "5") (name "SCL") (type "bidirectional"))
        (pin (num "6") (name "SDA") (type "bidirectional"))
        (pin (num "7") (name "NC") (type "bidirectional"))
        (pin (num "8") (name "AVDD_VCSEL") (type "input"))
        (pin (num "9") (name "AVSS_VCSEL") (type "input"))
        (pin (num "10") (name "AVDD") (type "input"))
        (pin (num "11") (name "NC") (type "unspecified"))
        (pin (num "12") (name "GND") (type "input"))))
    (libpart (lib "Transistor_FET") (part "BSS138")
      (description "50V Vds, 0.22A Id, N-Channel MOSFET, SOT-23")
      (docs "https://www.onsemi.com/pub/Collateral/BSS138-D.PDF")
      (footprints
        (fp "SOT?23*"))
      (fields
        (field (name "Reference") "Q")
        (field (name "Value") "BSS138")
        (field (name "Footprint") "Package_TO_SOT_SMD:SOT-23")
        (field (name "Datasheet") "https://www.onsemi.com/pub/Collateral/BSS138-D.PDF"))
      (pins
        (pin (num "1") (name "G") (type "input"))
        (pin (num "2") (name "S") (type "passive"))
        (pin (num "3") (name "D") (type "passive"))))
    (libpart (lib "pspice") (part "C")
      (description "Capacitor symbol for simulation only")
      (docs "~")
      (fields
        (field (name "Reference") "C")
        (field (name "Value") "C")
        (field (name "Datasheet") "~"))
      (pins
        (pin (num "1") (name "") (type "passive"))
        (pin (num "2") (name "") (type "passive"))))
    (libpart (lib "pspice") (part "INDUCTOR")
      (description "Inductor symbol for simulation only")
      (docs "~")
      (fields
        (field (name "Reference") "L")
        (field (name "Value") "INDUCTOR")
        (field (name "Datasheet") "~"))
      (pins
        (pin (num "1") (name "1") (type "input"))
        (pin (num "2") (name "2") (type "input")))))
  (libraries
    (library (logical "Connector")
      (uri "C:\\Program Files\\KiCad\\6.0\\share\\kicad\\symbols\\/Connector.kicad_sym"))
    (library (logical "Device")
      (uri "C:\\Program Files\\KiCad\\6.0\\share\\kicad\\symbols\\/Device.kicad_sym"))
    (library (logical "Diode")
      (uri "C:\\Program Files\\KiCad\\6.0\\share\\kicad\\symbols\\/Diode.kicad_sym"))
    (library (logical "Interface_USB")
      (uri "C:\\Program Files\\KiCad\\6.0\\share\\kicad\\symbols\\/Interface_USB.kicad_sym"))
    (library (logical "Memory_EEPROM")
      (uri "C:\\Program Files\\KiCad\\6.0\\share\\kicad\\symbols\\/Memory_EEPROM.kicad_sym"))
    (library (logical "PCB_Library_From_Template")
      (uri "C:/Users/Admin/OneDrive/Documents/EEE3088F/Project/eee3088f-group-project/PCB/PCB_Library_From_Template.kicad_sym"))
    (library (logical "PCB_Library_From_Template(Stefan)")
      (uri "C:/Users/stefa/Desktop/EEE3088F/Project/eee3088f-group-project/PCB/PCB_Library_From_Template.kicad_sym"))
    (library (logical "STM_Symbols")
      (uri "C:\\Users\\Admin\\OneDrive\\Documents\\EEE3088F\\Project\\eee3088f-group-project\\PCB\\EEE3088F_Project_PCB/Symbols/STM_Symbols.kicad_sym"))
    (library (logical "Transistor_FET")
      (uri "C:\\Program Files\\KiCad\\6.0\\share\\kicad\\symbols\\/Transistor_FET.kicad_sym"))
    (library (logical "pspice")
      (uri "C:\\Program Files\\KiCad\\6.0\\share\\kicad\\symbols\\/pspice.kicad_sym")))
  (nets
    (net (code "1") (name "+3V0")
      (node (ref "J1") (pin "1") (pinfunction "Pin_1") (pintype "passive"))
      (node (ref "J2") (pin "1") (pinfunction "Pin_1") (pintype "passive")))
    (net (code "2") (name "+3V3REG")
      (node (ref "C6") (pin "1") (pintype "passive"))
      (node (ref "C8") (pin "2") (pintype "passive"))
      (node (ref "J10") (pin "1") (pinfunction "Pin_1") (pintype "passive"))
      (node (ref "L1") (pin "2") (pinfunction "2") (pintype "passive"))
      (node (ref "L3") (pin "2") (pinfunction "2") (pintype "input"))
      (node (ref "R14") (pin "1") (pintype "passive"))
      (node (ref "R15") (pin "1") (pintype "passive"))
      (node (ref "R20") (pin "1") (pintype "passive"))
      (node (ref "R21") (pin "1") (pintype "passive"))
      (node (ref "R5") (pin "1") (pintype "passive"))
      (node (ref "U7") (pin "8") (pinfunction "VCC") (pintype "power_in")))
    (net (code "3") (name "/BOOT")
      (node (ref "J3") (pin "6") (pinfunction "Pin_6") (pintype "passive"))
      (node (ref "J4") (pin "6") (pinfunction "Pin_6") (pintype "passive")))
    (net (code "4") (name "/NRST")
      (node (ref "J1") (pin "10") (pinfunction "Pin_10") (pintype "passive"))
      (node (ref "J2") (pin "10") (pinfunction "Pin_10") (pintype "passive")))
    (net (code "5") (name "/PA0")
      (node (ref "J1") (pin "15") (pinfunction "Pin_15") (pintype "passive"))
      (node (ref "J2") (pin "15") (pinfunction "Pin_15") (pintype "passive")))
    (net (code "6") (name "/PA1")
      (node (ref "J1") (pin "16") (pinfunction "Pin_16") (pintype "passive"))
      (node (ref "J2") (pin "16") (pinfunction "Pin_16") (pintype "passive"))
      (node (ref "J7") (pin "2") (pinfunction "Pin_2") (pintype "passive"))
      (node (ref "R16") (pin "2") (pintype "passive"))
      (node (ref "R17") (pin "1") (pintype "passive")))
    (net (code "7") (name "/PA2")
      (node (ref "J1") (pin "17") (pinfunction "Pin_17") (pintype "passive"))
      (node (ref "J2") (pin "17") (pinfunction "Pin_17") (pintype "passive")))
    (net (code "8") (name "/PA3")
      (node (ref "J1") (pin "18") (pinfunction "Pin_18") (pintype "passive"))
      (node (ref "J2") (pin "18") (pinfunction "Pin_18") (pintype "passive"))
      (node (ref "R9") (pin "2") (pintype "passive")))
    (net (code "9") (name "/PA4")
      (node (ref "J1") (pin "21") (pinfunction "Pin_21") (pintype "passive"))
      (node (ref "J11") (pin "1") (pinfunction "Pin_1") (pintype "passive"))
      (node (ref "J2") (pin "21") (pinfunction "Pin_21") (pintype "passive"))
      (node (ref "R18") (pin "2") (pintype "passive"))
      (node (ref "R19") (pin "1") (pintype "passive"))
      (node (ref "R8") (pin "2") (pintype "passive")))
    (net (code "10") (name "/PA5")
      (node (ref "J1") (pin "22") (pinfunction "Pin_22") (pintype "passive"))
      (node (ref "J2") (pin "22") (pinfunction "Pin_22") (pintype "passive")))
    (net (code "11") (name "/PA6")
      (node (ref "J1") (pin "23") (pinfunction "Pin_23") (pintype "passive"))
      (node (ref "J2") (pin "23") (pinfunction "Pin_23") (pintype "passive")))
    (net (code "12") (name "/PA7")
      (node (ref "J1") (pin "24") (pinfunction "Pin_24") (pintype "passive"))
      (node (ref "J2") (pin "24") (pinfunction "Pin_24") (pintype "passive")))
    (net (code "13") (name "/PA8")
      (node (ref "J3") (pin "25") (pinfunction "Pin_25") (pintype "passive"))
      (node (ref "J4") (pin "25") (pinfunction "Pin_25") (pintype "passive")))
    (net (code "14") (name "/PA9")
      (node (ref "J3") (pin "24") (pinfunction "Pin_24") (pintype "passive"))
      (node (ref "J4") (pin "24") (pinfunction "Pin_24") (pintype "passive")))
    (net (code "15") (name "/PA10")
      (node (ref "J3") (pin "23") (pinfunction "Pin_23") (pintype "passive"))
      (node (ref "J4") (pin "23") (pinfunction "Pin_23") (pintype "passive")))
    (net (code "16") (name "/PA11")
      (node (ref "J3") (pin "22") (pinfunction "Pin_22") (pintype "passive"))
      (node (ref "J4") (pin "22") (pinfunction "Pin_22") (pintype "passive")))
    (net (code "17") (name "/PA12")
      (node (ref "J3") (pin "21") (pinfunction "Pin_21") (pintype "passive"))
      (node (ref "J4") (pin "21") (pinfunction "Pin_21") (pintype "passive")))
    (net (code "18") (name "/PA13")
      (node (ref "J3") (pin "20") (pinfunction "Pin_20") (pintype "passive"))
      (node (ref "J4") (pin "20") (pinfunction "Pin_20") (pintype "passive")))
    (net (code "19") (name "/PA14")
      (node (ref "J3") (pin "17") (pinfunction "Pin_17") (pintype "passive"))
      (node (ref "J4") (pin "17") (pinfunction "Pin_17") (pintype "passive")))
    (net (code "20") (name "/PA15")
      (node (ref "J3") (pin "16") (pinfunction "Pin_16") (pintype "passive"))
      (node (ref "J4") (pin "16") (pinfunction "Pin_16") (pintype "passive")))
    (net (code "21") (name "/PB0")
      (node (ref "J1") (pin "27") (pinfunction "Pin_27") (pintype "passive"))
      (node (ref "J2") (pin "27") (pinfunction "Pin_27") (pintype "passive")))
    (net (code "22") (name "/PB1")
      (node (ref "J1") (pin "28") (pinfunction "Pin_28") (pintype "passive"))
      (node (ref "J2") (pin "28") (pinfunction "Pin_28") (pintype "passive")))
    (net (code "23") (name "/PB2")
      (node (ref "J1") (pin "29") (pinfunction "Pin_29") (pintype "passive"))
      (node (ref "J2") (pin "29") (pinfunction "Pin_29") (pintype "passive")))
    (net (code "24") (name "/PB3")
      (node (ref "J3") (pin "11") (pinfunction "Pin_11") (pintype "passive"))
      (node (ref "J4") (pin "11") (pinfunction "Pin_11") (pintype "passive")))
    (net (code "25") (name "/PB4")
      (node (ref "J3") (pin "10") (pinfunction "Pin_10") (pintype "passive"))
      (node (ref "J4") (pin "10") (pinfunction "Pin_10") (pintype "passive"))
      (node (ref "U3") (pin "1") (pinfunction "CE") (pintype "unspecified")))
    (net (code "26") (name "/PB5")
      (node (ref "J3") (pin "9") (pinfunction "Pin_9") (pintype "passive"))
      (node (ref "J4") (pin "9") (pinfunction "Pin_9") (pintype "passive")))
    (net (code "27") (name "/PB6")
      (node (ref "J3") (pin "8") (pinfunction "Pin_8") (pintype "passive"))
      (node (ref "J4") (pin "8") (pinfunction "Pin_8") (pintype "passive"))
      (node (ref "U6") (pin "3") (pinfunction "RXD") (pintype "input")))
    (net (code "28") (name "/PB7")
      (node (ref "J3") (pin "7") (pinfunction "Pin_7") (pintype "passive"))
      (node (ref "J4") (pin "7") (pinfunction "Pin_7") (pintype "passive"))
      (node (ref "U6") (pin "2") (pinfunction "TXD") (pintype "output")))
    (net (code "29") (name "/PB8")
      (node (ref "J3") (pin "4") (pinfunction "Pin_4") (pintype "passive"))
      (node (ref "J4") (pin "4") (pinfunction "Pin_4") (pintype "passive"))
      (node (ref "R21") (pin "2") (pintype "passive"))
      (node (ref "U7") (pin "6") (pinfunction "SCL") (pintype "input")))
    (net (code "30") (name "/PB9")
      (node (ref "J3") (pin "3") (pinfunction "Pin_3") (pintype "passive"))
      (node (ref "J4") (pin "3") (pinfunction "Pin_3") (pintype "passive"))
      (node (ref "R20") (pin "2") (pintype "passive"))
      (node (ref "U7") (pin "5") (pinfunction "SDA") (pintype "bidirectional")))
    (net (code "31") (name "/PB10")
      (node (ref "J1") (pin "30") (pinfunction "Pin_30") (pintype "passive"))
      (node (ref "J2") (pin "30") (pinfunction "Pin_30") (pintype "passive"))
      (node (ref "Q1") (pin "3") (pinfunction "D") (pintype "passive"))
      (node (ref "R14") (pin "2") (pintype "passive")))
    (net (code "32") (name "/PB11")
      (node (ref "J1") (pin "31") (pinfunction "Pin_31") (pintype "passive"))
      (node (ref "J2") (pin "31") (pinfunction "Pin_31") (pintype "passive"))
      (node (ref "Q2") (pin "3") (pinfunction "D") (pintype "passive"))
      (node (ref "R15") (pin "2") (pintype "passive")))
    (net (code "33") (name "/PB12")
      (node (ref "J1") (pin "32") (pinfunction "Pin_32") (pintype "passive"))
      (node (ref "J2") (pin "32") (pinfunction "Pin_32") (pintype "passive")))
    (net (code "34") (name "/PB13")
      (node (ref "J3") (pin "32") (pinfunction "Pin_32") (pintype "passive"))
      (node (ref "J4") (pin "32") (pinfunction "Pin_32") (pintype "passive")))
    (net (code "35") (name "/PB14")
      (node (ref "J3") (pin "31") (pinfunction "Pin_31") (pintype "passive"))
      (node (ref "J4") (pin "31") (pinfunction "Pin_31") (pintype "passive")))
    (net (code "36") (name "/PB15")
      (node (ref "J3") (pin "30") (pinfunction "Pin_30") (pintype "passive"))
      (node (ref "J4") (pin "30") (pinfunction "Pin_30") (pintype "passive")))
    (net (code "37") (name "/PC0")
      (node (ref "J1") (pin "11") (pinfunction "Pin_11") (pintype "passive"))
      (node (ref "J2") (pin "11") (pinfunction "Pin_11") (pintype "passive")))
    (net (code "38") (name "/PC1")
      (node (ref "J1") (pin "12") (pinfunction "Pin_12") (pintype "passive"))
      (node (ref "J2") (pin "12") (pinfunction "Pin_12") (pintype "passive")))
    (net (code "39") (name "/PC2")
      (node (ref "J1") (pin "13") (pinfunction "Pin_13") (pintype "passive"))
      (node (ref "J2") (pin "13") (pinfunction "Pin_13") (pintype "passive")))
    (net (code "40") (name "/PC3")
      (node (ref "J1") (pin "14") (pinfunction "Pin_14") (pintype "passive"))
      (node (ref "J2") (pin "14") (pinfunction "Pin_14") (pintype "passive")))
    (net (code "41") (name "/PC4")
      (node (ref "J1") (pin "25") (pinfunction "Pin_25") (pintype "passive"))
      (node (ref "J2") (pin "25") (pinfunction "Pin_25") (pintype "passive")))
    (net (code "42") (name "/PC5")
      (node (ref "J1") (pin "26") (pinfunction "Pin_26") (pintype "passive"))
      (node (ref "J2") (pin "26") (pinfunction "Pin_26") (pintype "passive")))
    (net (code "43") (name "/PC6")
      (node (ref "J3") (pin "29") (pinfunction "Pin_29") (pintype "passive"))
      (node (ref "J4") (pin "29") (pinfunction "Pin_29") (pintype "passive")))
    (net (code "44") (name "/PC7")
      (node (ref "J3") (pin "28") (pinfunction "Pin_28") (pintype "passive"))
      (node (ref "J4") (pin "28") (pinfunction "Pin_28") (pintype "passive")))
    (net (code "45") (name "/PC8")
      (node (ref "J3") (pin "27") (pinfunction "Pin_27") (pintype "passive"))
      (node (ref "J4") (pin "27") (pinfunction "Pin_27") (pintype "passive")))
    (net (code "46") (name "/PC9")
      (node (ref "J3") (pin "26") (pinfunction "Pin_26") (pintype "passive"))
      (node (ref "J4") (pin "26") (pinfunction "Pin_26") (pintype "passive")))
    (net (code "47") (name "/PC10")
      (node (ref "J3") (pin "15") (pinfunction "Pin_15") (pintype "passive"))
      (node (ref "J4") (pin "15") (pinfunction "Pin_15") (pintype "passive")))
    (net (code "48") (name "/PC11")
      (node (ref "J3") (pin "14") (pinfunction "Pin_14") (pintype "passive"))
      (node (ref "J4") (pin "14") (pinfunction "Pin_14") (pintype "passive")))
    (net (code "49") (name "/PC12")
      (node (ref "J3") (pin "13") (pinfunction "Pin_13") (pintype "passive"))
      (node (ref "J4") (pin "13") (pinfunction "Pin_13") (pintype "passive")))
    (net (code "50") (name "/PC13")
      (node (ref "J1") (pin "4") (pinfunction "Pin_4") (pintype "passive"))
      (node (ref "J2") (pin "4") (pinfunction "Pin_4") (pintype "passive")))
    (net (code "51") (name "/PC14")
      (node (ref "J1") (pin "5") (pinfunction "Pin_5") (pintype "passive"))
      (node (ref "J2") (pin "5") (pinfunction "Pin_5") (pintype "passive")))
    (net (code "52") (name "/PC15")
      (node (ref "J1") (pin "6") (pinfunction "Pin_6") (pintype "passive"))
      (node (ref "J2") (pin "6") (pinfunction "Pin_6") (pintype "passive")))
    (net (code "53") (name "/PD2")
      (node (ref "J3") (pin "12") (pinfunction "Pin_12") (pintype "passive"))
      (node (ref "J4") (pin "12") (pinfunction "Pin_12") (pintype "passive")))
    (net (code "54") (name "/PF0")
      (node (ref "J1") (pin "7") (pinfunction "Pin_7") (pintype "passive"))
      (node (ref "J2") (pin "7") (pinfunction "Pin_7") (pintype "passive")))
    (net (code "55") (name "/PF1")
      (node (ref "J1") (pin "8") (pinfunction "Pin_8") (pintype "passive"))
      (node (ref "J2") (pin "8") (pinfunction "Pin_8") (pintype "passive")))
    (net (code "56") (name "/PF4")
      (node (ref "J1") (pin "19") (pinfunction "Pin_19") (pintype "passive"))
      (node (ref "J2") (pin "19") (pinfunction "Pin_19") (pintype "passive")))
    (net (code "57") (name "/PF5")
      (node (ref "J1") (pin "20") (pinfunction "Pin_20") (pintype "passive"))
      (node (ref "J2") (pin "20") (pinfunction "Pin_20") (pintype "passive")))
    (net (code "58") (name "/PF6")
      (node (ref "J3") (pin "19") (pinfunction "Pin_19") (pintype "passive"))
      (node (ref "J4") (pin "19") (pinfunction "Pin_19") (pintype "passive")))
    (net (code "59") (name "/PF7")
      (node (ref "J3") (pin "18") (pinfunction "Pin_18") (pintype "passive"))
      (node (ref "J4") (pin "18") (pinfunction "Pin_18") (pintype "passive")))
    (net (code "60") (name "/Power/+5VBUS")
      (node (ref "C1") (pin "1") (pintype "passive"))
      (node (ref "C11") (pin "1") (pintype "passive"))
      (node (ref "D2") (pin "2") (pinfunction "A") (pintype "passive"))
      (node (ref "J8") (pin "2") (pinfunction "Pin_2") (pintype "passive"))
      (node (ref "R18") (pin "1") (pintype "passive"))
      (node (ref "U1") (pin "4") (pinfunction "VDD") (pintype "unspecified"))
      (node (ref "U6") (pin "16") (pinfunction "VCC") (pintype "power_in")))
    (net (code "61") (name "/Power/BAT+")
      (node (ref "BT1") (pin "1") (pinfunction "+") (pintype "passive"))
      (node (ref "C4") (pin "1") (pintype "passive"))
      (node (ref "D1") (pin "2") (pinfunction "A") (pintype "passive"))
      (node (ref "J6") (pin "1") (pinfunction "Pin_1") (pintype "passive"))
      (node (ref "J7") (pin "3") (pinfunction "Pin_3") (pintype "passive"))
      (node (ref "U1") (pin "3") (pinfunction "VBAT") (pintype "unspecified")))
    (net (code "62") (name "/Sensing/+2.8V")
      (node (ref "C10") (pin "1") (pintype "passive"))
      (node (ref "C9") (pin "1") (pintype "passive"))
      (node (ref "J5") (pin "2") (pinfunction "Pin_2") (pintype "passive"))
      (node (ref "Q1") (pin "1") (pinfunction "G") (pintype "input"))
      (node (ref "R10") (pin "2") (pintype "passive"))
      (node (ref "R11") (pin "2") (pintype "passive"))
      (node (ref "R12") (pin "1") (pintype "passive"))
      (node (ref "U4") (pin "10") (pinfunction "AVDD") (pintype "input"))
      (node (ref "U4") (pin "8") (pinfunction "AVDD_VCSEL") (pintype "input")))
    (net (code "63") (name "/Sensing/SCL_LV")
      (node (ref "Q1") (pin "2") (pinfunction "S") (pintype "passive"))
      (node (ref "R12") (pin "2") (pintype "passive"))
      (node (ref "U4") (pin "5") (pinfunction "SCL") (pintype "bidirectional")))
    (net (code "64") (name "/Sensing/SDA_LV")
      (node (ref "Q2") (pin "2") (pinfunction "S") (pintype "passive"))
      (node (ref "R13") (pin "2") (pintype "passive"))
      (node (ref "U4") (pin "6") (pinfunction "SDA") (pintype "bidirectional")))
    (net (code "65") (name "/VBAT")
      (node (ref "J1") (pin "3") (pinfunction "Pin_3") (pintype "passive"))
      (node (ref "J2") (pin "3") (pinfunction "Pin_3") (pintype "passive")))
    (net (code "66") (name "/microcontroller_interfacing/D+")
      (node (ref "J9") (pin "2") (pinfunction "Pin_2") (pintype "passive"))
      (node (ref "U5") (pin "3") (pinfunction "D+") (pintype "bidirectional"))
      (node (ref "U6") (pin "5") (pinfunction "UD+") (pintype "bidirectional")))
    (net (code "67") (name "/microcontroller_interfacing/D-")
      (node (ref "J9") (pin "1") (pinfunction "Pin_1") (pintype "passive"))
      (node (ref "U5") (pin "2") (pinfunction "D-") (pintype "bidirectional"))
      (node (ref "U6") (pin "6") (pinfunction "UD-") (pintype "bidirectional")))
    (net (code "68") (name "Bat (Protected)")
      (node (ref "C2") (pin "1") (pintype "passive"))
      (node (ref "C3") (pin "1") (pintype "passive"))
      (node (ref "D1") (pin "1") (pinfunction "K") (pintype "passive"))
      (node (ref "J3") (pin "1") (pinfunction "Pin_1") (pintype "passive"))
      (node (ref "J4") (pin "1") (pinfunction "Pin_1") (pintype "passive"))
      (node (ref "R3") (pin "1") (pintype "passive"))
      (node (ref "U2") (pin "5") (pinfunction "Vin") (pintype "unspecified")))
    (net (code "69") (name "GND")
      (node (ref "BT1") (pin "2") (pinfunction "-") (pintype "passive"))
      (node (ref "C1") (pin "2") (pintype "passive"))
      (node (ref "C10") (pin "2") (pintype "passive"))
      (node (ref "C11") (pin "2") (pintype "passive"))
      (node (ref "C12") (pin "2") (pintype "passive"))
      (node (ref "C2") (pin "2") (pintype "passive"))
      (node (ref "C3") (pin "2") (pintype "passive"))
      (node (ref "C4") (pin "2") (pintype "passive"))
      (node (ref "C6") (pin "2") (pintype "passive"))
      (node (ref "C8") (pin "1") (pintype "passive"))
      (node (ref "C9") (pin "2") (pintype "passive"))
      (node (ref "J1") (pin "2") (pinfunction "Pin_2") (pintype "passive"))
      (node (ref "J1") (pin "33") (pinfunction "Pin_33") (pintype "passive"))
      (node (ref "J1") (pin "9") (pinfunction "Pin_9") (pintype "passive"))
      (node (ref "J10") (pin "2") (pinfunction "Pin_2") (pintype "passive"))
      (node (ref "J2") (pin "2") (pinfunction "Pin_2") (pintype "passive"))
      (node (ref "J2") (pin "33") (pinfunction "Pin_33") (pintype "passive"))
      (node (ref "J2") (pin "9") (pinfunction "Pin_9") (pintype "passive"))
      (node (ref "J3") (pin "2") (pinfunction "Pin_2") (pintype "passive"))
      (node (ref "J3") (pin "33") (pinfunction "Pin_33") (pintype "passive"))
      (node (ref "J4") (pin "2") (pinfunction "Pin_2") (pintype "passive"))
      (node (ref "J4") (pin "33") (pinfunction "Pin_33") (pintype "passive"))
      (node (ref "R19") (pin "2") (pintype "passive"))
      (node (ref "R2") (pin "2") (pintype "passive"))
      (node (ref "R4") (pin "2") (pintype "passive"))
      (node (ref "R6") (pin "2") (pintype "passive"))
      (node (ref "R7") (pin "2") (pintype "passive"))
      (node (ref "U1") (pin "2") (pinfunction "VSS") (pintype "unspecified"))
      (node (ref "U2") (pin "2") (pinfunction "GND") (pintype "unspecified"))
      (node (ref "U3") (pin "4") (pinfunction "GND") (pintype "unspecified"))
      (node (ref "U4") (pin "12") (pinfunction "GND") (pintype "input"))
      (node (ref "U4") (pin "9") (pinfunction "AVSS_VCSEL") (pintype "input"))
      (node (ref "U5") (pin "5") (pinfunction "GND") (pintype "power_in"))
      (node (ref "U6") (pin "1") (pinfunction "GND") (pintype "power_in"))
      (node (ref "U7") (pin "1") (pinfunction "A0") (pintype "input"))
      (node (ref "U7") (pin "2") (pinfunction "A1") (pintype "input"))
      (node (ref "U7") (pin "3") (pinfunction "A2") (pintype "input"))
      (node (ref "U7") (pin "4") (pinfunction "GND") (pintype "power_in"))
      (node (ref "U7") (pin "7") (pinfunction "WP") (pintype "input")))
    (net (code "70") (name "Net-(C5-Pad1)")
      (node (ref "C5") (pin "1") (pintype "passive"))
      (node (ref "U2") (pin "1") (pinfunction "BST") (pintype "unspecified")))
    (net (code "71") (name "Net-(C5-Pad2)")
      (node (ref "C5") (pin "2") (pintype "passive"))
      (node (ref "L1") (pin "1") (pinfunction "1") (pintype "passive"))
      (node (ref "U2") (pin "6") (pinfunction "SW") (pintype "unspecified")))
    (net (code "72") (name "Net-(C7-Pad1)")
      (node (ref "C7") (pin "1") (pintype "passive"))
      (node (ref "R7") (pin "1") (pintype "passive")))
    (net (code "73") (name "Net-(C7-Pad2)")
      (node (ref "C7") (pin "2") (pintype "passive"))
      (node (ref "D3") (pin "1") (pinfunction "K") (pintype "passive"))
      (node (ref "J5") (pin "1") (pinfunction "Pin_1") (pintype "passive"))
      (node (ref "U3") (pin "2") (pinfunction "OUT") (pintype "unspecified")))
    (net (code "74") (name "Net-(C12-Pad1)")
      (node (ref "C12") (pin "1") (pintype "passive"))
      (node (ref "U6") (pin "4") (pinfunction "V3") (pintype "passive")))
    (net (code "75") (name "Net-(D2-Pad1)")
      (node (ref "D2") (pin "1") (pinfunction "K") (pintype "passive"))
      (node (ref "R1") (pin "1") (pintype "passive")))
    (net (code "76") (name "Net-(D3-Pad2)")
      (node (ref "D3") (pin "2") (pinfunction "A") (pintype "passive"))
      (node (ref "L3") (pin "1") (pinfunction "1") (pintype "input"))
      (node (ref "U3") (pin "5") (pinfunction "LX") (pintype "unspecified")))
    (net (code "77") (name "Net-(J6-Pad2)")
      (node (ref "J6") (pin "2") (pinfunction "Pin_2") (pintype "passive"))
      (node (ref "R16") (pin "1") (pintype "passive")))
    (net (code "78") (name "Net-(J7-Pad1)")
      (node (ref "J7") (pin "1") (pinfunction "Pin_1") (pintype "passive"))
      (node (ref "R17") (pin "2") (pintype "passive")))
    (net (code "79") (name "Net-(J8-Pad1)")
      (node (ref "J8") (pin "1") (pinfunction "Pin_1") (pintype "passive"))
      (node (ref "U5") (pin "1") (pinfunction "VBUS") (pintype "power_out")))
    (net (code "80") (name "Net-(Q2-Pad1)")
      (node (ref "Q2") (pin "1") (pinfunction "G") (pintype "input"))
      (node (ref "R13") (pin "1") (pintype "passive")))
    (net (code "81") (name "Net-(R1-Pad2)")
      (node (ref "R1") (pin "2") (pintype "passive"))
      (node (ref "U1") (pin "1") (pinfunction "STAT") (pintype "unspecified")))
    (net (code "82") (name "Net-(R2-Pad1)")
      (node (ref "R2") (pin "1") (pintype "passive"))
      (node (ref "U1") (pin "5") (pinfunction "PROG") (pintype "unspecified")))
    (net (code "83") (name "Net-(R3-Pad2)")
      (node (ref "R3") (pin "2") (pintype "passive"))
      (node (ref "R4") (pin "1") (pintype "passive"))
      (node (ref "U2") (pin "4") (pinfunction "EN") (pintype "unspecified")))
    (net (code "84") (name "Net-(R5-Pad2)")
      (node (ref "R5") (pin "2") (pintype "passive"))
      (node (ref "R6") (pin "1") (pintype "passive"))
      (node (ref "U2") (pin "3") (pinfunction "FB") (pintype "unspecified")))
    (net (code "85") (name "Net-(R10-Pad1)")
      (node (ref "R10") (pin "1") (pintype "passive"))
      (node (ref "R9") (pin "1") (pintype "passive"))
      (node (ref "U4") (pin "4") (pinfunction "GPIO0/CE") (pintype "bidirectional")))
    (net (code "86") (name "Net-(R11-Pad1)")
      (node (ref "R11") (pin "1") (pintype "passive"))
      (node (ref "R8") (pin "1") (pintype "passive"))
      (node (ref "U4") (pin "1") (pinfunction "GPIO1") (pintype "bidirectional")))
    (net (code "87") (name "VDD")
      (node (ref "J3") (pin "5") (pinfunction "Pin_5") (pintype "passive"))
      (node (ref "J4") (pin "5") (pinfunction "Pin_5") (pintype "passive")))
    (net (code "88") (name "unconnected-(U3-Pad3)")
      (node (ref "U3") (pin "3") (pinfunction "NC") (pintype "unspecified+no_connect")))
    (net (code "89") (name "unconnected-(U4-Pad2)")
      (node (ref "U4") (pin "2") (pinfunction "NC") (pintype "unspecified+no_connect")))
    (net (code "90") (name "unconnected-(U4-Pad3)")
      (node (ref "U4") (pin "3") (pinfunction "NC") (pintype "unspecified+no_connect")))
    (net (code "91") (name "unconnected-(U4-Pad7)")
      (node (ref "U4") (pin "7") (pinfunction "NC") (pintype "bidirectional+no_connect")))
    (net (code "92") (name "unconnected-(U4-Pad11)")
      (node (ref "U4") (pin "11") (pinfunction "NC") (pintype "unspecified+no_connect")))
    (net (code "93") (name "unconnected-(U5-Pad4)")
      (node (ref "U5") (pin "4") (pinfunction "ID") (pintype "output+no_connect")))
    (net (code "94") (name "unconnected-(U5-Pad6)")
      (node (ref "U5") (pin "6") (pinfunction "SH1") (pintype "passive+no_connect")))
    (net (code "95") (name "unconnected-(U5-Pad7)")
      (node (ref "U5") (pin "7") (pinfunction "SH2") (pintype "passive+no_connect")))
    (net (code "96") (name "unconnected-(U5-Pad8)")
      (node (ref "U5") (pin "8") (pinfunction "SH3") (pintype "passive+no_connect")))
    (net (code "97") (name "unconnected-(U5-Pad9)")
      (node (ref "U5") (pin "9") (pinfunction "SH4") (pintype "passive+no_connect")))
    (net (code "98") (name "unconnected-(U6-Pad7)")
      (node (ref "U6") (pin "7") (pinfunction "NC") (pintype "no_connect")))
    (net (code "99") (name "unconnected-(U6-Pad8)")
      (node (ref "U6") (pin "8") (pinfunction "NC") (pintype "no_connect")))
    (net (code "100") (name "unconnected-(U6-Pad9)")
      (node (ref "U6") (pin "9") (pinfunction "~{CTS}") (pintype "input+no_connect")))
    (net (code "101") (name "unconnected-(U6-Pad10)")
      (node (ref "U6") (pin "10") (pinfunction "~{DSR}") (pintype "input+no_connect")))
    (net (code "102") (name "unconnected-(U6-Pad11)")
      (node (ref "U6") (pin "11") (pinfunction "~{RI}") (pintype "input+no_connect")))
    (net (code "103") (name "unconnected-(U6-Pad12)")
      (node (ref "U6") (pin "12") (pinfunction "~{DCD}") (pintype "input+no_connect")))
    (net (code "104") (name "unconnected-(U6-Pad13)")
      (node (ref "U6") (pin "13") (pinfunction "~{DTR}") (pintype "output+no_connect")))
    (net (code "105") (name "unconnected-(U6-Pad14)")
      (node (ref "U6") (pin "14") (pinfunction "~{RTS}") (pintype "output+no_connect")))
    (net (code "106") (name "unconnected-(U6-Pad15)")
      (node (ref "U6") (pin "15") (pinfunction "R232") (pintype "input+no_connect")))))