(kicad_sch (version 20211123) (generator eeschema)

  (uuid ae78189d-79c7-41a0-b77c-3bb766898352)

  (paper "A4")

  (title_block
    (title "Sensing Module")
    (rev "V.2")
    (comment 1 "RSSMIK001")
    (comment 2 "By Mikhail Russell")
  )

  (lib_symbols
    (symbol "Connector:Conn_01x02_Male" (pin_names (offset 1.016) hide) (in_bom yes) (on_board yes)
      (property "Reference" "J" (id 0) (at 0 2.54 0)
        (effects (font (size 1.27 1.27)))
      )
      (property "Value" "Conn_01x02_Male" (id 1) (at 0 -5.08 0)
        (effects (font (size 1.27 1.27)))
      )
      (property "Footprint" "" (id 2) (at 0 0 0)
        (effects (font (size 1.27 1.27)) hide)
      )
      (property "Datasheet" "~" (id 3) (at 0 0 0)
        (effects (font (size 1.27 1.27)) hide)
      )
      (property "ki_keywords" "connector" (id 4) (at 0 0 0)
        (effects (font (size 1.27 1.27)) hide)
      )
      (property "ki_description" "Generic connector, single row, 01x02, script generated (kicad-library-utils/schlib/autogen/connector/)" (id 5) (at 0 0 0)
        (effects (font (size 1.27 1.27)) hide)
      )
      (property "ki_fp_filters" "Connector*:*_1x??_*" (id 6) (at 0 0 0)
        (effects (font (size 1.27 1.27)) hide)
      )
      (symbol "Conn_01x02_Male_1_1"
        (polyline
          (pts
            (xy 1.27 -2.54)
            (xy 0.8636 -2.54)
          )
          (stroke (width 0.1524) (type default) (color 0 0 0 0))
          (fill (type none))
        )
        (polyline
          (pts
            (xy 1.27 0)
            (xy 0.8636 0)
          )
          (stroke (width 0.1524) (type default) (color 0 0 0 0))
          (fill (type none))
        )
        (rectangle (start 0.8636 -2.413) (end 0 -2.667)
          (stroke (width 0.1524) (type default) (color 0 0 0 0))
          (fill (type outline))
        )
        (rectangle (start 0.8636 0.127) (end 0 -0.127)
          (stroke (width 0.1524) (type default) (color 0 0 0 0))
          (fill (type outline))
        )
        (pin passive line (at 5.08 0 180) (length 3.81)
          (name "Pin_1" (effects (font (size 1.27 1.27))))
          (number "1" (effects (font (size 1.27 1.27))))
        )
        (pin passive line (at 5.08 -2.54 180) (length 3.81)
          (name "Pin_2" (effects (font (size 1.27 1.27))))
          (number "2" (effects (font (size 1.27 1.27))))
        )
      )
    )
    (symbol "Connector:Conn_01x03_Male" (pin_names (offset 1.016) hide) (in_bom yes) (on_board yes)
      (property "Reference" "J" (id 0) (at 0 5.08 0)
        (effects (font (size 1.27 1.27)))
      )
      (property "Value" "Conn_01x03_Male" (id 1) (at 0 -5.08 0)
        (effects (font (size 1.27 1.27)))
      )
      (property "Footprint" "" (id 2) (at 0 0 0)
        (effects (font (size 1.27 1.27)) hide)
      )
      (property "Datasheet" "~" (id 3) (at 0 0 0)
        (effects (font (size 1.27 1.27)) hide)
      )
      (property "ki_keywords" "connector" (id 4) (at 0 0 0)
        (effects (font (size 1.27 1.27)) hide)
      )
      (property "ki_description" "Generic connector, single row, 01x03, script generated (kicad-library-utils/schlib/autogen/connector/)" (id 5) (at 0 0 0)
        (effects (font (size 1.27 1.27)) hide)
      )
      (property "ki_fp_filters" "Connector*:*_1x??_*" (id 6) (at 0 0 0)
        (effects (font (size 1.27 1.27)) hide)
      )
      (symbol "Conn_01x03_Male_1_1"
        (polyline
          (pts
            (xy 1.27 -2.54)
            (xy 0.8636 -2.54)
          )
          (stroke (width 0.1524) (type default) (color 0 0 0 0))
          (fill (type none))
        )
        (polyline
          (pts
            (xy 1.27 0)
            (xy 0.8636 0)
          )
          (stroke (width 0.1524) (type default) (color 0 0 0 0))
          (fill (type none))
        )
        (polyline
          (pts
            (xy 1.27 2.54)
            (xy 0.8636 2.54)
          )
          (stroke (width 0.1524) (type default) (color 0 0 0 0))
          (fill (type none))
        )
        (rectangle (start 0.8636 -2.413) (end 0 -2.667)
          (stroke (width 0.1524) (type default) (color 0 0 0 0))
          (fill (type outline))
        )
        (rectangle (start 0.8636 0.127) (end 0 -0.127)
          (stroke (width 0.1524) (type default) (color 0 0 0 0))
          (fill (type outline))
        )
        (rectangle (start 0.8636 2.667) (end 0 2.413)
          (stroke (width 0.1524) (type default) (color 0 0 0 0))
          (fill (type outline))
        )
        (pin passive line (at 5.08 2.54 180) (length 3.81)
          (name "Pin_1" (effects (font (size 1.27 1.27))))
          (number "1" (effects (font (size 1.27 1.27))))
        )
        (pin passive line (at 5.08 0 180) (length 3.81)
          (name "Pin_2" (effects (font (size 1.27 1.27))))
          (number "2" (effects (font (size 1.27 1.27))))
        )
        (pin passive line (at 5.08 -2.54 180) (length 3.81)
          (name "Pin_3" (effects (font (size 1.27 1.27))))
          (number "3" (effects (font (size 1.27 1.27))))
        )
      )
    )
    (symbol "Device:C_Small" (pin_numbers hide) (pin_names (offset 0.254) hide) (in_bom yes) (on_board yes)
      (property "Reference" "C" (id 0) (at 0.254 1.778 0)
        (effects (font (size 1.27 1.27)) (justify left))
      )
      (property "Value" "C_Small" (id 1) (at 0.254 -2.032 0)
        (effects (font (size 1.27 1.27)) (justify left))
      )
      (property "Footprint" "" (id 2) (at 0 0 0)
        (effects (font (size 1.27 1.27)) hide)
      )
      (property "Datasheet" "~" (id 3) (at 0 0 0)
        (effects (font (size 1.27 1.27)) hide)
      )
      (property "ki_keywords" "capacitor cap" (id 4) (at 0 0 0)
        (effects (font (size 1.27 1.27)) hide)
      )
      (property "ki_description" "Unpolarized capacitor, small symbol" (id 5) (at 0 0 0)
        (effects (font (size 1.27 1.27)) hide)
      )
      (property "ki_fp_filters" "C_*" (id 6) (at 0 0 0)
        (effects (font (size 1.27 1.27)) hide)
      )
      (symbol "C_Small_0_1"
        (polyline
          (pts
            (xy -1.524 -0.508)
            (xy 1.524 -0.508)
          )
          (stroke (width 0.3302) (type default) (color 0 0 0 0))
          (fill (type none))
        )
        (polyline
          (pts
            (xy -1.524 0.508)
            (xy 1.524 0.508)
          )
          (stroke (width 0.3048) (type default) (color 0 0 0 0))
          (fill (type none))
        )
      )
      (symbol "C_Small_1_1"
        (pin passive line (at 0 2.54 270) (length 2.032)
          (name "~" (effects (font (size 1.27 1.27))))
          (number "1" (effects (font (size 1.27 1.27))))
        )
        (pin passive line (at 0 -2.54 90) (length 2.032)
          (name "~" (effects (font (size 1.27 1.27))))
          (number "2" (effects (font (size 1.27 1.27))))
        )
      )
    )
    (symbol "Device:R_US" (pin_numbers hide) (pin_names (offset 0)) (in_bom yes) (on_board yes)
      (property "Reference" "R" (id 0) (at 2.54 0 90)
        (effects (font (size 1.27 1.27)))
      )
      (property "Value" "R_US" (id 1) (at -2.54 0 90)
        (effects (font (size 1.27 1.27)))
      )
      (property "Footprint" "" (id 2) (at 1.016 -0.254 90)
        (effects (font (size 1.27 1.27)) hide)
      )
      (property "Datasheet" "~" (id 3) (at 0 0 0)
        (effects (font (size 1.27 1.27)) hide)
      )
      (property "ki_keywords" "R res resistor" (id 4) (at 0 0 0)
        (effects (font (size 1.27 1.27)) hide)
      )
      (property "ki_description" "Resistor, US symbol" (id 5) (at 0 0 0)
        (effects (font (size 1.27 1.27)) hide)
      )
      (property "ki_fp_filters" "R_*" (id 6) (at 0 0 0)
        (effects (font (size 1.27 1.27)) hide)
      )
      (symbol "R_US_0_1"
        (polyline
          (pts
            (xy 0 -2.286)
            (xy 0 -2.54)
          )
          (stroke (width 0) (type default) (color 0 0 0 0))
          (fill (type none))
        )
        (polyline
          (pts
            (xy 0 2.286)
            (xy 0 2.54)
          )
          (stroke (width 0) (type default) (color 0 0 0 0))
          (fill (type none))
        )
        (polyline
          (pts
            (xy 0 -0.762)
            (xy 1.016 -1.143)
            (xy 0 -1.524)
            (xy -1.016 -1.905)
            (xy 0 -2.286)
          )
          (stroke (width 0) (type default) (color 0 0 0 0))
          (fill (type none))
        )
        (polyline
          (pts
            (xy 0 0.762)
            (xy 1.016 0.381)
            (xy 0 0)
            (xy -1.016 -0.381)
            (xy 0 -0.762)
          )
          (stroke (width 0) (type default) (color 0 0 0 0))
          (fill (type none))
        )
        (polyline
          (pts
            (xy 0 2.286)
            (xy 1.016 1.905)
            (xy 0 1.524)
            (xy -1.016 1.143)
            (xy 0 0.762)
          )
          (stroke (width 0) (type default) (color 0 0 0 0))
          (fill (type none))
        )
      )
      (symbol "R_US_1_1"
        (pin passive line (at 0 3.81 270) (length 1.27)
          (name "~" (effects (font (size 1.27 1.27))))
          (number "1" (effects (font (size 1.27 1.27))))
        )
        (pin passive line (at 0 -3.81 90) (length 1.27)
          (name "~" (effects (font (size 1.27 1.27))))
          (number "2" (effects (font (size 1.27 1.27))))
        )
      )
    )
    (symbol "PCB_Library_From_Template:LTR-553ALS-01" (in_bom yes) (on_board yes)
      (property "Reference" "U" (id 0) (at 0 -7.62 0)
        (effects (font (size 1.27 1.27)))
      )
      (property "Value" "LTR-553ALS-01" (id 1) (at 0 6.35 0)
        (effects (font (size 1.27 1.27)))
      )
      (property "Footprint" "" (id 2) (at 0 0 0)
        (effects (font (size 1.27 1.27)) hide)
      )
      (property "Datasheet" "" (id 3) (at 0 0 0)
        (effects (font (size 1.27 1.27)) hide)
      )
      (symbol "LTR-553ALS-01_0_1"
        (rectangle (start -7.62 5.08) (end 7.62 -5.08)
          (stroke (width 0) (type default) (color 0 0 0 0))
          (fill (type none))
        )
      )
      (symbol "LTR-553ALS-01_1_1"
        (pin bidirectional line (at -10.16 3.81 0) (length 2.54)
          (name "SDA" (effects (font (size 1.27 1.27))))
          (number "1" (effects (font (size 1.27 1.27))))
        )
        (pin unspecified line (at -10.16 1.27 0) (length 2.54)
          (name "INT" (effects (font (size 1.27 1.27))))
          (number "2" (effects (font (size 1.27 1.27))))
        )
        (pin unspecified line (at -10.16 -1.27 0) (length 2.54)
          (name "LDR" (effects (font (size 1.27 1.27))))
          (number "3" (effects (font (size 1.27 1.27))))
        )
        (pin unspecified line (at -10.16 -3.81 0) (length 2.54)
          (name "LED_K" (effects (font (size 1.27 1.27))))
          (number "4" (effects (font (size 1.27 1.27))))
        )
        (pin unspecified line (at 10.16 -3.81 180) (length 2.54)
          (name "LED_A" (effects (font (size 1.27 1.27))))
          (number "5" (effects (font (size 1.27 1.27))))
        )
        (pin unspecified line (at 10.16 -1.27 180) (length 2.54)
          (name "GND" (effects (font (size 1.27 1.27))))
          (number "6" (effects (font (size 1.27 1.27))))
        )
        (pin unspecified line (at 10.16 1.27 180) (length 2.54)
          (name "SCL" (effects (font (size 1.27 1.27))))
          (number "7" (effects (font (size 1.27 1.27))))
        )
        (pin unspecified line (at 10.16 3.81 180) (length 2.54)
          (name "VDD" (effects (font (size 1.27 1.27))))
          (number "8" (effects (font (size 1.27 1.27))))
        )
      )
    )
    (symbol "power:GND" (power) (pin_names (offset 0)) (in_bom yes) (on_board yes)
      (property "Reference" "#PWR" (id 0) (at 0 -6.35 0)
        (effects (font (size 1.27 1.27)) hide)
      )
      (property "Value" "GND" (id 1) (at 0 -3.81 0)
        (effects (font (size 1.27 1.27)))
      )
      (property "Footprint" "" (id 2) (at 0 0 0)
        (effects (font (size 1.27 1.27)) hide)
      )
      (property "Datasheet" "" (id 3) (at 0 0 0)
        (effects (font (size 1.27 1.27)) hide)
      )
      (property "ki_keywords" "power-flag" (id 4) (at 0 0 0)
        (effects (font (size 1.27 1.27)) hide)
      )
      (property "ki_description" "Power symbol creates a global label with name \"GND\" , ground" (id 5) (at 0 0 0)
        (effects (font (size 1.27 1.27)) hide)
      )
      (symbol "GND_0_1"
        (polyline
          (pts
            (xy 0 0)
            (xy 0 -1.27)
            (xy 1.27 -1.27)
            (xy 0 -2.54)
            (xy -1.27 -1.27)
            (xy 0 -1.27)
          )
          (stroke (width 0) (type default) (color 0 0 0 0))
          (fill (type none))
        )
      )
      (symbol "GND_1_1"
        (pin power_in line (at 0 0 270) (length 0) hide
          (name "GND" (effects (font (size 1.27 1.27))))
          (number "1" (effects (font (size 1.27 1.27))))
        )
      )
    )
  )

  (junction (at 119.38 51.435) (diameter 0) (color 0 0 0 0)
    (uuid 1093a851-1930-4d85-9b35-cd538f706c27)
  )
  (junction (at 82.55 69.85) (diameter 0) (color 0 0 0 0)
    (uuid 15fbff38-2b5a-46c5-89c4-51797d4f6602)
  )
  (junction (at 197.485 90.805) (diameter 0) (color 0 0 0 0)
    (uuid 1eb6754c-a631-456a-ba1d-39589ea213dd)
  )
  (junction (at 119.38 67.31) (diameter 0) (color 0 0 0 0)
    (uuid 30fc790b-187d-4b95-9cd2-6a15ec04b8f6)
  )
  (junction (at 77.47 67.31) (diameter 0) (color 0 0 0 0)
    (uuid 6d3319a7-b7a9-4a48-9ce2-3fa851462ae0)
  )
  (junction (at 77.47 51.435) (diameter 0) (color 0 0 0 0)
    (uuid 78ecdc38-db40-405e-95eb-7e6b5b5aa191)
  )
  (junction (at 109.855 76.835) (diameter 0) (color 0 0 0 0)
    (uuid 94c7fd19-6d5a-4d9a-93e8-be5884cf3c76)
  )
  (junction (at 119.38 74.93) (diameter 0) (color 0 0 0 0)
    (uuid 9eef7b74-3883-40f0-a279-a42042ac90c1)
  )
  (junction (at 177.165 71.755) (diameter 0) (color 0 0 0 0)
    (uuid b7cf6dd5-ac86-43e5-815f-061a85d165ae)
  )
  (junction (at 125.73 64.77) (diameter 0) (color 0 0 0 0)
    (uuid da5bab0a-c69b-44cc-b143-1cd71dfd4ce5)
  )
  (junction (at 82.55 51.435) (diameter 0) (color 0 0 0 0)
    (uuid da61215c-e18b-4fd9-9b68-2859fa40a406)
  )

  (wire (pts (xy 89.535 72.39) (xy 86.995 72.39))
    (stroke (width 0) (type default) (color 0 0 0 0))
    (uuid 0a6854cc-0fad-4cfb-8046-82f42180a00d)
  )
  (wire (pts (xy 77.47 51.435) (xy 82.55 51.435))
    (stroke (width 0) (type default) (color 0 0 0 0))
    (uuid 0e77ed57-d8ce-4413-aeda-778a3d16e317)
  )
  (wire (pts (xy 82.55 51.435) (xy 119.38 51.435))
    (stroke (width 0) (type default) (color 0 0 0 0))
    (uuid 10ecef3c-8ff9-4df8-a2c4-26296a29f654)
  )
  (wire (pts (xy 119.38 74.93) (xy 114.3 74.93))
    (stroke (width 0) (type default) (color 0 0 0 0))
    (uuid 1277c516-c789-497e-883d-652efdefd148)
  )
  (wire (pts (xy 109.855 69.85) (xy 113.665 69.85))
    (stroke (width 0) (type default) (color 0 0 0 0))
    (uuid 14e39e35-6466-4d59-bb21-55347de6aeed)
  )
  (wire (pts (xy 109.855 76.835) (xy 112.395 76.835))
    (stroke (width 0) (type default) (color 0 0 0 0))
    (uuid 1abdb62e-4839-4afa-9495-3ce6be730faa)
  )
  (polyline (pts (xy 232.41 99.695) (xy 232.41 34.925))
    (stroke (width 0) (type default) (color 0 0 0 0))
    (uuid 1eebf530-39e3-4593-86db-b17de407b9cd)
  )

  (wire (pts (xy 112.395 84.455) (xy 112.395 86.36))
    (stroke (width 0) (type default) (color 0 0 0 0))
    (uuid 2af6ef77-f023-4cd1-aa08-a9a8cde25a48)
  )
  (wire (pts (xy 197.485 55.245) (xy 197.485 90.805))
    (stroke (width 0) (type default) (color 0 0 0 0))
    (uuid 2eacf5c3-f210-47f2-b120-32eb8de07281)
  )
  (wire (pts (xy 86.995 74.93) (xy 89.535 74.93))
    (stroke (width 0) (type default) (color 0 0 0 0))
    (uuid 37dcdf18-7765-435f-b055-be7c9e793544)
  )
  (polyline (pts (xy 158.75 34.925) (xy 158.75 99.695))
    (stroke (width 0) (type default) (color 0 0 0 0))
    (uuid 39e6a5fb-26fc-4c75-9e0c-2a7de8dd9b71)
  )

  (wire (pts (xy 113.665 64.77) (xy 125.73 64.77))
    (stroke (width 0) (type default) (color 0 0 0 0))
    (uuid 3bc316bf-834a-4aa9-aa18-ea5833b198c5)
  )
  (wire (pts (xy 119.38 51.435) (xy 125.73 51.435))
    (stroke (width 0) (type default) (color 0 0 0 0))
    (uuid 41420c4b-3561-4d4f-bfdd-9afdc5dd5446)
  )
  (wire (pts (xy 109.855 67.31) (xy 119.38 67.31))
    (stroke (width 0) (type default) (color 0 0 0 0))
    (uuid 4457130d-b077-4388-b42c-c74af2d9dee4)
  )
  (wire (pts (xy 200.025 55.245) (xy 200.025 71.755))
    (stroke (width 0) (type default) (color 0 0 0 0))
    (uuid 46e0e910-6559-4c2a-8759-dc00f1436760)
  )
  (wire (pts (xy 177.165 70.485) (xy 177.165 71.755))
    (stroke (width 0) (type default) (color 0 0 0 0))
    (uuid 4aa14d74-bfc3-4566-989d-72417dbe0c76)
  )
  (wire (pts (xy 125.73 64.77) (xy 125.73 62.23))
    (stroke (width 0) (type default) (color 0 0 0 0))
    (uuid 4aedd176-fb7d-42d4-be0e-b60f9988cb15)
  )
  (polyline (pts (xy 158.75 34.925) (xy 158.75 41.275))
    (stroke (width 0) (type default) (color 0 0 0 0))
    (uuid 5146d526-67a4-40d4-a9c9-c99dfe7e83bb)
  )

  (wire (pts (xy 62.865 67.31) (xy 77.47 67.31))
    (stroke (width 0) (type default) (color 0 0 0 0))
    (uuid 541c7a5e-7e39-46b5-87aa-fe9031eb0066)
  )
  (wire (pts (xy 119.38 74.93) (xy 119.38 86.36))
    (stroke (width 0) (type default) (color 0 0 0 0))
    (uuid 5508ba22-4481-4596-b1bf-989c1270a24f)
  )
  (wire (pts (xy 193.675 90.805) (xy 197.485 90.805))
    (stroke (width 0) (type default) (color 0 0 0 0))
    (uuid 5e162f85-cd4a-4e5c-84ed-f01d03b7a18e)
  )
  (wire (pts (xy 207.645 90.805) (xy 220.345 90.805))
    (stroke (width 0) (type default) (color 0 0 0 0))
    (uuid 5ee805d1-f259-459b-a4ab-bbdea94e689f)
  )
  (wire (pts (xy 112.395 76.835) (xy 112.395 79.375))
    (stroke (width 0) (type default) (color 0 0 0 0))
    (uuid 617ce648-b5ad-43a2-be13-a3fcffdd0bb7)
  )
  (wire (pts (xy 114.3 74.93) (xy 114.3 72.39))
    (stroke (width 0) (type default) (color 0 0 0 0))
    (uuid 61e3c65c-dac2-40ff-8382-1da224fcd6f4)
  )
  (polyline (pts (xy 158.75 34.925) (xy 158.75 99.695))
    (stroke (width 0) (type default) (color 0 0 0 0))
    (uuid 69498899-0c03-4df8-8e40-03f3627ff08e)
  )

  (wire (pts (xy 109.855 74.93) (xy 109.855 76.835))
    (stroke (width 0) (type default) (color 0 0 0 0))
    (uuid 6a6b2d42-47a3-461a-87b8-703710432b5a)
  )
  (wire (pts (xy 119.38 67.31) (xy 119.38 69.215))
    (stroke (width 0) (type default) (color 0 0 0 0))
    (uuid 6c774f1a-3316-40f5-9622-f6d2d19dab1e)
  )
  (wire (pts (xy 77.47 51.435) (xy 77.47 53.975))
    (stroke (width 0) (type default) (color 0 0 0 0))
    (uuid 71d61a91-7379-4015-8ca8-948b5bb489bb)
  )
  (wire (pts (xy 119.38 51.435) (xy 119.38 67.31))
    (stroke (width 0) (type default) (color 0 0 0 0))
    (uuid 79bb3337-54f9-487d-95a7-be0f4203332e)
  )
  (wire (pts (xy 125.73 51.435) (xy 125.73 54.61))
    (stroke (width 0) (type default) (color 0 0 0 0))
    (uuid 8069125f-d5bb-47d7-961b-6835ea5278cb)
  )
  (wire (pts (xy 177.165 71.755) (xy 177.165 80.645))
    (stroke (width 0) (type default) (color 0 0 0 0))
    (uuid 80ba5be7-c14d-4909-82c4-bd79277fd7f1)
  )
  (wire (pts (xy 109.855 76.835) (xy 109.855 79.375))
    (stroke (width 0) (type default) (color 0 0 0 0))
    (uuid 8340c12c-9514-4e84-8481-eb1c96349347)
  )
  (polyline (pts (xy 232.41 34.925) (xy 158.75 34.925))
    (stroke (width 0) (type default) (color 0 0 0 0))
    (uuid 8462fffc-365e-4efa-892f-26879aa4662c)
  )

  (wire (pts (xy 52.07 51.435) (xy 57.15 51.435))
    (stroke (width 0) (type default) (color 0 0 0 0))
    (uuid 86039794-2fa2-4b75-b64a-35e4e1f77ae7)
  )
  (wire (pts (xy 125.73 64.77) (xy 133.35 64.77))
    (stroke (width 0) (type default) (color 0 0 0 0))
    (uuid 8e261032-1a7f-4968-b898-ccdbf879c1fa)
  )
  (polyline (pts (xy 158.75 99.695) (xy 232.41 99.695))
    (stroke (width 0) (type default) (color 0 0 0 0))
    (uuid 90cfee4d-e8b7-4ca2-a5f4-290528eca75d)
  )

  (wire (pts (xy 197.485 90.805) (xy 200.025 90.805))
    (stroke (width 0) (type default) (color 0 0 0 0))
    (uuid 929d1e5a-5ba6-4a48-b3ed-a9dfabf326a1)
  )
  (wire (pts (xy 77.47 61.595) (xy 77.47 67.31))
    (stroke (width 0) (type default) (color 0 0 0 0))
    (uuid 9769b17c-cb79-40a5-af8d-e050c9e070d9)
  )
  (wire (pts (xy 119.38 74.295) (xy 119.38 74.93))
    (stroke (width 0) (type default) (color 0 0 0 0))
    (uuid 99bfe350-6132-4f80-8b04-fc71c7a17c86)
  )
  (wire (pts (xy 194.945 55.245) (xy 194.945 71.755))
    (stroke (width 0) (type default) (color 0 0 0 0))
    (uuid 9ef14c80-dbab-4722-8e82-543d7ededc6e)
  )
  (wire (pts (xy 59.69 51.435) (xy 63.5 51.435))
    (stroke (width 0) (type default) (color 0 0 0 0))
    (uuid a130d430-b320-4c71-a7a8-8c580c8ad295)
  )
  (wire (pts (xy 186.055 90.805) (xy 177.165 90.805))
    (stroke (width 0) (type default) (color 0 0 0 0))
    (uuid a173b4df-cda4-421c-a092-a0d15d1fb8ee)
  )
  (polyline (pts (xy 35.56 100.33) (xy 35.56 99.695))
    (stroke (width 0) (type default) (color 0 0 0 0))
    (uuid a4b4bc1a-227f-4f95-b028-cfa81d4483c5)
  )

  (wire (pts (xy 177.165 83.185) (xy 177.165 90.805))
    (stroke (width 0) (type default) (color 0 0 0 0))
    (uuid a8388897-7737-4925-b3c2-1c16ad936691)
  )
  (wire (pts (xy 70.485 69.85) (xy 82.55 69.85))
    (stroke (width 0) (type default) (color 0 0 0 0))
    (uuid ab8794e5-89fd-4267-a701-90db10be90b8)
  )
  (wire (pts (xy 200.025 71.755) (xy 220.345 71.755))
    (stroke (width 0) (type default) (color 0 0 0 0))
    (uuid accfb4aa-c78f-414e-adb8-b4a8d24ba473)
  )
  (wire (pts (xy 113.665 69.85) (xy 113.665 64.77))
    (stroke (width 0) (type default) (color 0 0 0 0))
    (uuid acf7dab8-7b36-410c-adb3-b78ca2710f98)
  )
  (wire (pts (xy 109.855 72.39) (xy 114.3 72.39))
    (stroke (width 0) (type default) (color 0 0 0 0))
    (uuid c092962a-291f-4b2d-9daf-3fc67b56e59d)
  )
  (polyline (pts (xy 35.56 34.925) (xy 35.56 99.695))
    (stroke (width 0) (type default) (color 0 0 0 0))
    (uuid cc54d552-979d-45e5-8a37-77b089e91e3e)
  )

  (wire (pts (xy 89.535 67.31) (xy 77.47 67.31))
    (stroke (width 0) (type default) (color 0 0 0 0))
    (uuid d6c38bef-d9b8-4525-a3ea-f803c94ee8ae)
  )
  (wire (pts (xy 74.93 51.435) (xy 77.47 51.435))
    (stroke (width 0) (type default) (color 0 0 0 0))
    (uuid d7507e4c-ecad-445a-aee8-c5fb2b15c918)
  )
  (wire (pts (xy 177.165 71.755) (xy 194.945 71.755))
    (stroke (width 0) (type default) (color 0 0 0 0))
    (uuid e33c7ac3-24a2-4198-9295-f24fb82e2e6b)
  )
  (wire (pts (xy 82.55 61.595) (xy 82.55 69.85))
    (stroke (width 0) (type default) (color 0 0 0 0))
    (uuid e6012628-420b-4280-94d6-a376fe1c88cf)
  )
  (wire (pts (xy 82.55 51.435) (xy 82.55 53.975))
    (stroke (width 0) (type default) (color 0 0 0 0))
    (uuid e954a504-0a29-4afa-b096-55a5f7b6ef9e)
  )
  (wire (pts (xy 220.345 71.755) (xy 220.345 90.805))
    (stroke (width 0) (type default) (color 0 0 0 0))
    (uuid ef500b50-4df6-487d-b11d-ee75eefd5fee)
  )
  (polyline (pts (xy 35.56 34.925) (xy 158.75 34.925))
    (stroke (width 0) (type default) (color 0 0 0 0))
    (uuid f62364e9-06e8-4878-a9f6-c9fb562d98a1)
  )

  (wire (pts (xy 86.995 72.39) (xy 86.995 74.93))
    (stroke (width 0) (type default) (color 0 0 0 0))
    (uuid f941110a-957c-4222-9700-f2baed5cdc64)
  )
  (polyline (pts (xy 158.75 99.695) (xy 35.56 99.695))
    (stroke (width 0) (type default) (color 0 0 0 0))
    (uuid fabde7b1-fb51-45bf-a483-13dde01c43ca)
  )

  (wire (pts (xy 82.55 69.85) (xy 89.535 69.85))
    (stroke (width 0) (type default) (color 0 0 0 0))
    (uuid fb7f31c5-18f0-4868-845e-931602f099be)
  )

  (text "Analogue Sensor\n" (at 162.56 41.275 0)
    (effects (font (size 2 2) (thickness 0.4) bold) (justify left bottom))
    (uuid 9a5fd4ec-6e7a-49cc-a40e-d6c92b4c48b2)
  )
  (text "Digital Sensor" (at 39.37 41.275 0)
    (effects (font (size 2 2) (thickness 0.4) bold) (justify left bottom))
    (uuid f93a8932-086d-4e54-a842-97c62d23a939)
  )

  (label "3V3" (at 109.855 79.375 270)
    (effects (font (size 1.27 1.27)) (justify right bottom))
    (uuid 19e06224-9ee6-43a9-8619-29093cc619ca)
  )
  (label "3V3" (at 63.5 51.435 0)
    (effects (font (size 1.27 1.27)) (justify left bottom))
    (uuid 82a306ca-4d5a-4241-b6d8-52fdf038983f)
  )
  (label "3V3" (at 74.93 51.435 180)
    (effects (font (size 1.27 1.27)) (justify right bottom))
    (uuid ea2bfda7-ad53-4fad-a37f-5a6bb3db88b6)
  )

  (global_label "+3V3REG" (shape input) (at 52.07 51.435 180) (fields_autoplaced)
    (effects (font (size 1.27 1.27)) (justify right))
    (uuid bc3ff8ab-246e-4a6c-b2d2-f32e929923b9)
    (property "Intersheet References" "${INTERSHEET_REFS}" (id 0) (at 40.8879 51.5144 0)
      (effects (font (size 1.27 1.27)) (justify right) hide)
    )
  )

  (hierarchical_label "BAT_SENS_READ" (shape input) (at 197.485 78.105 0)
    (effects (font (size 1.27 1.27)) (justify left))
    (uuid 09e1c627-8d92-4230-ab37-582919869939)
  )
  (hierarchical_label "Sens_GPIO0" (shape input) (at 70.485 69.85 180)
    (effects (font (size 1.27 1.27)) (justify right))
    (uuid 51f2e551-c544-486d-96f1-4105b1066170)
  )
  (hierarchical_label "SDA" (shape input) (at 62.865 67.31 180)
    (effects (font (size 1.27 1.27)) (justify right))
    (uuid 764e682d-defc-4323-92e6-3fc896f8aff1)
  )
  (hierarchical_label "BAT_SENS+" (shape input) (at 177.165 70.485 90)
    (effects (font (size 1.27 1.27)) (justify left))
    (uuid 81f5211c-b130-4fa9-b31c-95b22363ec75)
  )
  (hierarchical_label "SCL" (shape input) (at 133.35 64.77 0)
    (effects (font (size 1.27 1.27)) (justify left))
    (uuid fdb8547e-3637-424a-8fa6-391d5a79f8ac)
  )

  (symbol (lib_id "Device:R_US") (at 189.865 90.805 90) (unit 1)
    (in_bom yes) (on_board yes) (fields_autoplaced)
    (uuid 143042c5-53a9-4bd4-9b5b-d98c90a60274)
    (property "Reference" "R16" (id 0) (at 189.865 84.455 90))
    (property "Value" "10K" (id 1) (at 189.865 86.995 90))
    (property "Footprint" "Resistor_SMD:R_1206_3216Metric" (id 2) (at 190.119 89.789 90)
      (effects (font (size 1.27 1.27)) hide)
    )
    (property "Datasheet" "~" (id 3) (at 189.865 90.805 0)
      (effects (font (size 1.27 1.27)) hide)
    )
    (property "LCSC" "C328409" (id 4) (at 189.865 90.805 0)
      (effects (font (size 1.27 1.27)) hide)
    )
    (property "Price" "0.0086" (id 5) (at 189.865 90.805 0)
      (effects (font (size 1.27 1.27)) hide)
    )
    (property "Sensor_Module" "1" (id 6) (at 189.865 90.805 0)
      (effects (font (size 1.27 1.27)) hide)
    )
    (property "Alt_LCSC" "" (id 7) (at 189.865 90.805 0)
      (effects (font (size 1.27 1.27)) hide)
    )
    (pin "1" (uuid 9c5df762-d61a-44d0-8936-1b12c2e9d4b3))
    (pin "2" (uuid 40c2c1cb-048c-4384-a834-6b03f03a56fa))
  )

  (symbol (lib_id "Device:R_US") (at 82.55 57.785 180) (unit 1)
    (in_bom yes) (on_board yes)
    (uuid 31c61803-b73f-4a77-8c6a-0adc05864be1)
    (property "Reference" "R2" (id 0) (at 87.63 59.055 0)
      (effects (font (size 1.27 1.27)) (justify right))
    )
    (property "Value" "4.7k" (id 1) (at 85.725 61.595 90)
      (effects (font (size 1.27 1.27)) (justify right))
    )
    (property "Footprint" "Resistor_SMD:R_0603_1608Metric" (id 2) (at 81.534 57.531 90)
      (effects (font (size 1.27 1.27)) hide)
    )
    (property "Datasheet" "~" (id 3) (at 82.55 57.785 0)
      (effects (font (size 1.27 1.27)) hide)
    )
    (property "LCSC" "C23162" (id 4) (at 82.55 57.785 0)
      (effects (font (size 1.27 1.27)) hide)
    )
    (property "Price" "0.0012" (id 5) (at 82.55 57.785 0)
      (effects (font (size 1.27 1.27)) hide)
    )
    (property "Sensor_Module" "1" (id 6) (at 82.55 57.785 0)
      (effects (font (size 1.27 1.27)) hide)
    )
    (pin "1" (uuid 34562de3-7ab5-4415-8360-8747fce5a304))
    (pin "2" (uuid 9ef3d5e7-bbb8-48ed-bb13-802c9bd9580d))
  )

  (symbol (lib_id "Connector:Conn_01x03_Male") (at 197.485 50.165 270) (unit 1)
    (in_bom yes) (on_board yes) (fields_autoplaced)
    (uuid 43a85754-fddd-45d2-8fc6-a1a743a8554f)
    (property "Reference" "J7" (id 0) (at 197.485 45.085 90))
    (property "Value" "Conn_01x03_Male" (id 1) (at 197.485 47.625 90))
    (property "Footprint" "Connector_PinHeader_2.54mm:PinHeader_1x03_P2.54mm_Vertical" (id 2) (at 197.485 50.165 0)
      (effects (font (size 1.27 1.27)) hide)
    )
    (property "Datasheet" "~" (id 3) (at 197.485 50.165 0)
      (effects (font (size 1.27 1.27)) hide)
    )
    (property "LCSC" "C49257" (id 4) (at 197.485 50.165 0)
      (effects (font (size 1.27 1.27)) hide)
    )
    (property "Price" "0.0142" (id 5) (at 197.485 50.165 0)
      (effects (font (size 1.27 1.27)) hide)
    )
    (property "Sensor_Module" "1" (id 6) (at 197.485 50.165 0)
      (effects (font (size 1.27 1.27)) hide)
    )
    (pin "1" (uuid 3ba22226-6cd0-460e-91e9-dd82a1f7b203))
    (pin "2" (uuid beedd35e-58d3-4600-a75b-f616c93366fa))
    (pin "3" (uuid e86b5366-bd41-4da2-9ec9-aa120d6b82b7))
  )

  (symbol (lib_id "power:GND") (at 112.395 86.36 0) (unit 1)
    (in_bom yes) (on_board yes) (fields_autoplaced)
    (uuid 6061bf4a-3db5-4587-a225-1c033182e011)
    (property "Reference" "#PWR010" (id 0) (at 112.395 92.71 0)
      (effects (font (size 1.27 1.27)) hide)
    )
    (property "Value" "GND" (id 1) (at 112.395 90.805 0))
    (property "Footprint" "" (id 2) (at 112.395 86.36 0)
      (effects (font (size 1.27 1.27)) hide)
    )
    (property "Datasheet" "" (id 3) (at 112.395 86.36 0)
      (effects (font (size 1.27 1.27)) hide)
    )
    (pin "1" (uuid 45c35e5e-f3ca-4609-81d2-c675bffa910c))
  )

  (symbol (lib_id "Device:R_US") (at 125.73 58.42 180) (unit 1)
    (in_bom yes) (on_board yes)
    (uuid 9638f451-d0c3-4d29-886b-95f685ff81ba)
    (property "Reference" "R5" (id 0) (at 130.81 59.69 0)
      (effects (font (size 1.27 1.27)) (justify right))
    )
    (property "Value" "4.7k" (id 1) (at 128.27 62.23 90)
      (effects (font (size 1.27 1.27)) (justify right))
    )
    (property "Footprint" "Resistor_SMD:R_0603_1608Metric" (id 2) (at 124.714 58.166 90)
      (effects (font (size 1.27 1.27)) hide)
    )
    (property "Datasheet" "~" (id 3) (at 125.73 58.42 0)
      (effects (font (size 1.27 1.27)) hide)
    )
    (property "LCSC" "C23162" (id 4) (at 125.73 58.42 0)
      (effects (font (size 1.27 1.27)) hide)
    )
    (property "Price" "0.0012" (id 5) (at 125.73 58.42 0)
      (effects (font (size 1.27 1.27)) hide)
    )
    (property "Sensor_Module" "1" (id 6) (at 125.73 58.42 0)
      (effects (font (size 1.27 1.27)) hide)
    )
    (pin "1" (uuid a8e63982-9500-4a38-a6b3-68675bf7d645))
    (pin "2" (uuid fff5b5b8-8be1-49c6-8174-efe8d2acfe5d))
  )

  (symbol (lib_id "Connector:Conn_01x02_Male") (at 172.085 80.645 0) (unit 1)
    (in_bom yes) (on_board yes) (fields_autoplaced)
    (uuid 9cc28e0c-395a-4bd3-833e-6b062dcebde6)
    (property "Reference" "J6" (id 0) (at 172.72 75.565 0))
    (property "Value" "Conn_01x02_Male" (id 1) (at 172.72 78.105 0))
    (property "Footprint" "Connector_PinHeader_2.54mm:PinHeader_1x02_P2.54mm_Vertical" (id 2) (at 172.085 80.645 0)
      (effects (font (size 1.27 1.27)) hide)
    )
    (property "Datasheet" "~" (id 3) (at 172.085 80.645 0)
      (effects (font (size 1.27 1.27)) hide)
    )
    (property "LCSC" "C492401" (id 4) (at 172.085 80.645 0)
      (effects (font (size 1.27 1.27)) hide)
    )
    (property "Price" "0.0111" (id 5) (at 172.085 80.645 0)
      (effects (font (size 1.27 1.27)) hide)
    )
    (property "Sensor_Module" "1" (id 6) (at 172.085 80.645 0)
      (effects (font (size 1.27 1.27)) hide)
    )
    (pin "1" (uuid 23d8cdfd-9341-4d69-a187-6edb0e6d2395))
    (pin "2" (uuid f9964e79-7d5e-4075-b9a0-e8b603de3ab5))
  )

  (symbol (lib_id "Device:C_Small") (at 112.395 81.915 180) (unit 1)
    (in_bom yes) (on_board yes)
    (uuid a6e58e0a-d455-4dbd-a22b-c99e6a737716)
    (property "Reference" "C3" (id 0) (at 116.84 81.915 90))
    (property "Value" "1uF" (id 1) (at 114.935 81.915 90))
    (property "Footprint" "Capacitor_SMD:C_0805_2012Metric" (id 2) (at 112.395 81.915 0)
      (effects (font (size 1.27 1.27)) hide)
    )
    (property "Datasheet" "~" (id 3) (at 112.395 81.915 0)
      (effects (font (size 1.27 1.27)) hide)
    )
    (property "LCSC" "C28323" (id 4) (at 112.395 81.915 0)
      (effects (font (size 1.27 1.27)) hide)
    )
    (property "Price" "0.0096" (id 5) (at 112.395 81.915 0)
      (effects (font (size 1.27 1.27)) hide)
    )
    (property "Sensor_Module" "1" (id 6) (at 112.395 81.915 0)
      (effects (font (size 1.27 1.27)) hide)
    )
    (pin "1" (uuid 28f1aac0-3782-4f4f-b92f-c495cfed718b))
    (pin "2" (uuid fe8f841a-4e64-490c-9af0-ded6e99d3e8c))
  )

  (symbol (lib_id "Device:C_Small") (at 119.38 71.755 180) (unit 1)
    (in_bom yes) (on_board yes)
    (uuid d604692c-2608-4f21-ba4e-bed7b6c6704f)
    (property "Reference" "C10" (id 0) (at 123.825 71.755 90))
    (property "Value" "1uF" (id 1) (at 121.92 71.755 90))
    (property "Footprint" "Capacitor_SMD:C_0805_2012Metric" (id 2) (at 119.38 71.755 0)
      (effects (font (size 1.27 1.27)) hide)
    )
    (property "Datasheet" "~" (id 3) (at 119.38 71.755 0)
      (effects (font (size 1.27 1.27)) hide)
    )
    (property "LCSC" "C28323" (id 4) (at 119.38 71.755 0)
      (effects (font (size 1.27 1.27)) hide)
    )
    (property "Price" "0.0096" (id 5) (at 119.38 71.755 0)
      (effects (font (size 1.27 1.27)) hide)
    )
    (property "Sensor_Module" "1" (id 6) (at 119.38 71.755 0)
      (effects (font (size 1.27 1.27)) hide)
    )
    (pin "1" (uuid f60828df-a594-46cd-b6fa-a6f7c7f780cc))
    (pin "2" (uuid 53cee888-d3e3-4eb2-94ea-0265cbb211bf))
  )

  (symbol (lib_id "PCB_Library_From_Template:LTR-553ALS-01") (at 99.695 71.12 0) (unit 1)
    (in_bom yes) (on_board yes) (fields_autoplaced)
    (uuid ee1e5647-00c4-4e09-b39a-98c416fea369)
    (property "Reference" "U3" (id 0) (at 99.695 60.96 0))
    (property "Value" "LTR-553ALS-01" (id 1) (at 99.695 63.5 0))
    (property "Footprint" "Project_Library:LTR-553ALS-01" (id 2) (at 99.695 71.12 0)
      (effects (font (size 1.27 1.27)) hide)
    )
    (property "Datasheet" "" (id 3) (at 99.695 71.12 0)
      (effects (font (size 1.27 1.27)) hide)
    )
    (property "LCSC" "C492375" (id 4) (at 99.695 71.12 0)
      (effects (font (size 1.27 1.27)) hide)
    )
    (property "Price" "0.3374" (id 5) (at 99.695 71.12 0)
      (effects (font (size 1.27 1.27)) hide)
    )
    (pin "1" (uuid 6b21f1b6-2180-4060-89a8-e2eaa0ef1dab))
    (pin "2" (uuid e5c30b4f-5724-4ded-837a-f05fbca60645))
    (pin "3" (uuid 8f1634e6-e16a-41af-8528-81b6b9c21d39))
    (pin "4" (uuid a826d4f1-aa41-4d34-8070-125b5f8ee214))
    (pin "5" (uuid 85784899-6875-4559-9771-267a73ca4ab3))
    (pin "6" (uuid 882ea305-cc45-466a-9378-45336f1576b5))
    (pin "7" (uuid 10243549-b663-4ffe-9284-f0318759fa4d))
    (pin "8" (uuid 112db88a-e813-4d96-80ac-f677ec798823))
  )

  (symbol (lib_id "Device:R_US") (at 203.835 90.805 90) (unit 1)
    (in_bom yes) (on_board yes) (fields_autoplaced)
    (uuid f2f6db0f-9c7a-4819-98df-49faae9b7464)
    (property "Reference" "R17" (id 0) (at 203.835 84.455 90))
    (property "Value" "10K" (id 1) (at 203.835 86.995 90))
    (property "Footprint" "Resistor_SMD:R_1206_3216Metric" (id 2) (at 204.089 89.789 90)
      (effects (font (size 1.27 1.27)) hide)
    )
    (property "Datasheet" "~" (id 3) (at 203.835 90.805 0)
      (effects (font (size 1.27 1.27)) hide)
    )
    (property "LCSC" "C328409" (id 4) (at 203.835 90.805 0)
      (effects (font (size 1.27 1.27)) hide)
    )
    (property "Price" "0.0086" (id 5) (at 203.835 90.805 0)
      (effects (font (size 1.27 1.27)) hide)
    )
    (property "Sensor_Module" "1" (id 6) (at 203.835 90.805 0)
      (effects (font (size 1.27 1.27)) hide)
    )
    (property "Alt_LCSC" "" (id 7) (at 203.835 90.805 0)
      (effects (font (size 1.27 1.27)) hide)
    )
    (pin "1" (uuid 5ae553b5-caa4-4706-804c-2b4a63b62d0f))
    (pin "2" (uuid 5fe77581-e082-411e-b0a9-d3ca1deb21c8))
  )

  (symbol (lib_id "Device:R_US") (at 77.47 57.785 180) (unit 1)
    (in_bom yes) (on_board yes)
    (uuid fe30bf8b-c059-4590-aa72-f95858fc6e38)
    (property "Reference" "R11" (id 0) (at 72.39 57.785 0)
      (effects (font (size 1.27 1.27)) (justify right))
    )
    (property "Value" "4.7k" (id 1) (at 80.01 61.595 90)
      (effects (font (size 1.27 1.27)) (justify right))
    )
    (property "Footprint" "Resistor_SMD:R_0603_1608Metric" (id 2) (at 76.454 57.531 90)
      (effects (font (size 1.27 1.27)) hide)
    )
    (property "Datasheet" "~" (id 3) (at 77.47 57.785 0)
      (effects (font (size 1.27 1.27)) hide)
    )
    (property "LCSC" "C23162" (id 4) (at 77.47 57.785 0)
      (effects (font (size 1.27 1.27)) hide)
    )
    (property "Price" "0.0012" (id 5) (at 77.47 57.785 0)
      (effects (font (size 1.27 1.27)) hide)
    )
    (property "Sensor_Module" "1" (id 6) (at 77.47 57.785 0)
      (effects (font (size 1.27 1.27)) hide)
    )
    (pin "1" (uuid fa15d85a-f244-43ef-b677-76b2f4046c31))
    (pin "2" (uuid 63316c14-58f1-40a5-94f2-3d270c2c54b0))
  )

  (symbol (lib_id "power:GND") (at 119.38 86.36 0) (unit 1)
    (in_bom yes) (on_board yes) (fields_autoplaced)
    (uuid fec3a4d6-61d2-4e55-989b-1905eea39f61)
    (property "Reference" "#PWR014" (id 0) (at 119.38 92.71 0)
      (effects (font (size 1.27 1.27)) hide)
    )
    (property "Value" "GND" (id 1) (at 119.38 90.805 0))
    (property "Footprint" "" (id 2) (at 119.38 86.36 0)
      (effects (font (size 1.27 1.27)) hide)
    )
    (property "Datasheet" "" (id 3) (at 119.38 86.36 0)
      (effects (font (size 1.27 1.27)) hide)
    )
    (pin "1" (uuid 76a8f73b-17fb-4036-b32b-eaf5c8b8eafb))
  )

  (symbol (lib_id "Connector:Conn_01x02_Male") (at 59.69 46.355 270) (unit 1)
    (in_bom yes) (on_board yes)
    (uuid fede123d-4371-4eaf-93d0-d8aea69f52a2)
    (property "Reference" "J5" (id 0) (at 54.61 45.72 90)
      (effects (font (size 1.27 1.27)) (justify left))
    )
    (property "Value" "Conn_01x02_Male" (id 1) (at 46.355 43.815 90)
      (effects (font (size 1.27 1.27)) (justify left))
    )
    (property "Footprint" "Connector_PinHeader_2.54mm:PinHeader_1x02_P2.54mm_Vertical" (id 2) (at 59.69 46.355 0)
      (effects (font (size 1.27 1.27)) hide)
    )
    (property "Datasheet" "~" (id 3) (at 59.69 46.355 0)
      (effects (font (size 1.27 1.27)) hide)
    )
    (property "LCSC" "C492401" (id 4) (at 59.69 46.355 0)
      (effects (font (size 1.27 1.27)) hide)
    )
    (property "Price" "0.0111" (id 5) (at 59.69 46.355 0)
      (effects (font (size 1.27 1.27)) hide)
    )
    (property "Sensor_Module" "1" (id 6) (at 59.69 46.355 0)
      (effects (font (size 1.27 1.27)) hide)
    )
    (pin "1" (uuid e32e8410-bea1-4949-857b-95fcaba252f9))
    (pin "2" (uuid 6433cb89-faa6-4184-9420-e8c4f39b419b))
  )

  (sheet_instances
    (path "/" (page "1"))
  )

  (symbol_instances
    (path "/fce420f3-a4b9-4945-b9e8-d31f9a1897ef"
      (reference "#PWR01") (unit 1) (value "GND") (footprint "")
    )
    (path "/a9167132-c87f-4139-b8ff-9c8324f8a40c"
      (reference "#PWR03") (unit 1) (value "GND") (footprint "")
    )
    (path "/ad33eaa2-110d-44d0-9334-e2d94fcaa9db"
      (reference "C1") (unit 1) (value "100nF") (footprint "Project_Library:C14663 [Cap 100nF]")
    )
    (path "/d604692c-2608-4f21-ba4e-bed7b6c6704f"
      (reference "C2") (unit 1) (value "4.7nF") (footprint "Project_Library:C15849 [Cap 4.7nF 0603]")
    )
    (path "/9ca2b307-c4e9-4dd5-81b1-90bd42147710"
      (reference "D1") (unit 1) (value "D_Zener") (footprint "Project_Library:2.5V~2.9V Zener SOD-123_L2.8-W1.8-LS3.7-RD")
    )
    (path "/a2eaf37a-f8c3-47ad-9303-e05ccaedf4e6"
      (reference "J1") (unit 1) (value "Conn_01x02_Male") (footprint "Project_Library:Conn_01x02_Male_Pro")
    )
    (path "/43a85754-fddd-45d2-8fc6-a1a743a8554f"
      (reference "J2") (unit 1) (value "Conn_01x03_Male") (footprint "Project_Library:Conn_01x02_Male")
    )
    (path "/9cc28e0c-395a-4bd3-833e-6b062dcebde6"
      (reference "J?") (unit 1) (value "Conn_01x02_Male") (footprint "Project_Library:Conn_01x02_Male_Pro")
    )
    (path "/bbd2bc8e-71ea-454b-9c5c-ddabf7a3a369"
      (reference "R1") (unit 1) (value "10k") (footprint "Project_Library:10k [res 1206]")
    )
    (path "/8a9a48b5-0167-4c5e-87f8-7f8bcf169e1c"
      (reference "R2") (unit 1) (value "47 KΩ") (footprint "Project_Library:47k [0402]")
    )
    (path "/fe30bf8b-c059-4590-aa72-f95858fc6e38"
      (reference "R3") (unit 1) (value "47 KΩ") (footprint "Project_Library:47k [0402]")
    )
    (path "/143042c5-53a9-4bd4-9b5b-d98c90a60274"
      (reference "R4") (unit 1) (value "10K") (footprint "Project_Library:10k [res 1206]")
    )
    (path "/f2f6db0f-9c7a-4819-98df-49faae9b7464"
      (reference "R5") (unit 1) (value "10K") (footprint "Project_Library:10k [res 1206]")
    )
    (path "/2e6783f6-ba51-414c-a4d4-80a0d6b5ee58"
      (reference "U1") (unit 1) (value "VL6180V1NR/1") (footprint "STM_Footprints:LGA-12_L4.8-W2.8-P0.75-BL")
    )
  )
)
