../Core/Src/main.c:86:6:debugPrintln	24	static
../Core/Src/main.c:98:5:main	16	static
../Core/Src/main.c:214:6:SystemClock_Config	104	static
../Core/Src/main.c:261:13:MX_I2C1_Init	8	static
../Core/Src/main.c:309:13:MX_I2C2_Init	8	static
../Core/Src/main.c:357:13:MX_USART1_UART_Init	8	static
../Core/Src/main.c:392:13:MX_GPIO_Init	48	static
../Core/Src/main.c:426:6:EEPROM_write	40	static
../Core/Src/main.c:439:6:EEPROM_read	40	static
../Core/Src/main.c:459:6:init_LTR	16	static
../Core/Src/main.c:517:6:LTR_write_register	40	static
../Core/Src/main.c:532:6:read_LTR_ALS	48	static
../Core/Src/main.c:600:6:Error_Handler	8	static,ignoring_inline_asm
