(kicad_pcb (version 20211014) (generator pcbnew)

  (general
    (thickness 1.6)
  )

  (paper "A4")
  (layers
    (0 "F.Cu" signal)
    (31 "B.Cu" signal)
    (32 "B.Adhes" user "B.Adhesive")
    (33 "F.Adhes" user "F.Adhesive")
    (34 "B.Paste" user)
    (35 "F.Paste" user)
    (36 "B.SilkS" user "B.Silkscreen")
    (37 "F.SilkS" user "F.Silkscreen")
    (38 "B.Mask" user)
    (39 "F.Mask" user)
    (40 "Dwgs.User" user "User.Drawings")
    (41 "Cmts.User" user "User.Comments")
    (42 "Eco1.User" user "User.Eco1")
    (43 "Eco2.User" user "User.Eco2")
    (44 "Edge.Cuts" user)
    (45 "Margin" user)
    (46 "B.CrtYd" user "B.Courtyard")
    (47 "F.CrtYd" user "F.Courtyard")
    (48 "B.Fab" user)
    (49 "F.Fab" user)
  )

  (setup
    (pad_to_mask_clearance 0)
    (pcbplotparams
      (layerselection 0x00010fc_ffffffff)
      (disableapertmacros false)
      (usegerberextensions false)
      (usegerberattributes true)
      (usegerberadvancedattributes true)
      (creategerberjobfile true)
      (svguseinch false)
      (svgprecision 6)
      (excludeedgelayer true)
      (plotframeref false)
      (viasonmask false)
      (mode 1)
      (useauxorigin false)
      (hpglpennumber 1)
      (hpglpenspeed 20)
      (hpglpendiameter 15.000000)
      (dxfpolygonmode true)
      (dxfimperialunits true)
      (dxfusepcbnewfont true)
      (psnegative false)
      (psa4output false)
      (plotreference true)
      (plotvalue true)
      (plotinvisibletext false)
      (sketchpadsonfab false)
      (subtractmaskfromsilk false)
      (outputformat 1)
      (mirror false)
      (drillshape 1)
      (scaleselection 1)
      (outputdirectory "")
    )
  )

  (net 0 "")

  (footprint "easyeda:MICRO-USB-SMD_MICROXNJ" (layer "F.Cu")
    (tedit 0) (tstamp 909b030b-fa1a-4fe8-b1ee-422b4d9e23cf)
    (at 12.7 12.7)
    (attr smd)
    (fp_text reference "USB1" (at -0.006 -2.751) (layer "F.SilkS")
      (effects (font (size 1.143 1.143) (thickness 0.152)) (justify left))
      (tstamp db83d0af-e085-4050-8496-fa2ebdecbd62)
    )
    (fp_text value "MICRO-USB-SMD_MICROXNJ" (at -0.006 -4.529) (layer "F.Fab") hide
      (effects (font (size 1.143 1.143) (thickness 0.152)) (justify left))
      (tstamp 0c30a4be-5679-499f-8c5b-5f3024f9d6cf)
    )
    (fp_text user "gge301" (at 0 0) (layer "Cmts.User")
      (effects (font (size 1 1) (thickness 0.15)))
      (tstamp 9762c9ed-64d8-4f3e-baf6-f6ba6effc919)
    )
    (fp_circle (center 2.425 -1.149) (end 2.75 -1.149) (layer "F.Paste") (width 0.65) (fill none) (tstamp 3cfcbcc7-4f45-46ab-82a8-c414c7972161))
    (fp_circle (center -2.425 -1.149) (end -2.1 -1.149) (layer "F.Paste") (width 0.65) (fill none) (tstamp a501555e-bbc7-4b58-ad89-28a0cd3dd6d0))
    (fp_poly (pts
        (xy 1.5 -2.221)
        (xy 1.1 -2.221)
        (xy 1.1 -1.021)
        (xy 1.1 -0.821)
        (xy 1.5 -0.821)
        (xy 1.5 -1.058)
      ) (layer "F.Paste") (width 0) (fill solid) (tstamp 2f3deced-880d-4075-a81b-95c62da5b94d))
    (fp_poly (pts
        (xy 0.85 -2.221)
        (xy 0.45 -2.221)
        (xy 0.45 -1.021)
        (xy 0.45 -0.821)
        (xy 0.85 -0.821)
        (xy 0.85 -1.058)
      ) (layer "F.Paste") (width 0) (fill solid) (tstamp 4d609e7c-74c9-4ae9-a26d-946ff00c167d))
    (fp_poly (pts
        (xy 0.2 -2.221)
        (xy -0.2 -2.221)
        (xy -0.2 -1.021)
        (xy -0.2 -0.821)
        (xy 0.2 -0.821)
        (xy 0.2 -1.058)
      ) (layer "F.Paste") (width 0) (fill solid) (tstamp 786b6072-5772-4bc1-8eeb-6c4e19f2a91b))
    (fp_poly (pts
        (xy -0.45 -2.221)
        (xy -0.85 -2.221)
        (xy -0.85 -1.021)
        (xy -0.85 -0.821)
        (xy -0.45 -0.821)
        (xy -0.45 -1.058)
      ) (layer "F.Paste") (width 0) (fill solid) (tstamp 9a9f2d82-f64d-4264-8bec-c182528fc4de))
    (fp_poly (pts
        (xy -1.1 -2.221)
        (xy -1.5 -2.221)
        (xy -1.5 -1.021)
        (xy -1.5 -0.821)
        (xy -1.1 -0.821)
        (xy -1.1 -1.058)
      ) (layer "F.Paste") (width 0) (fill solid) (tstamp b60c50d1-225e-415c-8712-7acb5e3dc8ea))
    (fp_line (start -4 2.756) (end -4 4.239) (layer "F.SilkS") (width 0.254) (tstamp 0d35483a-0b12-46cc-b9f2-896fd6831779))
    (fp_line (start 4 2.756) (end 4 4.259) (layer "F.SilkS") (width 0.254) (tstamp 4412226e-d975-40a2-921f-502ff4129a95))
    (fp_line (start 4 -1.491) (end 4 0.287) (layer "F.SilkS") (width 0.254) (tstamp 4e66a44f-7fa6-4e16-bf9b-62ec864301a5))
    (fp_line (start -3.97 4.139) (end -3.38 3.549) (layer "F.SilkS") (width 0.254) (tstamp 55992e35-fe7b-468a-9b7a-1e4dc931b904))
    (fp_line (start 3.98 4.259) (end 3.98 4.139) (layer "F.SilkS") (width 0.254) (tstamp 5740c959-93d8-47fd-8f68-62f0109e753d))
    (fp_line (start 4 4.259) (end -4 4.259) (layer "F.SilkS") (width 0.254) (tstamp 7e08f2a4-63d6-468b-bd8b-ec607077e023))
    (fp_line (start -4 -1.491) (end -4 0.287) (layer "F.SilkS") (width 0.254) (tstamp 9702d639-3b1f-4825-8985-b32b9008503d))
    (fp_line (start 4 -1.491) (end 3.344 -1.491) (layer "F.SilkS") (width 0.254) (tstamp a06e8e78-f567-42e6-b645-013b1073ca31))
    (fp_line (start 3.39 3.549) (end -3.38 3.549) (layer "F.SilkS") (width 0.254) (tstamp b6bcc3cf-50de-4a33-bc41-678825c1ecf2))
    (fp_line (start 3.98 4.139) (end 3.39 3.549) (layer "F.SilkS") (width 0.254) (tstamp c3c93de0-69b1-4a04-8e0b-d78caf487c63))
    (fp_line (start -3.344 -1.491) (end -4 -1.491) (layer "F.SilkS") (width 0.254) (tstamp ec9e24d8-d1c5-40e2-9812-dc315d05f470))
    (fp_line (start -3.97 4.239) (end -3.97 4.139) (layer "F.SilkS") (width 0.254) (tstamp f9865a9f-edb8-49c7-828f-4896e1f3047a))
    (fp_circle (center -1.53 -1.554) (end -1.43 -1.554) (layer "Cmts.User") (width 0.2) (fill none) (tstamp 7447a6e7-8205-46ba-afca-d0fa8f90c95a))
    (pad "1" smd rect locked (at -1.3 -1.521 270) (size 1.4 0.4) (layers "F.Cu" "F.Paste" "F.Mask") (tstamp c264c438-a475-4ad4-9915-0f1e6ecf3053))
    (pad "2" smd rect locked (at -0.65 -1.521 270) (size 1.4 0.4) (layers "F.Cu" "F.Paste" "F.Mask") (tstamp a9ec539a-d80d-40cc-803c-12b6adefe42a))
    (pad "3" smd rect locked (at 0 -1.521 270) (size 1.4 0.4) (layers "F.Cu" "F.Paste" "F.Mask") (tstamp ef1b4b98-541b-4673-a04f-2043250fc40a))
    (pad "4" smd rect locked (at 0.65 -1.521 270) (size 1.4 0.4) (layers "F.Cu" "F.Paste" "F.Mask") (tstamp 34871042-9d5c-4e29-abdd-a168368c3c22))
    (pad "5" smd rect locked (at 1.3 -1.521 270) (size 1.4 0.4) (layers "F.Cu" "F.Paste" "F.Mask") (tstamp 53c85970-3e21-4fae-a84f-721cfc0513b5))
    (pad "6" thru_hole circle locked (at 2.425 -1.149) (size 1.3 1.3) (drill 0.7) (layers *.Cu *.Paste *.Mask) (tstamp 4d4b0fcd-2c79-4fc3-b5fa-7a0741601344))
    (pad "7" thru_hole oval locked (at 3.6 1.521) (size 1.3 2.2) (drill oval 0.7 1.5) (layers *.Cu *.Paste *.Mask) (tstamp 2bf3f24b-fd30-41a7-a274-9b519491916b))
    (pad "8" thru_hole oval locked (at -3.6 1.521) (size 1.3 2.2) (drill oval 0.7 1.5) (layers *.Cu *.Paste *.Mask) (tstamp 4831966c-bb32-4bc8-a400-0382a02ffa1c))
    (pad "9" thru_hole circle locked (at -2.425 -1.149) (size 1.3 1.3) (drill 0.7) (layers *.Cu *.Paste *.Mask) (tstamp e25ce415-914a-48fe-bf09-324317917b2e))
  )

)
