%TF.GenerationSoftware,KiCad,Pcbnew,(6.0.2)*%
%TF.CreationDate,2022-03-20T16:00:40+02:00*%
%TF.ProjectId,main,6d61696e-2e6b-4696-9361-645f70636258,rev?*%
%TF.SameCoordinates,Original*%
%TF.FileFunction,Soldermask,Bot*%
%TF.FilePolarity,Negative*%
%FSLAX46Y46*%
G04 Gerber Fmt 4.6, Leading zero omitted, Abs format (unit mm)*
G04 Created by KiCad (PCBNEW (6.0.2)) date 2022-03-20 16:00:40*
%MOMM*%
%LPD*%
G01*
G04 APERTURE LIST*
%ADD10C,1.300000*%
%ADD11O,2.200000X1.300000*%
%ADD12R,2.000000X2.000000*%
%ADD13C,2.000000*%
%ADD14R,1.800000X1.575000*%
%ADD15C,1.800000*%
%ADD16R,1.700000X1.700000*%
%ADD17O,1.700000X1.700000*%
%ADD18C,3.450000*%
%ADD19C,2.390000*%
%ADD20R,2.500000X2.500000*%
%ADD21O,2.500000X2.500000*%
%ADD22R,0.864000X0.806000*%
%ADD23R,0.806000X0.864000*%
%ADD24R,1.701000X1.208000*%
%ADD25R,2.200000X2.200000*%
%ADD26O,2.200000X2.200000*%
%ADD27R,0.950000X1.150000*%
%ADD28R,1.133000X1.377000*%
%ADD29R,0.880000X0.960000*%
%ADD30O,2.045000X0.588000*%
%ADD31R,1.016000X0.254000*%
%ADD32R,0.800000X0.900000*%
%ADD33R,1.208000X1.701000*%
%ADD34R,1.600000X1.600000*%
%ADD35O,1.600000X1.600000*%
%ADD36R,1.500000X1.050000*%
%ADD37O,1.500000X1.050000*%
%ADD38C,1.524000*%
G04 APERTURE END LIST*
D10*
%TO.C,U4*%
X184966500Y-101969000D03*
D11*
X187636500Y-100794000D03*
X187636500Y-107994000D03*
D10*
X184966500Y-106819000D03*
%TD*%
D12*
%TO.C,J5*%
X102997000Y-52197000D03*
D13*
X105537000Y-52197000D03*
%TD*%
D14*
%TO.C,J7*%
X152400000Y-93980000D03*
D15*
X152400000Y-91440000D03*
X152400000Y-88900000D03*
%TD*%
D16*
%TO.C,J2*%
X180086000Y-84074000D03*
D17*
X177546000Y-84074000D03*
X175006000Y-84074000D03*
X172466000Y-84074000D03*
X169926000Y-84074000D03*
X167386000Y-84074000D03*
X164846000Y-84074000D03*
X162306000Y-84074000D03*
X159766000Y-84074000D03*
X157226000Y-84074000D03*
X154686000Y-84074000D03*
X152146000Y-84074000D03*
X149606000Y-84074000D03*
X147066000Y-84074000D03*
X144526000Y-84074000D03*
X141986000Y-84074000D03*
X139446000Y-84074000D03*
X136906000Y-84074000D03*
X134366000Y-84074000D03*
X131826000Y-84074000D03*
X129286000Y-84074000D03*
X126746000Y-84074000D03*
X124206000Y-84074000D03*
X121666000Y-84074000D03*
X119126000Y-84074000D03*
X116586000Y-84074000D03*
X114046000Y-84074000D03*
X111506000Y-84074000D03*
X108966000Y-84074000D03*
X106426000Y-84074000D03*
X103886000Y-84074000D03*
X101346000Y-84074000D03*
X98806000Y-84074000D03*
%TD*%
D16*
%TO.C,J1*%
X180086000Y-73914000D03*
D17*
X177546000Y-73914000D03*
X175006000Y-73914000D03*
X172466000Y-73914000D03*
X169926000Y-73914000D03*
X167386000Y-73914000D03*
X164846000Y-73914000D03*
X162306000Y-73914000D03*
X159766000Y-73914000D03*
X157226000Y-73914000D03*
X154686000Y-73914000D03*
X152146000Y-73914000D03*
X149606000Y-73914000D03*
X147066000Y-73914000D03*
X144526000Y-73914000D03*
X141986000Y-73914000D03*
X139446000Y-73914000D03*
X136906000Y-73914000D03*
X134366000Y-73914000D03*
X131826000Y-73914000D03*
X129286000Y-73914000D03*
X126746000Y-73914000D03*
X124206000Y-73914000D03*
X121666000Y-73914000D03*
X119126000Y-73914000D03*
X116586000Y-73914000D03*
X114046000Y-73914000D03*
X111506000Y-73914000D03*
X108966000Y-73914000D03*
X106426000Y-73914000D03*
X103886000Y-73914000D03*
X101346000Y-73914000D03*
X98806000Y-73914000D03*
%TD*%
D18*
%TO.C,BT1*%
X173904000Y-50928000D03*
X118704000Y-66928000D03*
D19*
X182234000Y-66928000D03*
%TD*%
D17*
%TO.C,J4*%
X98806000Y-134874000D03*
X101346000Y-134874000D03*
X103886000Y-134874000D03*
X106426000Y-134874000D03*
X108966000Y-134874000D03*
X111506000Y-134874000D03*
X114046000Y-134874000D03*
X116586000Y-134874000D03*
X119126000Y-134874000D03*
X121666000Y-134874000D03*
X124206000Y-134874000D03*
X126746000Y-134874000D03*
X129286000Y-134874000D03*
X131826000Y-134874000D03*
X134366000Y-134874000D03*
X136906000Y-134874000D03*
X139446000Y-134874000D03*
X141986000Y-134874000D03*
X144526000Y-134874000D03*
X147066000Y-134874000D03*
X149606000Y-134874000D03*
X152146000Y-134874000D03*
X154686000Y-134874000D03*
X157226000Y-134874000D03*
X159766000Y-134874000D03*
X162306000Y-134874000D03*
X164846000Y-134874000D03*
X167386000Y-134874000D03*
X169926000Y-134874000D03*
X172466000Y-134874000D03*
X175006000Y-134874000D03*
X177546000Y-134874000D03*
D16*
X180086000Y-134874000D03*
%TD*%
%TO.C,J3*%
X180086000Y-124714000D03*
D17*
X177546000Y-124714000D03*
X175006000Y-124714000D03*
X172466000Y-124714000D03*
X169926000Y-124714000D03*
X167386000Y-124714000D03*
X164846000Y-124714000D03*
X162306000Y-124714000D03*
X159766000Y-124714000D03*
X157226000Y-124714000D03*
X154686000Y-124714000D03*
X152146000Y-124714000D03*
X149606000Y-124714000D03*
X147066000Y-124714000D03*
X144526000Y-124714000D03*
X141986000Y-124714000D03*
X139446000Y-124714000D03*
X136906000Y-124714000D03*
X134366000Y-124714000D03*
X131826000Y-124714000D03*
X129286000Y-124714000D03*
X126746000Y-124714000D03*
X124206000Y-124714000D03*
X121666000Y-124714000D03*
X119126000Y-124714000D03*
X116586000Y-124714000D03*
X114046000Y-124714000D03*
X111506000Y-124714000D03*
X108966000Y-124714000D03*
X106426000Y-124714000D03*
X103886000Y-124714000D03*
X101346000Y-124714000D03*
X98806000Y-124714000D03*
%TD*%
D20*
%TO.C,K1*%
X98050500Y-105054500D03*
D21*
X119050500Y-105054500D03*
X115550500Y-112554500D03*
X98050500Y-112554500D03*
%TD*%
D22*
%TO.C,R4*%
X125730000Y-118872000D03*
X125730000Y-117366000D03*
%TD*%
D23*
%TO.C,R2*%
X135119000Y-96520000D03*
X133613000Y-96520000D03*
%TD*%
D24*
%TO.C,R1*%
X175260000Y-87675000D03*
X175260000Y-90633000D03*
%TD*%
D13*
%TO.C,TP2*%
X187960000Y-121920000D03*
%TD*%
D25*
%TO.C,D5*%
X121920000Y-116332000D03*
D26*
X111760000Y-116332000D03*
%TD*%
D27*
%TO.C,D6*%
X104607000Y-58547000D03*
X107991000Y-58547000D03*
%TD*%
D28*
%TO.C,R3*%
X142290000Y-98552000D03*
X144222000Y-98552000D03*
%TD*%
D25*
%TO.C,D3*%
X124714000Y-108204000D03*
D26*
X134874000Y-108204000D03*
%TD*%
D12*
%TO.C,J14*%
X144018000Y-115316000D03*
D13*
X141478000Y-115316000D03*
%TD*%
D29*
%TO.C,D4*%
X130470000Y-113030000D03*
X133690000Y-113030000D03*
%TD*%
D30*
%TO.C,U2*%
X128800000Y-119507000D03*
X128800000Y-118237000D03*
X128800000Y-116967000D03*
X128800000Y-115697000D03*
X134344000Y-115697000D03*
X134344000Y-116967000D03*
X134344000Y-118237000D03*
X134344000Y-119507000D03*
%TD*%
%TO.C,U6*%
X173460000Y-115951000D03*
X173460000Y-117221000D03*
X173460000Y-118491000D03*
X173460000Y-119761000D03*
X167916000Y-119761000D03*
X167916000Y-118491000D03*
X167916000Y-117221000D03*
X167916000Y-115951000D03*
%TD*%
D31*
%TO.C,U3*%
X106095800Y-61870350D03*
X106095800Y-62620351D03*
X106095800Y-63370349D03*
X106095800Y-64120351D03*
X106095800Y-64870349D03*
X106095800Y-65620350D03*
X103606600Y-65620350D03*
X103606600Y-64870349D03*
X103606600Y-64120351D03*
X103606600Y-63370349D03*
X103606600Y-62620351D03*
X103606600Y-61870350D03*
%TD*%
D12*
%TO.C,J6*%
X155829000Y-88900000D03*
D13*
X155829000Y-91440000D03*
%TD*%
D32*
%TO.C,C3*%
X135066000Y-94742000D03*
X133666000Y-94742000D03*
%TD*%
D16*
%TO.C,J9*%
X178816000Y-112522000D03*
%TD*%
D33*
%TO.C,R5*%
X102281000Y-90886000D03*
X105239000Y-90886000D03*
%TD*%
D34*
%TO.C,U1*%
X123708000Y-100066000D03*
D35*
X123708000Y-97526000D03*
X123708000Y-94986000D03*
X123708000Y-92446000D03*
X131328000Y-92446000D03*
X131328000Y-94986000D03*
X131328000Y-97526000D03*
X131328000Y-100066000D03*
%TD*%
D23*
%TO.C,R6*%
X122954000Y-88646000D03*
X124460000Y-88646000D03*
%TD*%
D16*
%TO.C,J8*%
X178689000Y-104521000D03*
%TD*%
D13*
%TO.C,TP4*%
X98806000Y-90678000D03*
%TD*%
D25*
%TO.C,D1*%
X102616000Y-101092000D03*
D26*
X112776000Y-101092000D03*
%TD*%
D33*
%TO.C,R10*%
X143338000Y-88392000D03*
X140380000Y-88392000D03*
%TD*%
D36*
%TO.C,Q1*%
X106680000Y-120396000D03*
D37*
X106680000Y-119126000D03*
X106680000Y-117856000D03*
%TD*%
D38*
%TO.C,RV2*%
X114340000Y-89154000D03*
X116840000Y-89154000D03*
X119340000Y-89154000D03*
%TD*%
%TO.C,RV1*%
X140502000Y-104902000D03*
X143002000Y-104902000D03*
X145502000Y-104902000D03*
%TD*%
D33*
%TO.C,R7*%
X111715000Y-56134000D03*
X108757000Y-56134000D03*
%TD*%
M02*
