%TF.GenerationSoftware,KiCad,Pcbnew,(6.0.2)*%
%TF.CreationDate,2022-03-20T16:00:40+02:00*%
%TF.ProjectId,main,6d61696e-2e6b-4696-9361-645f70636258,rev?*%
%TF.SameCoordinates,Original*%
%TF.FileFunction,Legend,Top*%
%TF.FilePolarity,Positive*%
%FSLAX46Y46*%
G04 Gerber Fmt 4.6, Leading zero omitted, Abs format (unit mm)*
G04 Created by KiCad (PCBNEW (6.0.2)) date 2022-03-20 16:00:40*
%MOMM*%
%LPD*%
G01*
G04 APERTURE LIST*
%ADD10C,0.300000*%
%ADD11C,0.150000*%
%ADD12C,0.152000*%
%ADD13C,0.120000*%
%ADD14C,0.254000*%
%ADD15C,0.203000*%
G04 APERTURE END LIST*
D10*
X180762590Y-95450161D02*
X180762590Y-97069209D01*
X180857828Y-97259685D01*
X180953066Y-97354923D01*
X181143542Y-97450161D01*
X181524495Y-97450161D01*
X181714971Y-97354923D01*
X181810209Y-97259685D01*
X181905447Y-97069209D01*
X181905447Y-95450161D01*
X182762590Y-97354923D02*
X183048304Y-97450161D01*
X183524495Y-97450161D01*
X183714971Y-97354923D01*
X183810209Y-97259685D01*
X183905447Y-97069209D01*
X183905447Y-96878733D01*
X183810209Y-96688257D01*
X183714971Y-96593019D01*
X183524495Y-96497780D01*
X183143542Y-96402542D01*
X182953066Y-96307304D01*
X182857828Y-96212066D01*
X182762590Y-96021590D01*
X182762590Y-95831114D01*
X182857828Y-95640638D01*
X182953066Y-95545400D01*
X183143542Y-95450161D01*
X183619733Y-95450161D01*
X183905447Y-95545400D01*
X185429257Y-96402542D02*
X185714971Y-96497780D01*
X185810209Y-96593019D01*
X185905447Y-96783495D01*
X185905447Y-97069209D01*
X185810209Y-97259685D01*
X185714971Y-97354923D01*
X185524495Y-97450161D01*
X184762590Y-97450161D01*
X184762590Y-95450161D01*
X185429257Y-95450161D01*
X185619733Y-95545400D01*
X185714971Y-95640638D01*
X185810209Y-95831114D01*
X185810209Y-96021590D01*
X185714971Y-96212066D01*
X185619733Y-96307304D01*
X185429257Y-96402542D01*
X184762590Y-96402542D01*
D11*
%TO.C,TP1*%
X184208895Y-92162380D02*
X184780323Y-92162380D01*
X184494609Y-93162380D02*
X184494609Y-92162380D01*
X185113657Y-93162380D02*
X185113657Y-92162380D01*
X185494609Y-92162380D01*
X185589847Y-92210000D01*
X185637466Y-92257619D01*
X185685085Y-92352857D01*
X185685085Y-92495714D01*
X185637466Y-92590952D01*
X185589847Y-92638571D01*
X185494609Y-92686190D01*
X185113657Y-92686190D01*
X186637466Y-93162380D02*
X186066038Y-93162380D01*
X186351752Y-93162380D02*
X186351752Y-92162380D01*
X186256514Y-92305238D01*
X186161276Y-92400476D01*
X186066038Y-92448095D01*
D12*
%TO.C,C2*%
X119117914Y-95836014D02*
X119063485Y-95890442D01*
X118900200Y-95944871D01*
X118791342Y-95944871D01*
X118628057Y-95890442D01*
X118519200Y-95781585D01*
X118464771Y-95672728D01*
X118410342Y-95455014D01*
X118410342Y-95291728D01*
X118464771Y-95074014D01*
X118519200Y-94965157D01*
X118628057Y-94856300D01*
X118791342Y-94801871D01*
X118900200Y-94801871D01*
X119063485Y-94856300D01*
X119117914Y-94910728D01*
X119553342Y-94910728D02*
X119607771Y-94856300D01*
X119716628Y-94801871D01*
X119988771Y-94801871D01*
X120097628Y-94856300D01*
X120152057Y-94910728D01*
X120206485Y-95019585D01*
X120206485Y-95128442D01*
X120152057Y-95291728D01*
X119498914Y-95944871D01*
X120206485Y-95944871D01*
%TO.C,U4*%
X186318071Y-111516057D02*
X187243357Y-111516057D01*
X187352214Y-111461628D01*
X187406642Y-111407200D01*
X187461071Y-111298342D01*
X187461071Y-111080628D01*
X187406642Y-110971771D01*
X187352214Y-110917342D01*
X187243357Y-110862914D01*
X186318071Y-110862914D01*
X186699071Y-109828771D02*
X187461071Y-109828771D01*
X186263642Y-110100914D02*
X187080071Y-110373057D01*
X187080071Y-109665485D01*
%TO.C,R8*%
X139835085Y-71510071D02*
X139454085Y-70965785D01*
X139181942Y-71510071D02*
X139181942Y-70367071D01*
X139617371Y-70367071D01*
X139726228Y-70421500D01*
X139780657Y-70475928D01*
X139835085Y-70584785D01*
X139835085Y-70748071D01*
X139780657Y-70856928D01*
X139726228Y-70911357D01*
X139617371Y-70965785D01*
X139181942Y-70965785D01*
X140488228Y-70856928D02*
X140379371Y-70802500D01*
X140324942Y-70748071D01*
X140270514Y-70639214D01*
X140270514Y-70584785D01*
X140324942Y-70475928D01*
X140379371Y-70421500D01*
X140488228Y-70367071D01*
X140705942Y-70367071D01*
X140814800Y-70421500D01*
X140869228Y-70475928D01*
X140923657Y-70584785D01*
X140923657Y-70639214D01*
X140869228Y-70748071D01*
X140814800Y-70802500D01*
X140705942Y-70856928D01*
X140488228Y-70856928D01*
X140379371Y-70911357D01*
X140324942Y-70965785D01*
X140270514Y-71074642D01*
X140270514Y-71292357D01*
X140324942Y-71401214D01*
X140379371Y-71455642D01*
X140488228Y-71510071D01*
X140705942Y-71510071D01*
X140814800Y-71455642D01*
X140869228Y-71401214D01*
X140923657Y-71292357D01*
X140923657Y-71074642D01*
X140869228Y-70965785D01*
X140814800Y-70911357D01*
X140705942Y-70856928D01*
D11*
%TO.C,U5*%
X155194095Y-119848380D02*
X155194095Y-120657904D01*
X155241714Y-120753142D01*
X155289333Y-120800761D01*
X155384571Y-120848380D01*
X155575047Y-120848380D01*
X155670285Y-120800761D01*
X155717904Y-120753142D01*
X155765523Y-120657904D01*
X155765523Y-119848380D01*
X156717904Y-119848380D02*
X156241714Y-119848380D01*
X156194095Y-120324571D01*
X156241714Y-120276952D01*
X156336952Y-120229333D01*
X156575047Y-120229333D01*
X156670285Y-120276952D01*
X156717904Y-120324571D01*
X156765523Y-120419809D01*
X156765523Y-120657904D01*
X156717904Y-120753142D01*
X156670285Y-120800761D01*
X156575047Y-120848380D01*
X156336952Y-120848380D01*
X156241714Y-120800761D01*
X156194095Y-120753142D01*
D12*
%TO.C,R13*%
X157843685Y-102752071D02*
X157462685Y-102207785D01*
X157190542Y-102752071D02*
X157190542Y-101609071D01*
X157625971Y-101609071D01*
X157734828Y-101663500D01*
X157789257Y-101717928D01*
X157843685Y-101826785D01*
X157843685Y-101990071D01*
X157789257Y-102098928D01*
X157734828Y-102153357D01*
X157625971Y-102207785D01*
X157190542Y-102207785D01*
X158932257Y-102752071D02*
X158279114Y-102752071D01*
X158605685Y-102752071D02*
X158605685Y-101609071D01*
X158496828Y-101772357D01*
X158387971Y-101881214D01*
X158279114Y-101935642D01*
X159313257Y-101609071D02*
X160020828Y-101609071D01*
X159639828Y-102044500D01*
X159803114Y-102044500D01*
X159911971Y-102098928D01*
X159966400Y-102153357D01*
X160020828Y-102262214D01*
X160020828Y-102534357D01*
X159966400Y-102643214D01*
X159911971Y-102697642D01*
X159803114Y-102752071D01*
X159476542Y-102752071D01*
X159367685Y-102697642D01*
X159313257Y-102643214D01*
%TO.C,J5*%
X104253314Y-48980271D02*
X104253314Y-49796700D01*
X104198885Y-49959985D01*
X104090028Y-50068842D01*
X103926742Y-50123271D01*
X103817885Y-50123271D01*
X105341885Y-48980271D02*
X104797600Y-48980271D01*
X104743171Y-49524557D01*
X104797600Y-49470128D01*
X104906457Y-49415700D01*
X105178600Y-49415700D01*
X105287457Y-49470128D01*
X105341885Y-49524557D01*
X105396314Y-49633414D01*
X105396314Y-49905557D01*
X105341885Y-50014414D01*
X105287457Y-50068842D01*
X105178600Y-50123271D01*
X104906457Y-50123271D01*
X104797600Y-50068842D01*
X104743171Y-50014414D01*
%TO.C,C1*%
X113580714Y-95607414D02*
X113526285Y-95661842D01*
X113363000Y-95716271D01*
X113254142Y-95716271D01*
X113090857Y-95661842D01*
X112982000Y-95552985D01*
X112927571Y-95444128D01*
X112873142Y-95226414D01*
X112873142Y-95063128D01*
X112927571Y-94845414D01*
X112982000Y-94736557D01*
X113090857Y-94627700D01*
X113254142Y-94573271D01*
X113363000Y-94573271D01*
X113526285Y-94627700D01*
X113580714Y-94682128D01*
X114669285Y-95716271D02*
X114016142Y-95716271D01*
X114342714Y-95716271D02*
X114342714Y-94573271D01*
X114233857Y-94736557D01*
X114125000Y-94845414D01*
X114016142Y-94899842D01*
%TO.C,J7*%
X145551071Y-93409485D02*
X146367500Y-93409485D01*
X146530785Y-93463914D01*
X146639642Y-93572771D01*
X146694071Y-93736057D01*
X146694071Y-93844914D01*
X145551071Y-92974057D02*
X145551071Y-92212057D01*
X146694071Y-92701914D01*
D11*
%TO.C,J2*%
X182308380Y-84407333D02*
X183022666Y-84407333D01*
X183165523Y-84454952D01*
X183260761Y-84550190D01*
X183308380Y-84693047D01*
X183308380Y-84788285D01*
X182403619Y-83978761D02*
X182356000Y-83931142D01*
X182308380Y-83835904D01*
X182308380Y-83597809D01*
X182356000Y-83502571D01*
X182403619Y-83454952D01*
X182498857Y-83407333D01*
X182594095Y-83407333D01*
X182736952Y-83454952D01*
X183308380Y-84026380D01*
X183308380Y-83407333D01*
D12*
%TO.C,D2*%
X145185571Y-119262071D02*
X145185571Y-118119071D01*
X145457714Y-118119071D01*
X145621000Y-118173500D01*
X145729857Y-118282357D01*
X145784285Y-118391214D01*
X145838714Y-118608928D01*
X145838714Y-118772214D01*
X145784285Y-118989928D01*
X145729857Y-119098785D01*
X145621000Y-119207642D01*
X145457714Y-119262071D01*
X145185571Y-119262071D01*
X146274142Y-118227928D02*
X146328571Y-118173500D01*
X146437428Y-118119071D01*
X146709571Y-118119071D01*
X146818428Y-118173500D01*
X146872857Y-118227928D01*
X146927285Y-118336785D01*
X146927285Y-118445642D01*
X146872857Y-118608928D01*
X146219714Y-119262071D01*
X146927285Y-119262071D01*
%TO.C,C4*%
X97045314Y-56897814D02*
X96990885Y-56952242D01*
X96827600Y-57006671D01*
X96718742Y-57006671D01*
X96555457Y-56952242D01*
X96446600Y-56843385D01*
X96392171Y-56734528D01*
X96337742Y-56516814D01*
X96337742Y-56353528D01*
X96392171Y-56135814D01*
X96446600Y-56026957D01*
X96555457Y-55918100D01*
X96718742Y-55863671D01*
X96827600Y-55863671D01*
X96990885Y-55918100D01*
X97045314Y-55972528D01*
X98025028Y-56244671D02*
X98025028Y-57006671D01*
X97752885Y-55809242D02*
X97480742Y-56625671D01*
X98188314Y-56625671D01*
D11*
%TO.C,J1*%
X181868380Y-74247333D02*
X182582666Y-74247333D01*
X182725523Y-74294952D01*
X182820761Y-74390190D01*
X182868380Y-74533047D01*
X182868380Y-74628285D01*
X182868380Y-73247333D02*
X182868380Y-73818761D01*
X182868380Y-73533047D02*
X181868380Y-73533047D01*
X182011238Y-73628285D01*
X182106476Y-73723523D01*
X182154095Y-73818761D01*
%TO.C,TP3*%
X186139295Y-54358580D02*
X186710723Y-54358580D01*
X186425009Y-55358580D02*
X186425009Y-54358580D01*
X187044057Y-55358580D02*
X187044057Y-54358580D01*
X187425009Y-54358580D01*
X187520247Y-54406200D01*
X187567866Y-54453819D01*
X187615485Y-54549057D01*
X187615485Y-54691914D01*
X187567866Y-54787152D01*
X187520247Y-54834771D01*
X187425009Y-54882390D01*
X187044057Y-54882390D01*
X187948819Y-54358580D02*
X188567866Y-54358580D01*
X188234533Y-54739533D01*
X188377390Y-54739533D01*
X188472628Y-54787152D01*
X188520247Y-54834771D01*
X188567866Y-54930009D01*
X188567866Y-55168104D01*
X188520247Y-55263342D01*
X188472628Y-55310961D01*
X188377390Y-55358580D01*
X188091676Y-55358580D01*
X187996438Y-55310961D01*
X187948819Y-55263342D01*
D12*
%TO.C,R11*%
X142171885Y-89061471D02*
X141790885Y-88517185D01*
X141518742Y-89061471D02*
X141518742Y-87918471D01*
X141954171Y-87918471D01*
X142063028Y-87972900D01*
X142117457Y-88027328D01*
X142171885Y-88136185D01*
X142171885Y-88299471D01*
X142117457Y-88408328D01*
X142063028Y-88462757D01*
X141954171Y-88517185D01*
X141518742Y-88517185D01*
X143260457Y-89061471D02*
X142607314Y-89061471D01*
X142933885Y-89061471D02*
X142933885Y-87918471D01*
X142825028Y-88081757D01*
X142716171Y-88190614D01*
X142607314Y-88245042D01*
X144349028Y-89061471D02*
X143695885Y-89061471D01*
X144022457Y-89061471D02*
X144022457Y-87918471D01*
X143913600Y-88081757D01*
X143804742Y-88190614D01*
X143695885Y-88245042D01*
%TO.C,C5*%
X96994514Y-54891214D02*
X96940085Y-54945642D01*
X96776800Y-55000071D01*
X96667942Y-55000071D01*
X96504657Y-54945642D01*
X96395800Y-54836785D01*
X96341371Y-54727928D01*
X96286942Y-54510214D01*
X96286942Y-54346928D01*
X96341371Y-54129214D01*
X96395800Y-54020357D01*
X96504657Y-53911500D01*
X96667942Y-53857071D01*
X96776800Y-53857071D01*
X96940085Y-53911500D01*
X96994514Y-53965928D01*
X98028657Y-53857071D02*
X97484371Y-53857071D01*
X97429942Y-54401357D01*
X97484371Y-54346928D01*
X97593228Y-54292500D01*
X97865371Y-54292500D01*
X97974228Y-54346928D01*
X98028657Y-54401357D01*
X98083085Y-54510214D01*
X98083085Y-54782357D01*
X98028657Y-54891214D01*
X97974228Y-54945642D01*
X97865371Y-55000071D01*
X97593228Y-55000071D01*
X97484371Y-54945642D01*
X97429942Y-54891214D01*
D11*
%TO.C,BT1*%
X145518285Y-70356571D02*
X145661142Y-70404190D01*
X145708761Y-70451809D01*
X145756380Y-70547047D01*
X145756380Y-70689904D01*
X145708761Y-70785142D01*
X145661142Y-70832761D01*
X145565904Y-70880380D01*
X145184952Y-70880380D01*
X145184952Y-69880380D01*
X145518285Y-69880380D01*
X145613523Y-69928000D01*
X145661142Y-69975619D01*
X145708761Y-70070857D01*
X145708761Y-70166095D01*
X145661142Y-70261333D01*
X145613523Y-70308952D01*
X145518285Y-70356571D01*
X145184952Y-70356571D01*
X146042095Y-69880380D02*
X146613523Y-69880380D01*
X146327809Y-70880380D02*
X146327809Y-69880380D01*
X147470666Y-70880380D02*
X146899238Y-70880380D01*
X147184952Y-70880380D02*
X147184952Y-69880380D01*
X147089714Y-70023238D01*
X146994476Y-70118476D01*
X146899238Y-70166095D01*
%TO.C,J4*%
X183729380Y-135080333D02*
X184443666Y-135080333D01*
X184586523Y-135127952D01*
X184681761Y-135223190D01*
X184729380Y-135366047D01*
X184729380Y-135461285D01*
X184062714Y-134175571D02*
X184729380Y-134175571D01*
X183681761Y-134413666D02*
X184396047Y-134651761D01*
X184396047Y-134032714D01*
%TO.C,J3*%
X182308380Y-125047333D02*
X183022666Y-125047333D01*
X183165523Y-125094952D01*
X183260761Y-125190190D01*
X183308380Y-125333047D01*
X183308380Y-125428285D01*
X182308380Y-124666380D02*
X182308380Y-124047333D01*
X182689333Y-124380666D01*
X182689333Y-124237809D01*
X182736952Y-124142571D01*
X182784571Y-124094952D01*
X182879809Y-124047333D01*
X183117904Y-124047333D01*
X183213142Y-124094952D01*
X183260761Y-124142571D01*
X183308380Y-124237809D01*
X183308380Y-124523523D01*
X183260761Y-124618761D01*
X183213142Y-124666380D01*
D12*
%TO.C,R12*%
X157500942Y-105368271D02*
X157119942Y-104823985D01*
X156847800Y-105368271D02*
X156847800Y-104225271D01*
X157283228Y-104225271D01*
X157392085Y-104279700D01*
X157446514Y-104334128D01*
X157500942Y-104442985D01*
X157500942Y-104606271D01*
X157446514Y-104715128D01*
X157392085Y-104769557D01*
X157283228Y-104823985D01*
X156847800Y-104823985D01*
X158589514Y-105368271D02*
X157936371Y-105368271D01*
X158262942Y-105368271D02*
X158262942Y-104225271D01*
X158154085Y-104388557D01*
X158045228Y-104497414D01*
X157936371Y-104551842D01*
X159024942Y-104334128D02*
X159079371Y-104279700D01*
X159188228Y-104225271D01*
X159460371Y-104225271D01*
X159569228Y-104279700D01*
X159623657Y-104334128D01*
X159678085Y-104442985D01*
X159678085Y-104551842D01*
X159623657Y-104715128D01*
X158970514Y-105368271D01*
X159678085Y-105368271D01*
%TO.C,R9*%
X131453085Y-72145071D02*
X131072085Y-71600785D01*
X130799942Y-72145071D02*
X130799942Y-71002071D01*
X131235371Y-71002071D01*
X131344228Y-71056500D01*
X131398657Y-71110928D01*
X131453085Y-71219785D01*
X131453085Y-71383071D01*
X131398657Y-71491928D01*
X131344228Y-71546357D01*
X131235371Y-71600785D01*
X130799942Y-71600785D01*
X131997371Y-72145071D02*
X132215085Y-72145071D01*
X132323942Y-72090642D01*
X132378371Y-72036214D01*
X132487228Y-71872928D01*
X132541657Y-71655214D01*
X132541657Y-71219785D01*
X132487228Y-71110928D01*
X132432800Y-71056500D01*
X132323942Y-71002071D01*
X132106228Y-71002071D01*
X131997371Y-71056500D01*
X131942942Y-71110928D01*
X131888514Y-71219785D01*
X131888514Y-71491928D01*
X131942942Y-71600785D01*
X131997371Y-71655214D01*
X132106228Y-71709642D01*
X132323942Y-71709642D01*
X132432800Y-71655214D01*
X132487228Y-71600785D01*
X132541657Y-71491928D01*
D13*
%TO.C,TP1*%
X189566400Y-92710000D02*
G75*
G03*
X189566400Y-92710000I-1200000J0D01*
G01*
D14*
%TO.C,C2*%
X118036000Y-94078000D02*
X118036000Y-93278000D01*
X120831000Y-94084000D02*
X120831000Y-93284000D01*
X119722000Y-92974000D02*
X120522000Y-92974000D01*
X119146000Y-92968000D02*
X118346000Y-92968000D01*
X119146000Y-94388000D02*
X118346000Y-94388000D01*
X119722000Y-94393000D02*
X120522000Y-94393000D01*
X120522000Y-94394000D02*
G75*
G03*
X120832000Y-94084000I0J310000D01*
G01*
X118036000Y-94077973D02*
G75*
G03*
X118346000Y-94388000I309999J-28D01*
G01*
X118346000Y-92968000D02*
G75*
G03*
X118036000Y-93278000I0J-310000D01*
G01*
X120832000Y-93284027D02*
G75*
G03*
X120522000Y-92974000I-309999J28D01*
G01*
%TO.C,U4*%
X190254500Y-108364000D02*
X189664500Y-107774000D01*
X190254500Y-100414000D02*
X189664500Y-101004000D01*
X190354500Y-108364000D02*
X190254500Y-108364000D01*
X188871500Y-108394000D02*
X190354500Y-108394000D01*
X184624500Y-100394000D02*
X186402500Y-100394000D01*
X184624500Y-108394000D02*
X186402500Y-108394000D01*
X184624500Y-100394000D02*
X184624500Y-101050000D01*
X189664500Y-101004000D02*
X189664500Y-107774000D01*
X188871500Y-100394000D02*
X190374500Y-100394000D01*
X190374500Y-100394000D02*
X190374500Y-108394000D01*
X184624500Y-107738000D02*
X184624500Y-108394000D01*
X190374500Y-100414000D02*
X190254500Y-100414000D01*
D12*
%TO.C,R8*%
X137582800Y-70049000D02*
X136584800Y-70049000D01*
X137582800Y-71219000D02*
X137582800Y-71937000D01*
X137582800Y-70767000D02*
X137582800Y-70049000D01*
X136584800Y-71937000D02*
X136584800Y-71219000D01*
X136584800Y-70049000D02*
X136584800Y-70767000D01*
X137582800Y-71937000D02*
X136584800Y-71937000D01*
D13*
%TO.C,U5*%
X155956000Y-119360000D02*
X154006000Y-119360000D01*
X155956000Y-109240000D02*
X157906000Y-109240000D01*
X155956000Y-109240000D02*
X154006000Y-109240000D01*
X155956000Y-119360000D02*
X159406000Y-119360000D01*
D12*
%TO.C,R13*%
X152875000Y-101445000D02*
X154160000Y-101445000D01*
X155112000Y-103279000D02*
X156397000Y-103279000D01*
X156397000Y-101445000D02*
X155112000Y-101445000D01*
X154160000Y-103279000D02*
X152875000Y-103279000D01*
X152875000Y-103279000D02*
X152875000Y-101445000D01*
X156397000Y-103279000D02*
X156397000Y-101445000D01*
D15*
%TO.C,J5*%
X106807000Y-53467000D02*
X101727000Y-53467000D01*
X106807000Y-50927000D02*
X103632000Y-50927000D01*
X101727000Y-53467000D02*
X101727000Y-50927000D01*
X101727000Y-50927000D02*
X103632000Y-50927000D01*
X106807000Y-50927000D02*
X106807000Y-53467000D01*
D14*
%TO.C,C1*%
X114596000Y-94187000D02*
X115396000Y-94187000D01*
X114020000Y-92762000D02*
X113220000Y-92762000D01*
X114020000Y-94182000D02*
X113220000Y-94182000D01*
X112910000Y-93872000D02*
X112910000Y-93072000D01*
X115705000Y-93878000D02*
X115705000Y-93078000D01*
X114596000Y-92768000D02*
X115396000Y-92768000D01*
X112910000Y-93871973D02*
G75*
G03*
X113220000Y-94182000I309999J-28D01*
G01*
X115706000Y-93078027D02*
G75*
G03*
X115396000Y-92768000I-309999J28D01*
G01*
X115396000Y-94188000D02*
G75*
G03*
X115706000Y-93878000I0J310000D01*
G01*
X113220000Y-92762000D02*
G75*
G03*
X112910000Y-93072000I0J-310000D01*
G01*
D15*
%TO.C,J7*%
X153670000Y-95250000D02*
X153670000Y-87630000D01*
X151130000Y-87630000D02*
X151130000Y-93345000D01*
X151130000Y-93345000D02*
X151130000Y-95250000D01*
X153670000Y-87630000D02*
X151130000Y-87630000D01*
X151130000Y-95250000D02*
X153670000Y-95250000D01*
D13*
%TO.C,J2*%
X181416000Y-85404000D02*
X180086000Y-85404000D01*
X178816000Y-82744000D02*
X97476000Y-82744000D01*
X178816000Y-82744000D02*
X178816000Y-85404000D01*
X97476000Y-82744000D02*
X97476000Y-85404000D01*
X181416000Y-84074000D02*
X181416000Y-85404000D01*
X178816000Y-85404000D02*
X97476000Y-85404000D01*
D12*
%TO.C,D2*%
X144124000Y-117692000D02*
X141372000Y-117692000D01*
X143715000Y-119544000D02*
X143715000Y-117692000D01*
X141372000Y-117692000D02*
X141372000Y-117935000D01*
X141372000Y-119544000D02*
X141372000Y-119301000D01*
X144124000Y-119544000D02*
X141372000Y-119544000D01*
G36*
X144353000Y-119620000D02*
G01*
X144048000Y-119620000D01*
X144048000Y-119250000D01*
X144353000Y-119250000D01*
X144353000Y-119620000D01*
G37*
G36*
X144353000Y-117986000D02*
G01*
X144048000Y-117986000D01*
X144048000Y-117616000D01*
X144353000Y-117616000D01*
X144353000Y-117986000D01*
G37*
D14*
%TO.C,C4*%
X100372000Y-57103000D02*
X101172000Y-57103000D01*
X99796000Y-55678000D02*
X98996000Y-55678000D01*
X98686000Y-56788000D02*
X98686000Y-55988000D01*
X101481000Y-56794000D02*
X101481000Y-55994000D01*
X100372000Y-55684000D02*
X101172000Y-55684000D01*
X99796000Y-57098000D02*
X98996000Y-57098000D01*
X101172000Y-57104000D02*
G75*
G03*
X101482000Y-56794000I0J310000D01*
G01*
X98686000Y-56787973D02*
G75*
G03*
X98996000Y-57098000I309999J-28D01*
G01*
X101482000Y-55994027D02*
G75*
G03*
X101172000Y-55684000I-309999J28D01*
G01*
X98996000Y-55678000D02*
G75*
G03*
X98686000Y-55988000I0J-310000D01*
G01*
D13*
%TO.C,J1*%
X180086000Y-72584000D02*
X181416000Y-72584000D01*
X178816000Y-75244000D02*
X97476000Y-75244000D01*
X178816000Y-72584000D02*
X178816000Y-75244000D01*
X181416000Y-72584000D02*
X181416000Y-73914000D01*
X97476000Y-72584000D02*
X97476000Y-75244000D01*
X178816000Y-72584000D02*
X97476000Y-72584000D01*
%TO.C,TP3*%
X188601200Y-52908200D02*
G75*
G03*
X188601200Y-52908200I-1200000J0D01*
G01*
D12*
%TO.C,R11*%
X149250000Y-89471000D02*
X149250000Y-87313000D01*
X145988000Y-89471000D02*
X144628000Y-89471000D01*
X144628000Y-87313000D02*
X145988000Y-87313000D01*
X149250000Y-87313000D02*
X147890000Y-87313000D01*
X147890000Y-89471000D02*
X149250000Y-89471000D01*
X144628000Y-89471000D02*
X144628000Y-87313000D01*
D14*
%TO.C,C5*%
X98686000Y-54756000D02*
X98686000Y-53956000D01*
X101481000Y-54762000D02*
X101481000Y-53962000D01*
X100372000Y-53652000D02*
X101172000Y-53652000D01*
X100372000Y-55071000D02*
X101172000Y-55071000D01*
X99796000Y-55066000D02*
X98996000Y-55066000D01*
X99796000Y-53646000D02*
X98996000Y-53646000D01*
X98996000Y-53646000D02*
G75*
G03*
X98686000Y-53956000I0J-310000D01*
G01*
X101482000Y-53962027D02*
G75*
G03*
X101172000Y-53652000I-309999J28D01*
G01*
X98686000Y-54755973D02*
G75*
G03*
X98996000Y-55066000I309999J-28D01*
G01*
X101172000Y-55072000D02*
G75*
G03*
X101482000Y-54762000I0J310000D01*
G01*
D13*
%TO.C,BT1*%
X107664000Y-48488000D02*
X184944000Y-48488000D01*
X184944000Y-62368000D02*
X189304000Y-62368000D01*
X184944000Y-48488000D02*
X184944000Y-55488000D01*
X190054000Y-64928000D02*
X187554000Y-64928000D01*
X107664000Y-55488000D02*
X107664000Y-48488000D01*
X107664000Y-69368000D02*
X184944000Y-69368000D01*
X184944000Y-69368000D02*
X184944000Y-62368000D01*
X188804000Y-63678000D02*
X188804000Y-66178000D01*
X102554000Y-64928000D02*
X105054000Y-64928000D01*
X107664000Y-62368000D02*
X107664000Y-69348000D01*
%TO.C,J4*%
X178816000Y-133544000D02*
X97476000Y-133544000D01*
X178816000Y-136204000D02*
X97476000Y-136204000D01*
X181416000Y-133544000D02*
X181416000Y-134874000D01*
X97476000Y-133544000D02*
X97476000Y-136204000D01*
X178816000Y-133544000D02*
X178816000Y-136204000D01*
X180086000Y-133544000D02*
X181416000Y-133544000D01*
%TO.C,J3*%
X178816000Y-123384000D02*
X178816000Y-126044000D01*
X181416000Y-126044000D02*
X180086000Y-126044000D01*
X97476000Y-123384000D02*
X97476000Y-126044000D01*
X178816000Y-123384000D02*
X97476000Y-123384000D01*
X181416000Y-124714000D02*
X181416000Y-126044000D01*
X178816000Y-126044000D02*
X97476000Y-126044000D01*
D12*
%TO.C,R12*%
X156447000Y-105565000D02*
X155162000Y-105565000D01*
X155162000Y-103731000D02*
X156447000Y-103731000D01*
X152925000Y-105565000D02*
X154210000Y-105565000D01*
X154210000Y-103731000D02*
X152925000Y-103731000D01*
X152925000Y-103731000D02*
X152925000Y-105565000D01*
X156447000Y-103731000D02*
X156447000Y-105565000D01*
%TO.C,R9*%
X129861200Y-70125200D02*
X128863200Y-70125200D01*
X129861200Y-72013200D02*
X128863200Y-72013200D01*
X128863200Y-70125200D02*
X128863200Y-70843200D01*
X128863200Y-72013200D02*
X128863200Y-71295200D01*
X129861200Y-70843200D02*
X129861200Y-70125200D01*
X129861200Y-71295200D02*
X129861200Y-72013200D01*
%TD*%
M02*
