Designator,Val,Package,Mid X,Mid Y,Rotation,Layer
C1,1u,R_0805_2012Metric,149.86,-102.87,180.0,bottom
C2,10u,R_0805_2012Metric,155.702,-91.0,180.0,bottom
C3,1uF,C_0805_2012Metric,106.934,-102.108,180.0,bottom
C10,1uF,C_0805_2012Metric,114.808,-116.332,90.0,bottom
C11,100n,C_0402_1005Metric,182.118,-93.788,90.0,bottom
C12,100n,C_0402_1005Metric,160.782,-121.412,180.0,bottom
D1,B5819W,D_SOD-123,168.0,-93.5,90.0,bottom
J5,Conn_01x02_Male,PinHeader_1x02_P2.54mm_Vertical,106.172,-97.287,0.0,bottom
J6,Conn_01x02_Male,PinHeader_1x02_P2.54mm_Vertical,182.925,-50.6,-90.0,bottom
J7,Conn_01x03_Male,PinHeader_1x03_P2.54mm_Vertical,186.461,-63.485,0.0,bottom
J8,Conn_01x02_Male,PinHeader_1x02_P2.54mm_Vertical,179.07,-97.033,0.0,bottom
J9,Conn_01x02_Male,PinHeader_1x02_P2.54mm_Vertical,179.07,-102.103,180.0,bottom
J10,Conn_01x02_Male,PinHeader_1x02_P2.54mm_Vertical,151.384,-117.861,0.0,bottom
J12,Conn_01x02_Male,PinHeader_1x02_P2.54mm_Vertical,158.999,-94.0,-90.0,bottom
R1,2k,R_0805_2012Metric,149.86,-100.33,180.0,bottom
R2,4.7k,R_0603_1608Metric,114.808,-109.728,-90.0,bottom
R3,2K,R_0805_2012Metric,178.816,-118.872,180.0,bottom
R4,2K,R_0805_2012Metric,173.99,-118.872,0.0,bottom
R5,4.7k,R_0603_1608Metric,106.426,-109.728,-90.0,bottom
R11,4.7k,R_0603_1608Metric,117.856,-114.806,-90.0,bottom
R16,10K,R_1206_3216Metric,183.896,-69.596,-90.0,bottom
R17,10K,R_1206_3216Metric,186.436,-69.596,90.0,bottom
R18,12K,R_0805_2012Metric,165.608,-109.982,90.0,bottom
R19,22K,R_0805_2012Metric,140.462,-97.536,90.0,bottom
U1,TP4057,TP4054,154.686,-101.346,0.0,bottom
U2,HT75,HT75,150.8395,-93.0,180.0,bottom
U3,LTR-553ALS-01,LTR-553ALS-01,111.506,-108.712,180.0,bottom
U5,MICROXNJ,MICRO-USB-SMD_MICROXNJ,187.1175,-102.9,-90.0,bottom
U6,CH340C,SOIC-16_3.9x9.9mm_P1.27mm,161.036,-116.332,90.0,bottom
U7,CAT24C256,CAT24C256,181.61,-114.3,-90.0,bottom
