(footprint "15+-20percent inductor" (version 20211014) (generator pcbnew)
  (layer "F.Cu")
  (tedit 0)
  (attr smd)
  (fp_text reference "U1" (at 0 -1.524) (layer "F.SilkS")
    (effects (font (size 1.143 1.143) (thickness 0.152)) (justify left))
    (tstamp 700e8b73-5976-423f-a3f3-ab3d9f3e9760)
  )
  (fp_text value "15+-20percent inductor" (at 0 -3.302) (layer "F.Fab") hide
    (effects (font (size 1.143 1.143) (thickness 0.152)) (justify left))
    (tstamp 79e31048-072a-4a40-a625-26bb0b5f046b)
  )
  (fp_text user "gge82" (at 0 0) (layer "Cmts.User")
    (effects (font (size 1 1) (thickness 0.15)))
    (tstamp e5203297-b913-4288-a576-12a92185cb52)
  )
  (fp_line (start 0.197 -1.016) (end -0.197 -1.016) (layer "F.SilkS") (width 0.254) (tstamp 6b7c1048-12b6-46b2-b762-fa3ad30472dd))
  (fp_line (start -0.197 1.016) (end 0.197 1.016) (layer "F.SilkS") (width 0.254) (tstamp f6c644f4-3036-41a6-9e14-2c08c079c6cd))
  (pad "1" smd rect (at 1.028 0) (size 1.2 2.2) (layers "F.Cu" "F.Paste" "F.Mask") (tstamp 8c1605f9-6c91-4701-96bf-e753661d5e23))
  (pad "2" smd rect (at -1.028 0) (size 1.2 2.2) (layers "F.Cu" "F.Paste" "F.Mask") (tstamp 109caac1-5036-4f23-9a66-f569d871501b))
)
