(footprint "330pF Cap" (version 20211014) (generator pcbnew)
  (layer "F.Cu")
  (tedit 0)
  (attr smd)
  (fp_text reference "C1" (at -0.254 -1.016) (layer "F.SilkS")
    (effects (font (size 1.143 1.143) (thickness 0.152)) (justify left))
    (tstamp 099096e4-8c2a-4d84-a16f-06b4b6330e7a)
  )
  (fp_text value "330pF Cap" (at -0.254 -2.794) (layer "F.Fab") hide
    (effects (font (size 1.143 1.143) (thickness 0.152)) (justify left))
    (tstamp 34a74736-156e-4bf3-9200-cd137cfa59da)
  )
  (fp_text user "gge106" (at 0 0) (layer "Cmts.User")
    (effects (font (size 1 1) (thickness 0.15)))
    (tstamp ca5a4651-0d1d-441b-b17d-01518ef3b656)
  )
  (fp_line (start -1.405 -0.406) (end -1.405 0.394) (layer "F.SilkS") (width 0.254) (tstamp 240e5dac-6242-47a5-bbef-f76d11c715c0))
  (fp_line (start 0.28 0.71) (end 1.08 0.71) (layer "F.SilkS") (width 0.254) (tstamp 676efd2f-1c48-4786-9e4b-2444f1e8f6ff))
  (fp_line (start 1.39 -0.4) (end 1.39 0.4) (layer "F.SilkS") (width 0.254) (tstamp 6c67e4f6-9d04-4539-b356-b76e915ce848))
  (fp_line (start 0.28 -0.71) (end 1.08 -0.71) (layer "F.SilkS") (width 0.254) (tstamp cfa5c16e-7859-460d-a0b8-cea7d7ea629c))
  (fp_line (start -0.296 -0.715) (end -1.096 -0.715) (layer "F.SilkS") (width 0.254) (tstamp e472dac4-5b65-4920-b8b2-6065d140a69d))
  (fp_line (start -0.296 0.704) (end -1.096 0.704) (layer "F.SilkS") (width 0.254) (tstamp f40d350f-0d3e-4f8a-b004-d950f2f8f1ba))
  (fp_arc (start 1.08 -0.71) (mid 1.299213 -0.619194) (end 1.39 -0.399973) (layer "F.SilkS") (width 0.254) (tstamp 097edb1b-8998-4e70-b670-bba125982348))
  (fp_arc (start -1.406 -0.406) (mid -1.315203 -0.625203) (end -1.096 -0.716) (layer "F.SilkS") (width 0.254) (tstamp 14c51520-6d91-4098-a59a-5121f2a898f7))
  (fp_arc (start 1.39 0.4) (mid 1.299203 0.619203) (end 1.08 0.71) (layer "F.SilkS") (width 0.254) (tstamp 67763d19-f622-4e1e-81e5-5b24da7c3f99))
  (fp_arc (start -1.096 0.704) (mid -1.315213 0.613194) (end -1.406 0.393973) (layer "F.SilkS") (width 0.254) (tstamp 84e5506c-143e-495f-9aa4-d3a71622f213))
  (pad "1" smd rect (at -0.7 0) (size 0.8 0.9) (layers "F.Cu" "F.Paste" "F.Mask") (tstamp 5ca4be1c-537e-4a4a-b344-d0c8ffde8546))
  (pad "2" smd rect (at 0.7 0) (size 0.8 0.9) (layers "F.Cu" "F.Paste" "F.Mask") (tstamp 853ee787-6e2c-4f32-bc75-6c17337dd3d5))
)
