(footprint "4.7uF Cap" (version 20211014) (generator pcbnew)
  (layer "F.Cu")
  (tedit 0)
  (attr smd)
  (fp_text reference "C1" (at 0 -1.524) (layer "F.SilkS")
    (effects (font (size 1.143 1.143) (thickness 0.152)) (justify left))
    (tstamp 644ae9fc-3c8e-4089-866e-a12bf371c3e9)
  )
  (fp_text value "4.7uF Cap" (at 0 -3.302) (layer "F.Fab") hide
    (effects (font (size 1.143 1.143) (thickness 0.152)) (justify left))
    (tstamp 3a52f112-cb97-43db-aaeb-20afe27664d7)
  )
  (fp_text user "gge112" (at 0 0) (layer "Cmts.User")
    (effects (font (size 1 1) (thickness 0.15)))
    (tstamp ee41cb8e-512d-41d2-81e1-3c50fff32aeb)
  )
  (fp_poly (pts
      (xy 0.85 0.764)
      (xy 0.85 0.394)
      (xy 0.95 0.294)
      (xy 1.255 0.294)
      (xy 1.355 0.194)
      (xy 1.355 -0.194)
      (xy 1.255 -0.294)
      (xy 0.95 -0.294)
      (xy 0.85 -0.394)
      (xy 0.85 -0.764)
      (xy 0.95 -0.864)
      (xy 2.235 -0.864)
      (xy 2.335 -0.764)
      (xy 2.335 0.764)
      (xy 2.235 0.864)
      (xy 0.95 0.864)
    ) (layer "F.Paste") (width 0) (fill solid) (tstamp 099096e4-8c2a-4d84-a16f-06b4b6330e7a))
  (fp_poly (pts
      (xy -0.85 0.764)
      (xy -0.85 0.394)
      (xy -0.95 0.294)
      (xy -1.255 0.294)
      (xy -1.355 0.194)
      (xy -1.355 -0.194)
      (xy -1.255 -0.294)
      (xy -0.95 -0.294)
      (xy -0.85 -0.394)
      (xy -0.85 -0.764)
      (xy -0.95 -0.864)
      (xy -2.235 -0.864)
      (xy -2.335 -0.764)
      (xy -2.335 0.764)
      (xy -2.235 0.864)
      (xy -0.95 0.864)
    ) (layer "F.Paste") (width 0) (fill solid) (tstamp 34a74736-156e-4bf3-9200-cd137cfa59da))
  (fp_line (start -2.564 0.94) (end -2.564 -0.94) (layer "F.SilkS") (width 0.152) (tstamp 14c51520-6d91-4098-a59a-5121f2a898f7))
  (fp_line (start -2.411 -1.093) (end -0.926 -1.093) (layer "F.SilkS") (width 0.152) (tstamp 240e5dac-6242-47a5-bbef-f76d11c715c0))
  (fp_line (start 0.926 1.093) (end 2.411 1.093) (layer "F.SilkS") (width 0.152) (tstamp 676efd2f-1c48-4786-9e4b-2444f1e8f6ff))
  (fp_line (start 2.411 -1.093) (end 0.926 -1.093) (layer "F.SilkS") (width 0.152) (tstamp cfa5c16e-7859-460d-a0b8-cea7d7ea629c))
  (fp_line (start 2.564 0.94) (end 2.564 -0.94) (layer "F.SilkS") (width 0.152) (tstamp e472dac4-5b65-4920-b8b2-6065d140a69d))
  (fp_line (start -0.926 1.093) (end -2.411 1.093) (layer "F.SilkS") (width 0.152) (tstamp f40d350f-0d3e-4f8a-b004-d950f2f8f1ba))
  (fp_arc (start 2.411 -1.093) (mid 2.519187 -1.048187) (end 2.564 -0.94) (layer "F.SilkS") (width 0.152) (tstamp 097edb1b-8998-4e70-b670-bba125982348))
  (fp_arc (start -2.411 1.093) (mid -2.519187 1.048187) (end -2.564 0.94) (layer "F.SilkS") (width 0.152) (tstamp 67763d19-f622-4e1e-81e5-5b24da7c3f99))
  (fp_arc (start 2.564 0.94) (mid 2.519187 1.048187) (end 2.411 1.093) (layer "F.SilkS") (width 0.152) (tstamp 84e5506c-143e-495f-9aa4-d3a71622f213))
  (fp_arc (start -2.564 -0.94) (mid -2.519187 -1.048187) (end -2.411 -1.093) (layer "F.SilkS") (width 0.152) (tstamp ca5a4651-0d1d-441b-b17d-01518ef3b656))
  (pad "1" smd rect (at -1.593 0) (size 1.485 1.728) (layers "F.Cu" "F.Paste" "F.Mask") (tstamp 6c67e4f6-9d04-4539-b356-b76e915ce848))
  (pad "2" smd rect (at 1.593 0) (size 1.485 1.728) (layers "F.Cu" "F.Paste" "F.Mask") (tstamp 5ca4be1c-537e-4a4a-b344-d0c8ffde8546))
)
