(footprint "470 Resistor" (version 20211014) (generator pcbnew)
  (layer "F.Cu")
  (tedit 0)
  (attr smd)
  (fp_text reference "R1" (at 0 -1.27) (layer "F.SilkS")
    (effects (font (size 1.143 1.143) (thickness 0.152)) (justify left))
    (tstamp 097edb1b-8998-4e70-b670-bba125982348)
  )
  (fp_text value "470 Resistor" (at 0 -3.048) (layer "F.Fab") hide
    (effects (font (size 1.143 1.143) (thickness 0.152)) (justify left))
    (tstamp 67763d19-f622-4e1e-81e5-5b24da7c3f99)
  )
  (fp_text user "gge88" (at 0 0) (layer "Cmts.User")
    (effects (font (size 1 1) (thickness 0.15)))
    (tstamp 84e5506c-143e-495f-9aa4-d3a71622f213)
  )
  (fp_poly (pts
      (xy -1.7 0.64)
      (xy -1.7 -0.64)
      (xy -1.65 -0.69)
      (xy -0.5 -0.69)
      (xy -0.45 -0.64)
      (xy -0.445 -0.23)
      (xy -0.895 -0.23)
      (xy -0.895 0.22)
      (xy -0.455 0.22)
      (xy -0.45 0.64)
      (xy -0.5 0.69)
      (xy -1.65 0.69)
    ) (layer "F.Paste") (width 0) (fill solid) (tstamp 5ca4be1c-537e-4a4a-b344-d0c8ffde8546))
  (fp_poly (pts
      (xy 0.45 0.64)
      (xy 0.45 0.22)
      (xy 0.895 0.22)
      (xy 0.895 -0.23)
      (xy 0.455 -0.23)
      (xy 0.45 -0.64)
      (xy 0.5 -0.69)
      (xy 1.65 -0.69)
      (xy 1.7 -0.64)
      (xy 1.7 0.64)
      (xy 1.65 0.69)
      (xy 0.5 0.69)
    ) (layer "F.Paste") (width 0) (fill solid) (tstamp 6c67e4f6-9d04-4539-b356-b76e915ce848))
  (fp_line (start -1.761 -0.917) (end -0.476 -0.917) (layer "F.SilkS") (width 0.152) (tstamp 14c51520-6d91-4098-a59a-5121f2a898f7))
  (fp_line (start -0.476 0.917) (end -1.761 0.917) (layer "F.SilkS") (width 0.152) (tstamp 240e5dac-6242-47a5-bbef-f76d11c715c0))
  (fp_line (start 1.761 0.917) (end 1.761 -0.917) (layer "F.SilkS") (width 0.152) (tstamp 676efd2f-1c48-4786-9e4b-2444f1e8f6ff))
  (fp_line (start 0.476 0.917) (end 1.761 0.917) (layer "F.SilkS") (width 0.152) (tstamp cfa5c16e-7859-460d-a0b8-cea7d7ea629c))
  (fp_line (start 1.761 -0.917) (end 0.476 -0.917) (layer "F.SilkS") (width 0.152) (tstamp e472dac4-5b65-4920-b8b2-6065d140a69d))
  (fp_line (start -1.761 0.917) (end -1.761 -0.917) (layer "F.SilkS") (width 0.152) (tstamp f40d350f-0d3e-4f8a-b004-d950f2f8f1ba))
  (pad "1" smd rect (at -0.966 0) (size 1.133 1.377) (layers "F.Cu" "F.Paste" "F.Mask") (tstamp 853ee787-6e2c-4f32-bc75-6c17337dd3d5))
  (pad "2" smd rect (at 0.966 0) (size 1.133 1.377) (layers "F.Cu" "F.Paste" "F.Mask") (tstamp 9cb12cc8-7f1a-4a01-9256-c119f11a8a02))
)
