(kicad_pcb (version 20211014) (generator pcbnew)

  (general
    (thickness 1.6)
  )

  (paper "A4")
  (layers
    (0 "F.Cu" signal)
    (31 "B.Cu" signal)
    (32 "B.Adhes" user "B.Adhesive")
    (33 "F.Adhes" user "F.Adhesive")
    (34 "B.Paste" user)
    (35 "F.Paste" user)
    (36 "B.SilkS" user "B.Silkscreen")
    (37 "F.SilkS" user "F.Silkscreen")
    (38 "B.Mask" user)
    (39 "F.Mask" user)
    (40 "Dwgs.User" user "User.Drawings")
    (41 "Cmts.User" user "User.Comments")
    (42 "Eco1.User" user "User.Eco1")
    (43 "Eco2.User" user "User.Eco2")
    (44 "Edge.Cuts" user)
    (45 "Margin" user)
    (46 "B.CrtYd" user "B.Courtyard")
    (47 "F.CrtYd" user "F.Courtyard")
    (48 "B.Fab" user)
    (49 "F.Fab" user)
  )

  (setup
    (pad_to_mask_clearance 0)
    (pcbplotparams
      (layerselection 0x00010fc_ffffffff)
      (disableapertmacros false)
      (usegerberextensions false)
      (usegerberattributes true)
      (usegerberadvancedattributes true)
      (creategerberjobfile true)
      (svguseinch false)
      (svgprecision 6)
      (excludeedgelayer true)
      (plotframeref false)
      (viasonmask false)
      (mode 1)
      (useauxorigin false)
      (hpglpennumber 1)
      (hpglpenspeed 20)
      (hpglpendiameter 15.000000)
      (dxfpolygonmode true)
      (dxfimperialunits true)
      (dxfusepcbnewfont true)
      (psnegative false)
      (psa4output false)
      (plotreference true)
      (plotvalue true)
      (plotinvisibletext false)
      (sketchpadsonfab false)
      (subtractmaskfromsilk false)
      (outputformat 1)
      (mirror false)
      (drillshape 1)
      (scaleselection 1)
      (outputdirectory "")
    )
  )

  (net 0 "")

  (footprint "easyeda:R0402" (layer "F.Cu")
    (tedit 0) (tstamp 909b030b-fa1a-4fe8-b1ee-422b4d9e23cf)
    (at 12.7 12.7)
    (attr smd)
    (fp_text reference "R1" (at 0 -0.762) (layer "F.SilkS")
      (effects (font (size 1.143 1.143) (thickness 0.152)) (justify left))
      (tstamp db83d0af-e085-4050-8496-fa2ebdecbd62)
    )
    (fp_text value "R0402" (at 0 -2.54) (layer "F.Fab") hide
      (effects (font (size 1.143 1.143) (thickness 0.152)) (justify left))
      (tstamp 0c30a4be-5679-499f-8c5b-5f3024f9d6cf)
    )
    (fp_text user "gge88" (at 0 0) (layer "Cmts.User")
      (effects (font (size 1 1) (thickness 0.15)))
      (tstamp c3c93de0-69b1-4a04-8e0b-d78caf487c63)
    )
    (fp_poly (pts
        (xy -0.135 0.23)
        (xy -0.135 -0.23)
        (xy -0.175 -0.27)
        (xy -0.676 -0.27)
        (xy -0.716 -0.23)
        (xy -0.716 0.23)
        (xy -0.676 0.27)
        (xy -0.175 0.27)
      ) (layer "F.Paste") (width 0) (fill solid) (tstamp 7e08f2a4-63d6-468b-bd8b-ec607077e023))
    (fp_poly (pts
        (xy 0.135 0.23)
        (xy 0.135 -0.23)
        (xy 0.175 -0.27)
        (xy 0.676 -0.27)
        (xy 0.716 -0.23)
        (xy 0.716 0.23)
        (xy 0.676 0.27)
        (xy 0.175 0.27)
      ) (layer "F.Paste") (width 0) (fill solid) (tstamp b60c50d1-225e-415c-8712-7acb5e3dc8ea))
    (fp_line (start -0.944 -0.499) (end -0.226 -0.499) (layer "F.SilkS") (width 0.152) (tstamp 2f3deced-880d-4075-a81b-95c62da5b94d))
    (fp_line (start -0.944 0.499) (end -0.944 -0.499) (layer "F.SilkS") (width 0.152) (tstamp 3cfcbcc7-4f45-46ab-82a8-c414c7972161))
    (fp_line (start 0.226 0.499) (end 0.944 0.499) (layer "F.SilkS") (width 0.152) (tstamp 4d609e7c-74c9-4ae9-a26d-946ff00c167d))
    (fp_line (start 0.944 0.499) (end 0.944 -0.499) (layer "F.SilkS") (width 0.152) (tstamp 786b6072-5772-4bc1-8eeb-6c4e19f2a91b))
    (fp_line (start 0.944 -0.499) (end 0.226 -0.499) (layer "F.SilkS") (width 0.152) (tstamp 9a9f2d82-f64d-4264-8bec-c182528fc4de))
    (fp_line (start -0.226 0.499) (end -0.944 0.499) (layer "F.SilkS") (width 0.152) (tstamp a501555e-bbc7-4b58-ad89-28a0cd3dd6d0))
    (pad "1" smd rect locked (at -0.433 0) (size 0.566 0.54) (layers "F.Cu" "F.Paste" "F.Mask") (tstamp 5740c959-93d8-47fd-8f68-62f0109e753d))
    (pad "2" smd rect locked (at 0.433 0) (size 0.566 0.54) (layers "F.Cu" "F.Paste" "F.Mask") (tstamp b6bcc3cf-50de-4a33-bc41-678825c1ecf2))
  )

)
