(footprint "SOIC-8_L4.9-W3.9-P1.27-LS6.0-BL" (version 20211014) (generator pcbnew)
  (layer "F.Cu")
  (tedit 0)
  (attr smd)
  (fp_text reference "U1" (at -0.254 -4.064) (layer "F.SilkS")
    (effects (font (size 1.143 1.143) (thickness 0.152)) (justify left))
    (tstamp 70e4263f-d95a-4431-b3f3-cfc800c82056)
  )
  (fp_text value "SOIC-8_L4.9-W3.9-P1.27-LS6.0-BL" (at -0.254 -5.842) (layer "F.Fab") hide
    (effects (font (size 1.143 1.143) (thickness 0.152)) (justify left))
    (tstamp c0c2eb8e-f6d1-4506-8e6b-4f995ad74c1f)
  )
  (fp_text user "gge220" (at 0 0) (layer "Cmts.User")
    (effects (font (size 1 1) (thickness 0.15)))
    (tstamp f66398f1-1ae7-4d4d-939f-958c174c6bce)
  )
  (fp_line (start 2.526 1.521) (end -2.526 1.521) (layer "F.SilkS") (width 0.152) (tstamp 6f675e5f-8fe6-4148-baf1-da97afc770f8))
  (fp_line (start 2.526 -1.521) (end 2.526 1.521) (layer "F.SilkS") (width 0.152) (tstamp 71989e06-8659-4605-b2da-4f729cc41263))
  (fp_line (start -2.526 1.521) (end -2.526 -1.521) (layer "F.SilkS") (width 0.152) (tstamp 917920ab-0c6e-4927-974d-ef342cdd4f63))
  (fp_line (start -2.526 -1.521) (end 2.526 -1.521) (layer "F.SilkS") (width 0.152) (tstamp eae14f5f-515c-4a6f-ad0e-e8ef233d14bf))
  (fp_circle (center -2.652 2.772) (end -2.501 2.772) (layer "F.SilkS") (width 0.3) (fill none) (tstamp 155b0b7c-70b4-4a26-a550-bac13cab0aa4))
  (fp_circle (center -1.905 0.769) (end -1.755 0.769) (layer "F.SilkS") (width 0.3) (fill none) (tstamp 4f411f68-04bd-4175-a406-bcaa4cf6601e))
  (fp_circle (center -1.905 3.4) (end -1.755 3.4) (layer "Cmts.User") (width 0.3) (fill none) (tstamp fbe8ebfc-2a8e-4eb8-85c5-38ddeaa5dd00))
  (pad "1" smd oval (at -1.905 2.772) (size 0.588 2.045) (layers "F.Cu" "F.Paste" "F.Mask") (tstamp f8fc38ec-0b98-40bc-ae2f-e5cc29973bca))
  (pad "2" smd oval (at -0.635 2.772) (size 0.588 2.045) (layers "F.Cu" "F.Paste" "F.Mask") (tstamp bb4b1afc-c46e-451d-8dad-36b7dec82f26))
  (pad "3" smd oval (at 0.635 2.772) (size 0.588 2.045) (layers "F.Cu" "F.Paste" "F.Mask") (tstamp 86dc7a78-7d51-4111-9eea-8a8f7977eb16))
  (pad "4" smd oval (at 1.905 2.772) (size 0.588 2.045) (layers "F.Cu" "F.Paste" "F.Mask") (tstamp 0bcafe80-ffba-4f1e-ae51-95a595b006db))
  (pad "5" smd oval (at 1.905 -2.772) (size 0.588 2.045) (layers "F.Cu" "F.Paste" "F.Mask") (tstamp da25bf79-0abb-4fac-a221-ca5c574dfc29))
  (pad "6" smd oval (at 0.635 -2.772) (size 0.588 2.045) (layers "F.Cu" "F.Paste" "F.Mask") (tstamp c49d23ab-146d-4089-864f-2d22b5b414b9))
  (pad "7" smd oval (at -0.635 -2.772) (size 0.588 2.045) (layers "F.Cu" "F.Paste" "F.Mask") (tstamp aa79024d-ca7e-4c24-b127-7df08bbd0c75))
  (pad "8" smd oval (at -1.905 -2.772) (size 0.588 2.045) (layers "F.Cu" "F.Paste" "F.Mask") (tstamp f78e02cd-9600-4173-be8d-67e530b5d19f))
)
