(footprint "LGA-12_L4.8-W2.8-P0.75-BL" (version 20211014) (generator pcbnew)
  (layer "F.Cu")
  (tedit 0)
  (attr smd)
  (fp_text reference "U1" (at -0.097 -1.794) (layer "F.SilkS")
    (effects (font (size 1.143 1.143) (thickness 0.152)) (justify left))
    (tstamp 43ca08d4-846a-41b1-a610-aa6c41c9f133)
  )
  (fp_text value "LGA-12_L4.8-W2.8-P0.75-BL" (at -0.097 -3.572) (layer "F.Fab") hide
    (effects (font (size 1.143 1.143) (thickness 0.152)) (justify left))
    (tstamp 908ce94b-b837-4c84-b759-ec4fbb006eea)
  )
  (fp_text user "gge307" (at 0 0) (layer "Cmts.User")
    (effects (font (size 1 1) (thickness 0.15)))
    (tstamp a8cefac6-64e1-41d0-bc58-04e647fd0fde)
  )
  (fp_line (start -2.4 0) (end -2.4 0.557) (layer "F.SilkS") (width 0.152) (tstamp 06cccf2c-d0d0-41ad-bc61-a0c3e7cbae93))
  (fp_line (start 2.4 -0.557) (end 2.4 -1.397) (layer "F.SilkS") (width 0.152) (tstamp 07e949c9-5dcb-46f5-aaf7-f5997cc8a90a))
  (fp_line (start -2.4 1.397) (end -2.355 1.397) (layer "F.SilkS") (width 0.152) (tstamp 0bc86cc1-c86c-41e0-9315-281c18af05f0))
  (fp_line (start 2.4 1.397) (end 2.355 1.397) (layer "F.SilkS") (width 0.152) (tstamp 283f6910-e54a-4bc1-a20d-86715c3ab323))
  (fp_line (start -2.4 -0.557) (end -2.4 -1.397) (layer "F.SilkS") (width 0.152) (tstamp 557efbe0-59d9-4c3b-875e-681f1d0eabac))
  (fp_line (start 2.4 0) (end 2.4 0.557) (layer "F.SilkS") (width 0.152) (tstamp 73ede880-e7f5-4d7b-b9cb-33e82f1b044f))
  (fp_line (start -2.4 0.557) (end -2.4 1.397) (layer "F.SilkS") (width 0.152) (tstamp b8dbe2de-283b-405e-95ac-e8f8950e16ea))
  (fp_line (start 2.4 0) (end 2.4 -0.557) (layer "F.SilkS") (width 0.152) (tstamp c1e78faf-25fc-46b6-b4c5-f5cb445c8db9))
  (fp_line (start -2.4 0) (end -2.4 -0.557) (layer "F.SilkS") (width 0.152) (tstamp d9b1315d-9c8a-4956-90df-e5669cf68010))
  (fp_line (start -2.4 -1.397) (end -2.355 -1.397) (layer "F.SilkS") (width 0.152) (tstamp dbc0323b-700b-465c-8416-a9e9aea1c906))
  (fp_line (start 2.4 0.557) (end 2.4 1.397) (layer "F.SilkS") (width 0.152) (tstamp ec94d7fb-8ff3-47fc-9bcb-6ab1990a40ec))
  (fp_line (start 2.4 -1.397) (end 2.355 -1.397) (layer "F.SilkS") (width 0.152) (tstamp fd7e3921-456d-4e00-b0f0-baf8980505ac))
  (fp_circle (center -1.905 1.778) (end -1.778 1.778) (layer "F.SilkS") (width 0.254) (fill none) (tstamp 6ef5f8e0-5c2d-4349-9162-179c7c438d89))
  (fp_circle (center -1.905 1.778) (end -1.778 1.778) (layer "Cmts.User") (width 0.254) (fill none) (tstamp b29a0e42-fd5a-49a8-8a01-edc4123e673b))
  (pad "1" smd rect (at -1.875 1) (size 0.55 0.8) (layers "F.Cu" "F.Paste" "F.Mask") (tstamp ca221485-8dbb-436e-8b3e-94c2d532aee3))
  (pad "2" smd rect (at -1.125 1) (size 0.55 0.8) (layers "F.Cu" "F.Paste" "F.Mask") (tstamp f3c28ff0-c3be-47ce-bf6f-f3061324a07d))
  (pad "3" smd rect (at -0.375 1) (size 0.55 0.8) (layers "F.Cu" "F.Paste" "F.Mask") (tstamp c0eebf2a-4881-44d5-83b5-dc6c113fd0d3))
  (pad "4" smd rect (at 0.375 1) (size 0.55 0.8) (layers "F.Cu" "F.Paste" "F.Mask") (tstamp 236eb5d3-1a80-4626-bf3d-45645c8c1c5e))
  (pad "5" smd rect (at 1.125 1) (size 0.55 0.8) (layers "F.Cu" "F.Paste" "F.Mask") (tstamp b9a616d4-042f-40dd-b821-3bd00708dff1))
  (pad "6" smd rect (at 1.875 1) (size 0.55 0.8) (layers "F.Cu" "F.Paste" "F.Mask") (tstamp bb30a1ab-4552-453e-850d-50bc465e6071))
  (pad "7" smd rect (at 1.875 -1) (size 0.55 0.8) (layers "F.Cu" "F.Paste" "F.Mask") (tstamp 86bb7e54-f037-47a0-b596-e108d6b4f269))
  (pad "8" smd rect (at 1.125 -1) (size 0.55 0.8) (layers "F.Cu" "F.Paste" "F.Mask") (tstamp 0ea296d6-5875-4618-860c-bfe68796f5b4))
  (pad "9" smd rect (at 0.375 -1) (size 0.55 0.8) (layers "F.Cu" "F.Paste" "F.Mask") (tstamp cb61a608-4d4c-465e-98f1-04dc591a70ac))
  (pad "10" smd rect (at -0.375 -1) (size 0.55 0.8) (layers "F.Cu" "F.Paste" "F.Mask") (tstamp dd9691e0-5bea-4f21-9741-4d29638cd32d))
  (pad "11" smd rect (at -1.125 -1) (size 0.55 0.8) (layers "F.Cu" "F.Paste" "F.Mask") (tstamp bc96b171-0e5f-4f36-b582-eb709cbba257))
  (pad "12" smd rect (at -1.875 -1) (size 0.55 0.8) (layers "F.Cu" "F.Paste" "F.Mask") (tstamp 263e9b7e-c3cd-4442-851e-d2b54de99d8e))
)
