(footprint "Red LED" (version 20211014) (generator pcbnew)
  (layer "F.Cu")
  (tedit 0)
  (attr smd)
  (fp_text reference "LED1" (at -0.105 -1.232) (layer "F.SilkS")
    (effects (font (size 1.143 1.143) (thickness 0.152)) (justify left))
    (tstamp 22999e73-da32-43a5-9163-4b3a41614f25)
  )
  (fp_text value "Red LED" (at -0.105 -3.01) (layer "F.Fab") hide
    (effects (font (size 1.143 1.143) (thickness 0.152)) (justify left))
    (tstamp 658dad07-97fd-466c-8b49-21892ac96ea4)
  )
  (fp_text user "gge124" (at 0 0) (layer "Cmts.User")
    (effects (font (size 1 1) (thickness 0.15)))
    (tstamp 81a15393-727e-448b-a777-b18773023d89)
  )
  (fp_line (start 0.3 -0.5) (end 0.3 0.5) (layer "F.SilkS") (width 0.254) (tstamp 0325ec43-0390-4ae2-b055-b1ec6ce17b1c))
  (fp_line (start -2.1 -0.6) (end -2.1 0.6) (layer "F.SilkS") (width 0.254) (tstamp 057af6bb-cf6f-4bfb-b0c0-2e92a2c09a47))
  (fp_line (start 1.98 -0.96) (end 1.98 0.94) (layer "F.SilkS") (width 0.254) (tstamp 29195ea4-8218-44a1-b4bf-466bee0082e4))
  (fp_line (start -0.5 -0.95) (end -1.75 -0.95) (layer "F.SilkS") (width 0.254) (tstamp 2e842263-c0ba-46fd-a760-6624d4c78278))
  (fp_line (start -1.75 -0.95) (end -2.1 -0.6) (layer "F.SilkS") (width 0.254) (tstamp 309b3bff-19c8-41ec-a84d-63399c649f46))
  (fp_line (start 0.5 -0.95) (end 1.98 -0.96) (layer "F.SilkS") (width 0.254) (tstamp 382ca670-6ae8-4de6-90f9-f241d1337171))
  (fp_line (start -0.5 0.95) (end -1.75 0.95) (layer "F.SilkS") (width 0.254) (tstamp 4632212f-13ce-4392-bc68-ccb9ba333770))
  (fp_line (start 0.3 0.005) (end -0.2 0.005) (layer "F.SilkS") (width 0.254) (tstamp 576c6616-e95d-4f1e-8ead-dea30fcdc8c2))
  (fp_line (start 0.64 0.94) (end 1.98 0.94) (layer "F.SilkS") (width 0.254) (tstamp b0906e10-2fbc-4309-a8b4-6fc4cd1a5490))
  (fp_line (start -1.75 -0.95) (end -1.75 -0.95) (layer "F.SilkS") (width 0.254) (tstamp be645d0f-8568-47a0-a152-e3ddd33563eb))
  (fp_line (start -1.75 0.95) (end -2.1 0.6) (layer "F.SilkS") (width 0.254) (tstamp c9667181-b3c7-4b01-b8b4-baa29a9aea63))
  (fp_line (start -1.75 0.95) (end -1.75 0.95) (layer "F.SilkS") (width 0.254) (tstamp cff34251-839c-4da9-a0ad-85d0fc4e32af))
  (fp_poly (pts
      (xy -1.6 0)
      (xy -0.6 0)
      (xy -0.6 -0.15)
      (xy -1.6 -0.15)
    ) (layer "Cmts.User") (width 0) (fill solid) (tstamp 5edcefbe-9766-42c8-9529-28d0ec865573))
  (fp_poly (pts
      (xy 1 -0.7)
      (xy 1.2 -0.7)
      (xy 1.2 0.7)
      (xy 1 0.7)
    ) (layer "Cmts.User") (width 0) (fill solid) (tstamp a5e521b9-814e-4853-a5ac-f158785c6269))
  (fp_poly (pts
      (xy 0.635 0.094)
      (xy 1.635 0.094)
      (xy 1.635 -0.056)
      (xy 0.635 -0.056)
    ) (layer "Cmts.User") (width 0) (fill solid) (tstamp c1c799a0-3c93-493a-9ad7-8a0561bc69ee))
  (pad "1" smd rect (at -1.1 0 180) (size 1 1.25) (layers "F.Cu" "F.Paste" "F.Mask") (tstamp 5cf2db29-f7ab-499a-9907-cdeba64bf0f3))
  (pad "2" smd rect (at 1.1 0 180) (size 1 1.25) (layers "F.Cu" "F.Paste" "F.Mask") (tstamp 3fd54105-4b7e-4004-9801-76ec66108a22))
)
