(footprint "TL071" (version 20211014) (generator pcbnew)
  (layer "F.Cu")
  (tedit 0)
  (attr smd)
  (fp_text reference "U1" (at -0.254 -4.064) (layer "F.SilkS")
    (effects (font (size 1.143 1.143) (thickness 0.152)) (justify left))
    (tstamp 7f52d787-caa3-4a92-b1b2-19d554dc29a4)
  )
  (fp_text value "TL071" (at -0.254 -5.842) (layer "F.Fab") hide
    (effects (font (size 1.143 1.143) (thickness 0.152)) (justify left))
    (tstamp c8029a4c-945d-42ca-871a-dd73ff50a1a3)
  )
  (fp_text user "gge220" (at 0 0) (layer "Cmts.User")
    (effects (font (size 1 1) (thickness 0.15)))
    (tstamp 7f2301df-e4bc-479e-a681-cc59c9a2dbbb)
  )
  (fp_line (start 2.526 1.521) (end -2.526 1.521) (layer "F.SilkS") (width 0.152) (tstamp 1e518c2a-4cb7-4599-a1fa-5b9f847da7d3))
  (fp_line (start -2.526 -1.521) (end 2.526 -1.521) (layer "F.SilkS") (width 0.152) (tstamp 87d7448e-e139-4209-ae0b-372f805267da))
  (fp_line (start -2.526 1.521) (end -2.526 -1.521) (layer "F.SilkS") (width 0.152) (tstamp a13ab237-8f8d-4e16-8c47-4440653b8534))
  (fp_line (start 2.526 -1.521) (end 2.526 1.521) (layer "F.SilkS") (width 0.152) (tstamp d0d2eee9-31f6-44fa-8149-ebb4dc2dc0dc))
  (fp_circle (center -1.905 0.769) (end -1.755 0.769) (layer "F.SilkS") (width 0.3) (fill none) (tstamp 41acfe41-fac7-432a-a7a3-946566e2d504))
  (fp_circle (center -2.652 2.772) (end -2.501 2.772) (layer "F.SilkS") (width 0.3) (fill none) (tstamp f4eb0267-179f-46c9-b516-9bfb06bac1ba))
  (fp_circle (center -1.905 3.4) (end -1.755 3.4) (layer "Cmts.User") (width 0.3) (fill none) (tstamp 98c78427-acd5-4f90-9ad6-9f61c4809aec))
  (pad "1" smd oval (at -1.905 2.772) (size 0.588 2.045) (layers "F.Cu" "F.Paste" "F.Mask") (tstamp 8d9a3ecc-539f-41da-8099-d37cea9c28e7))
  (pad "2" smd oval (at -0.635 2.772) (size 0.588 2.045) (layers "F.Cu" "F.Paste" "F.Mask") (tstamp 0351df45-d042-41d4-ba35-88092c7be2fc))
  (pad "3" smd oval (at 0.635 2.772) (size 0.588 2.045) (layers "F.Cu" "F.Paste" "F.Mask") (tstamp aa2ea573-3f20-43c1-aa99-1f9c6031a9aa))
  (pad "4" smd oval (at 1.905 2.772) (size 0.588 2.045) (layers "F.Cu" "F.Paste" "F.Mask") (tstamp 0e1ed1c5-7428-4dc7-b76e-49b2d5f8177d))
  (pad "5" smd oval (at 1.905 -2.772) (size 0.588 2.045) (layers "F.Cu" "F.Paste" "F.Mask") (tstamp 6284122b-79c3-4e04-925e-3d32cc3ec077))
  (pad "6" smd oval (at 0.635 -2.772) (size 0.588 2.045) (layers "F.Cu" "F.Paste" "F.Mask") (tstamp 994b6220-4755-4d84-91b3-6122ac1c2c5e))
  (pad "7" smd oval (at -0.635 -2.772) (size 0.588 2.045) (layers "F.Cu" "F.Paste" "F.Mask") (tstamp 477311b9-8f81-40c8-9c55-fd87e287247a))
  (pad "8" smd oval (at -1.905 -2.772) (size 0.588 2.045) (layers "F.Cu" "F.Paste" "F.Mask") (tstamp 2d67a417-188f-4014-9282-000265d80009))
)
